EESchema Schematic File Version 4
EELAYER 30 0
EELAYER END
$Descr A4 11693 8268
encoding utf-8
Sheet 1 3
Title ""
Date ""
Rev ""
Comp ""
Comment1 ""
Comment2 ""
Comment3 ""
Comment4 ""
$EndDescr
NoConn ~ 1300 2650
NoConn ~ 1300 2450
$Comp
L Connector:AudioJack3_SwitchTR J?
U 1 1 60B29A35
P 1100 2350
AR Path="/6009C38B/60B29A35" Ref="J?"  Part="1" 
AR Path="/6009C458/60B29A35" Ref="J?"  Part="1" 
AR Path="/6007C274/60B29A35" Ref="J?"  Part="1" 
AR Path="/60B29A35" Ref="J3"  Part="1" 
AR Path="/604EEE41/60B29A35" Ref="J?"  Part="1" 
AR Path="/60B2848E/60B29A35" Ref="J?"  Part="1" 
F 0 "J3" H 1082 2675 50  0000 C CNN
F 1 "AudioJack3_SwitchTR" H 1082 2584 50  0000 C CNN
F 2 "Kosmo_panel:Jack_6.35mm_PJ_629HAN" H 1100 2350 50  0001 C CNN
F 3 "~" H 1100 2350 50  0001 C CNN
	1    1100 2350
	1    0    0    -1  
$EndComp
Wire Wire Line
	1650 2250 1300 2250
NoConn ~ 1300 2350
Text GLabel 1600 2550 2    50   Input ~ 0
Out_L_Breakout
NoConn ~ 2850 2650
NoConn ~ 2850 2450
$Comp
L Connector:AudioJack3_SwitchTR J?
U 1 1 60B2E9EC
P 2650 2350
AR Path="/6009C38B/60B2E9EC" Ref="J?"  Part="1" 
AR Path="/6009C458/60B2E9EC" Ref="J?"  Part="1" 
AR Path="/6007C274/60B2E9EC" Ref="J?"  Part="1" 
AR Path="/60B2E9EC" Ref="J4"  Part="1" 
AR Path="/604EEE41/60B2E9EC" Ref="J?"  Part="1" 
AR Path="/60B2848E/60B2E9EC" Ref="J?"  Part="1" 
F 0 "J4" H 2632 2675 50  0000 C CNN
F 1 "AudioJack3_SwitchTR" H 2632 2584 50  0000 C CNN
F 2 "Kosmo_panel:Jack_6.35mm_PJ_629HAN" H 2650 2350 50  0001 C CNN
F 3 "~" H 2650 2350 50  0001 C CNN
	1    2650 2350
	1    0    0    -1  
$EndComp
Wire Wire Line
	3200 2250 2850 2250
NoConn ~ 2850 2350
Text GLabel 3150 2550 2    50   Input ~ 0
Out_R_Breakout
NoConn ~ 1300 1500
NoConn ~ 1300 1300
$Comp
L Connector:AudioJack3_SwitchTR J?
U 1 1 60B3384C
P 1100 1200
AR Path="/6009C38B/60B3384C" Ref="J?"  Part="1" 
AR Path="/6009C458/60B3384C" Ref="J?"  Part="1" 
AR Path="/6007C274/60B3384C" Ref="J?"  Part="1" 
AR Path="/60B3384C" Ref="J1"  Part="1" 
AR Path="/604EEE41/60B3384C" Ref="J?"  Part="1" 
AR Path="/60B2848E/60B3384C" Ref="J?"  Part="1" 
F 0 "J1" H 1082 1525 50  0000 C CNN
F 1 "AudioJack3_SwitchTR" H 1082 1434 50  0000 C CNN
F 2 "Kosmo_panel:Jack_6.35mm_PJ_629HAN" H 1100 1200 50  0001 C CNN
F 3 "~" H 1100 1200 50  0001 C CNN
	1    1100 1200
	1    0    0    -1  
$EndComp
Wire Wire Line
	1650 1100 1300 1100
NoConn ~ 1300 1200
Text GLabel 1600 1400 2    50   Output ~ 0
In_L_Breakout
NoConn ~ 2850 1500
NoConn ~ 2850 1300
$Comp
L Connector:AudioJack3_SwitchTR J?
U 1 1 60B3385D
P 2650 1200
AR Path="/6009C38B/60B3385D" Ref="J?"  Part="1" 
AR Path="/6009C458/60B3385D" Ref="J?"  Part="1" 
AR Path="/6007C274/60B3385D" Ref="J?"  Part="1" 
AR Path="/60B3385D" Ref="J2"  Part="1" 
AR Path="/604EEE41/60B3385D" Ref="J?"  Part="1" 
AR Path="/60B2848E/60B3385D" Ref="J?"  Part="1" 
F 0 "J2" H 2632 1525 50  0000 C CNN
F 1 "AudioJack3_SwitchTR" H 2632 1434 50  0000 C CNN
F 2 "Kosmo_panel:Jack_6.35mm_PJ_629HAN" H 2650 1200 50  0001 C CNN
F 3 "~" H 2650 1200 50  0001 C CNN
	1    2650 1200
	1    0    0    -1  
$EndComp
Wire Wire Line
	3200 1100 2850 1100
NoConn ~ 2850 1200
Text GLabel 3150 1400 2    50   Output ~ 0
In_R_Breakout
Wire Notes Line
	3850 2950 450  2950
NoConn ~ 1300 3750
NoConn ~ 1300 3550
$Comp
L Connector:AudioJack3_SwitchTR J?
U 1 1 60B4A22F
P 1100 3450
AR Path="/6009C38B/60B4A22F" Ref="J?"  Part="1" 
AR Path="/6009C458/60B4A22F" Ref="J?"  Part="1" 
AR Path="/6007C274/60B4A22F" Ref="J?"  Part="1" 
AR Path="/60B4A22F" Ref="J7"  Part="1" 
AR Path="/604EEE41/60B4A22F" Ref="J?"  Part="1" 
AR Path="/60B2848E/60B4A22F" Ref="J?"  Part="1" 
F 0 "J7" H 1082 3775 50  0000 C CNN
F 1 "AudioJack3_SwitchTR" H 1082 3684 50  0000 C CNN
F 2 "Kosmo_panel:Jack_6.35mm_PJ_629HAN" H 1100 3450 50  0001 C CNN
F 3 "~" H 1100 3450 50  0001 C CNN
	1    1100 3450
	1    0    0    -1  
$EndComp
Wire Wire Line
	1650 3350 1300 3350
NoConn ~ 1300 3450
Text GLabel 1600 3650 2    50   Output ~ 0
CV1_Breakout
NoConn ~ 2800 3750
NoConn ~ 2800 3550
$Comp
L Connector:AudioJack3_SwitchTR J?
U 1 1 60B4C067
P 2600 3450
AR Path="/6009C38B/60B4C067" Ref="J?"  Part="1" 
AR Path="/6009C458/60B4C067" Ref="J?"  Part="1" 
AR Path="/6007C274/60B4C067" Ref="J?"  Part="1" 
AR Path="/60B4C067" Ref="J8"  Part="1" 
AR Path="/604EEE41/60B4C067" Ref="J?"  Part="1" 
AR Path="/60B2848E/60B4C067" Ref="J?"  Part="1" 
F 0 "J8" H 2582 3775 50  0000 C CNN
F 1 "AudioJack3_SwitchTR" H 2582 3684 50  0000 C CNN
F 2 "Kosmo_panel:Jack_6.35mm_PJ_629HAN" H 2600 3450 50  0001 C CNN
F 3 "~" H 2600 3450 50  0001 C CNN
	1    2600 3450
	1    0    0    -1  
$EndComp
Wire Wire Line
	3150 3350 2800 3350
NoConn ~ 2800 3450
Text GLabel 3100 3650 2    50   Output ~ 0
CV2_Breakout
NoConn ~ 1300 4600
NoConn ~ 1300 4400
$Comp
L Connector:AudioJack3_SwitchTR J?
U 1 1 60B55477
P 1100 4300
AR Path="/6009C38B/60B55477" Ref="J?"  Part="1" 
AR Path="/6009C458/60B55477" Ref="J?"  Part="1" 
AR Path="/6007C274/60B55477" Ref="J?"  Part="1" 
AR Path="/60B55477" Ref="J9"  Part="1" 
AR Path="/604EEE41/60B55477" Ref="J?"  Part="1" 
AR Path="/60B2848E/60B55477" Ref="J?"  Part="1" 
F 0 "J9" H 1082 4625 50  0000 C CNN
F 1 "AudioJack3_SwitchTR" H 1082 4534 50  0000 C CNN
F 2 "Kosmo_panel:Jack_6.35mm_PJ_629HAN" H 1100 4300 50  0001 C CNN
F 3 "~" H 1100 4300 50  0001 C CNN
	1    1100 4300
	1    0    0    -1  
$EndComp
Wire Wire Line
	1650 4200 1300 4200
NoConn ~ 1300 4300
Text GLabel 1600 4500 2    50   Output ~ 0
CV3_Breakout
NoConn ~ 2800 4600
NoConn ~ 2800 4400
$Comp
L Connector:AudioJack3_SwitchTR J?
U 1 1 60B55488
P 2600 4300
AR Path="/6009C38B/60B55488" Ref="J?"  Part="1" 
AR Path="/6009C458/60B55488" Ref="J?"  Part="1" 
AR Path="/6007C274/60B55488" Ref="J?"  Part="1" 
AR Path="/60B55488" Ref="J10"  Part="1" 
AR Path="/604EEE41/60B55488" Ref="J?"  Part="1" 
AR Path="/60B2848E/60B55488" Ref="J?"  Part="1" 
F 0 "J10" H 2582 4625 50  0000 C CNN
F 1 "AudioJack3_SwitchTR" H 2582 4534 50  0000 C CNN
F 2 "Kosmo_panel:Jack_6.35mm_PJ_629HAN" H 2600 4300 50  0001 C CNN
F 3 "~" H 2600 4300 50  0001 C CNN
	1    2600 4300
	1    0    0    -1  
$EndComp
Wire Wire Line
	3150 4200 2800 4200
NoConn ~ 2800 4300
Text GLabel 3100 4500 2    50   Output ~ 0
CV4_Breakout
NoConn ~ 1300 5450
NoConn ~ 1300 5250
$Comp
L Connector:AudioJack3_SwitchTR J?
U 1 1 60B56D25
P 1100 5150
AR Path="/6009C38B/60B56D25" Ref="J?"  Part="1" 
AR Path="/6009C458/60B56D25" Ref="J?"  Part="1" 
AR Path="/6007C274/60B56D25" Ref="J?"  Part="1" 
AR Path="/60B56D25" Ref="J13"  Part="1" 
AR Path="/604EEE41/60B56D25" Ref="J?"  Part="1" 
AR Path="/60B2848E/60B56D25" Ref="J?"  Part="1" 
F 0 "J13" H 1082 5475 50  0000 C CNN
F 1 "AudioJack3_SwitchTR" H 1082 5384 50  0000 C CNN
F 2 "Kosmo_panel:Jack_6.35mm_PJ_629HAN" H 1100 5150 50  0001 C CNN
F 3 "~" H 1100 5150 50  0001 C CNN
	1    1100 5150
	1    0    0    -1  
$EndComp
Wire Wire Line
	1650 5050 1300 5050
NoConn ~ 1300 5150
Text GLabel 1600 5350 2    50   Output ~ 0
CV5_Breakout
NoConn ~ 2800 5450
NoConn ~ 2800 5250
$Comp
L Connector:AudioJack3_SwitchTR J?
U 1 1 60B56D36
P 2600 5150
AR Path="/6009C38B/60B56D36" Ref="J?"  Part="1" 
AR Path="/6009C458/60B56D36" Ref="J?"  Part="1" 
AR Path="/6007C274/60B56D36" Ref="J?"  Part="1" 
AR Path="/60B56D36" Ref="J14"  Part="1" 
AR Path="/604EEE41/60B56D36" Ref="J?"  Part="1" 
AR Path="/60B2848E/60B56D36" Ref="J?"  Part="1" 
F 0 "J14" H 2582 5475 50  0000 C CNN
F 1 "AudioJack3_SwitchTR" H 2582 5384 50  0000 C CNN
F 2 "Kosmo_panel:Jack_6.35mm_PJ_629HAN" H 2600 5150 50  0001 C CNN
F 3 "~" H 2600 5150 50  0001 C CNN
	1    2600 5150
	1    0    0    -1  
$EndComp
Wire Wire Line
	3150 5050 2800 5050
NoConn ~ 2800 5150
Text GLabel 3100 5350 2    50   Output ~ 0
CV6_Breakout
NoConn ~ 1300 6350
NoConn ~ 1300 6150
$Comp
L Connector:AudioJack3_SwitchTR J?
U 1 1 60B57FB6
P 1100 6050
AR Path="/6009C38B/60B57FB6" Ref="J?"  Part="1" 
AR Path="/6009C458/60B57FB6" Ref="J?"  Part="1" 
AR Path="/6007C274/60B57FB6" Ref="J?"  Part="1" 
AR Path="/60B57FB6" Ref="J15"  Part="1" 
AR Path="/604EEE41/60B57FB6" Ref="J?"  Part="1" 
AR Path="/60B2848E/60B57FB6" Ref="J?"  Part="1" 
F 0 "J15" H 1082 6375 50  0000 C CNN
F 1 "AudioJack3_SwitchTR" H 1082 6284 50  0000 C CNN
F 2 "Kosmo_panel:Jack_6.35mm_PJ_629HAN" H 1100 6050 50  0001 C CNN
F 3 "~" H 1100 6050 50  0001 C CNN
	1    1100 6050
	1    0    0    -1  
$EndComp
Wire Wire Line
	1650 5950 1300 5950
NoConn ~ 1300 6050
Text GLabel 1600 6250 2    50   Output ~ 0
CV7_Breakout
NoConn ~ 2800 6350
NoConn ~ 2800 6150
$Comp
L Connector:AudioJack3_SwitchTR J?
U 1 1 60B57FC7
P 2600 6050
AR Path="/6009C38B/60B57FC7" Ref="J?"  Part="1" 
AR Path="/6009C458/60B57FC7" Ref="J?"  Part="1" 
AR Path="/6007C274/60B57FC7" Ref="J?"  Part="1" 
AR Path="/60B57FC7" Ref="J16"  Part="1" 
AR Path="/604EEE41/60B57FC7" Ref="J?"  Part="1" 
AR Path="/60B2848E/60B57FC7" Ref="J?"  Part="1" 
F 0 "J16" H 2582 6375 50  0000 C CNN
F 1 "AudioJack3_SwitchTR" H 2582 6284 50  0000 C CNN
F 2 "Kosmo_panel:Jack_6.35mm_PJ_629HAN" H 2600 6050 50  0001 C CNN
F 3 "~" H 2600 6050 50  0001 C CNN
	1    2600 6050
	1    0    0    -1  
$EndComp
Wire Wire Line
	3150 5950 2800 5950
NoConn ~ 2800 6050
Text GLabel 3100 6250 2    50   Output ~ 0
CV8_Breakout
Wire Notes Line
	3850 6850 500  6850
Wire Notes Line
	3850 500  3850 6850
$Comp
L Connector_Generic:Conn_02x08_Odd_Even J5
U 1 1 60B64984
P 5700 2450
F 0 "J5" H 5750 2967 50  0000 C CNN
F 1 "Conn_02x08_Odd_Even" H 5750 2876 50  0000 C CNN
F 2 "Connector_PinHeader_2.54mm:PinHeader_2x08_P2.54mm_Vertical" H 5700 2450 50  0001 C CNN
F 3 "~" H 5700 2450 50  0001 C CNN
	1    5700 2450
	1    0    0    -1  
$EndComp
Text GLabel 5500 2250 0    50   Output ~ 0
In_R_Breakout
Text GLabel 6000 2350 2    50   Input ~ 0
Out_R_Breakout
Text GLabel 6000 2850 2    50   Output ~ 0
CV2_Breakout
Text GLabel 6000 2750 2    50   Output ~ 0
CV4_Breakout
Text GLabel 6000 2650 2    50   Output ~ 0
CV6_Breakout
Text GLabel 6000 2550 2    50   Output ~ 0
CV8_Breakout
Wire Wire Line
	6000 2450 6800 2450
Wire Wire Line
	6800 2450 6800 2150
Wire Wire Line
	6800 2150 6000 2150
Text GLabel 5500 2350 0    50   Output ~ 0
In_L_Breakout
Text GLabel 6000 2250 2    50   Input ~ 0
Out_L_Breakout
Text GLabel 5500 2550 0    50   Output ~ 0
CV1_Breakout
Text GLabel 5500 2650 0    50   Output ~ 0
CV3_Breakout
Text GLabel 5500 2750 0    50   Output ~ 0
CV5_Breakout
Text GLabel 5500 2850 0    50   Output ~ 0
CV7_Breakout
Wire Wire Line
	4600 2450 5500 2450
Wire Wire Line
	4600 2450 4600 2150
Wire Wire Line
	4600 2150 5500 2150
$Comp
L Device:R R5
U 1 1 60923F20
P 1450 3650
F 0 "R5" V 1243 3650 50  0000 C CNN
F 1 "20k" V 1334 3650 50  0000 C CNN
F 2 "Resistor_THT:R_Axial_DIN0207_L6.3mm_D2.5mm_P10.16mm_Horizontal" V 1380 3650 50  0001 C CNN
F 3 "~" H 1450 3650 50  0001 C CNN
	1    1450 3650
	0    1    1    0   
$EndComp
$Comp
L Device:R R1
U 1 1 60939179
P 1450 1400
F 0 "R1" V 1243 1400 50  0000 C CNN
F 1 "20k" V 1334 1400 50  0000 C CNN
F 2 "Resistor_THT:R_Axial_DIN0207_L6.3mm_D2.5mm_P10.16mm_Horizontal" V 1380 1400 50  0001 C CNN
F 3 "~" H 1450 1400 50  0001 C CNN
	1    1450 1400
	0    1    1    0   
$EndComp
$Comp
L Device:R R4
U 1 1 60952CCD
P 3000 2550
F 0 "R4" V 2793 2550 50  0000 C CNN
F 1 "1k" V 2884 2550 50  0000 C CNN
F 2 "Resistor_THT:R_Axial_DIN0207_L6.3mm_D2.5mm_P10.16mm_Horizontal" V 2930 2550 50  0001 C CNN
F 3 "~" H 3000 2550 50  0001 C CNN
	1    3000 2550
	0    1    1    0   
$EndComp
$Comp
L Device:R R3
U 1 1 6096AAE0
P 1450 2550
F 0 "R3" V 1243 2550 50  0000 C CNN
F 1 "1k" V 1334 2550 50  0000 C CNN
F 2 "Resistor_THT:R_Axial_DIN0207_L6.3mm_D2.5mm_P10.16mm_Horizontal" V 1380 2550 50  0001 C CNN
F 3 "~" H 1450 2550 50  0001 C CNN
	1    1450 2550
	0    1    1    0   
$EndComp
$Comp
L Device:R R2
U 1 1 60972B6E
P 3000 1400
F 0 "R2" V 2793 1400 50  0000 C CNN
F 1 "20k" V 2884 1400 50  0000 C CNN
F 2 "Resistor_THT:R_Axial_DIN0207_L6.3mm_D2.5mm_P10.16mm_Horizontal" V 2930 1400 50  0001 C CNN
F 3 "~" H 3000 1400 50  0001 C CNN
	1    3000 1400
	0    1    1    0   
$EndComp
$Comp
L Device:R R7
U 1 1 6097C624
P 1450 4500
F 0 "R7" V 1243 4500 50  0000 C CNN
F 1 "20k" V 1334 4500 50  0000 C CNN
F 2 "Resistor_THT:R_Axial_DIN0207_L6.3mm_D2.5mm_P10.16mm_Horizontal" V 1380 4500 50  0001 C CNN
F 3 "~" H 1450 4500 50  0001 C CNN
	1    1450 4500
	0    1    1    0   
$EndComp
$Comp
L Device:R R9
U 1 1 609844E0
P 1450 5350
F 0 "R9" V 1243 5350 50  0000 C CNN
F 1 "20k" V 1334 5350 50  0000 C CNN
F 2 "Resistor_THT:R_Axial_DIN0207_L6.3mm_D2.5mm_P10.16mm_Horizontal" V 1380 5350 50  0001 C CNN
F 3 "~" H 1450 5350 50  0001 C CNN
	1    1450 5350
	0    1    1    0   
$EndComp
$Comp
L Device:R R11
U 1 1 60984B93
P 1450 6250
F 0 "R11" V 1243 6250 50  0000 C CNN
F 1 "20k" V 1334 6250 50  0000 C CNN
F 2 "Resistor_THT:R_Axial_DIN0207_L6.3mm_D2.5mm_P10.16mm_Horizontal" V 1380 6250 50  0001 C CNN
F 3 "~" H 1450 6250 50  0001 C CNN
	1    1450 6250
	0    1    1    0   
$EndComp
$Comp
L Device:R R12
U 1 1 60985074
P 2950 6250
F 0 "R12" V 2743 6250 50  0000 C CNN
F 1 "20k" V 2834 6250 50  0000 C CNN
F 2 "Resistor_THT:R_Axial_DIN0207_L6.3mm_D2.5mm_P10.16mm_Horizontal" V 2880 6250 50  0001 C CNN
F 3 "~" H 2950 6250 50  0001 C CNN
	1    2950 6250
	0    1    1    0   
$EndComp
$Comp
L Device:R R10
U 1 1 60985572
P 2950 5350
F 0 "R10" V 2743 5350 50  0000 C CNN
F 1 "20k" V 2834 5350 50  0000 C CNN
F 2 "Resistor_THT:R_Axial_DIN0207_L6.3mm_D2.5mm_P10.16mm_Horizontal" V 2880 5350 50  0001 C CNN
F 3 "~" H 2950 5350 50  0001 C CNN
	1    2950 5350
	0    1    1    0   
$EndComp
$Comp
L Device:R R8
U 1 1 60985A0C
P 2950 4500
F 0 "R8" V 2743 4500 50  0000 C CNN
F 1 "20k" V 2834 4500 50  0000 C CNN
F 2 "Resistor_THT:R_Axial_DIN0207_L6.3mm_D2.5mm_P10.16mm_Horizontal" V 2880 4500 50  0001 C CNN
F 3 "~" H 2950 4500 50  0001 C CNN
	1    2950 4500
	0    1    1    0   
$EndComp
$Comp
L Device:R R6
U 1 1 60986722
P 2950 3650
F 0 "R6" V 2743 3650 50  0000 C CNN
F 1 "20k" V 2834 3650 50  0000 C CNN
F 2 "Resistor_THT:R_Axial_DIN0207_L6.3mm_D2.5mm_P10.16mm_Horizontal" V 2880 3650 50  0001 C CNN
F 3 "~" H 2950 3650 50  0001 C CNN
	1    2950 3650
	0    1    1    0   
$EndComp
Text GLabel 8650 4950 0    50   Input ~ 0
CV8
Text GLabel 8650 4400 0    50   Input ~ 0
CV6
Text GLabel 8650 4850 0    50   Input ~ 0
CV7
Text GLabel 8650 4300 0    50   Input ~ 0
CV5
$Comp
L power:+5V #PWR011
U 1 1 60A069BE
P 8400 3500
F 0 "#PWR011" H 8400 3350 50  0001 C CNN
F 1 "+5V" H 8415 3673 50  0000 C CNN
F 2 "" H 8400 3500 50  0001 C CNN
F 3 "" H 8400 3500 50  0001 C CNN
	1    8400 3500
	1    0    0    -1  
$EndComp
$Comp
L power:+2V5 #PWR012
U 1 1 60A06B91
P 9850 3500
F 0 "#PWR012" H 9850 3350 50  0001 C CNN
F 1 "+2V5" H 9865 3673 50  0000 C CNN
F 2 "" H 9850 3500 50  0001 C CNN
F 3 "" H 9850 3500 50  0001 C CNN
	1    9850 3500
	1    0    0    -1  
$EndComp
$Comp
L power:+12V #PWR07
U 1 1 60A077C0
P 8600 3300
F 0 "#PWR07" H 8600 3150 50  0001 C CNN
F 1 "+12V" H 8615 3473 50  0000 C CNN
F 2 "" H 8600 3300 50  0001 C CNN
F 3 "" H 8600 3300 50  0001 C CNN
	1    8600 3300
	1    0    0    -1  
$EndComp
$Comp
L power:-12V #PWR08
U 1 1 60A07CC3
P 9650 3300
F 0 "#PWR08" H 9650 3400 50  0001 C CNN
F 1 "-12V" H 9665 3473 50  0000 C CNN
F 2 "" H 9650 3300 50  0001 C CNN
F 3 "" H 9650 3300 50  0001 C CNN
	1    9650 3300
	1    0    0    -1  
$EndComp
$Comp
L Connector_Generic:Conn_01x04 J11
U 1 1 60A0844D
P 10650 4550
F 0 "J11" H 10730 4542 50  0000 L CNN
F 1 "Conn_01x04" H 10730 4451 50  0000 L CNN
F 2 "Connector_PinHeader_2.54mm:PinHeader_1x04_P2.54mm_Vertical" H 10650 4550 50  0001 C CNN
F 3 "~" H 10650 4550 50  0001 C CNN
	1    10650 4550
	1    0    0    -1  
$EndComp
Text GLabel 8000 4750 2    50   Input ~ 0
CV8
Text GLabel 8000 4550 2    50   Input ~ 0
CV6
Text GLabel 8000 4650 2    50   Input ~ 0
CV7
Text GLabel 8000 4450 2    50   Input ~ 0
CV5
Text GLabel 9200 4950 2    50   Input ~ 0
ADC8
Text GLabel 9200 4850 2    50   Input ~ 0
ADC7
$Sheet
S 8650 4750 550  300 
U 60A37B69
F0 "sheet60A37B5D" 50
F1 "../filter-board/CV-input.sch" 50
F2 "ADC1" O R 9200 4850 50 
F3 "ADC2" O R 9200 4950 50 
F4 "CV1" I L 8650 4850 50 
F5 "CV2" I L 8650 4950 50 
$EndSheet
$Sheet
S 8650 4200 550  300 
U 60A37B6F
F0 "sheet60A37B5E" 50
F1 "../filter-board/CV-input.sch" 50
F2 "ADC1" O R 9200 4300 50 
F3 "ADC2" O R 9200 4400 50 
F4 "CV1" I L 8650 4300 50 
F5 "CV2" I L 8650 4400 50 
$EndSheet
Text GLabel 9200 4300 2    50   Input ~ 0
ADC5
Text GLabel 9200 4400 2    50   Input ~ 0
ADC6
Text GLabel 10450 4450 0    50   Input ~ 0
ADC5
Text GLabel 10450 4550 0    50   Input ~ 0
ADC6
Text GLabel 10450 4650 0    50   Input ~ 0
ADC7
Text GLabel 10450 4750 0    50   Input ~ 0
ADC8
$Comp
L power:GND #PWR013
U 1 1 60A0E86F
P 9150 3650
F 0 "#PWR013" H 9150 3400 50  0001 C CNN
F 1 "GND" H 9155 3477 50  0000 C CNN
F 2 "" H 9150 3650 50  0001 C CNN
F 3 "" H 9150 3650 50  0001 C CNN
	1    9150 3650
	1    0    0    -1  
$EndComp
Wire Wire Line
	9400 3300 9650 3300
Wire Wire Line
	9400 3500 9850 3500
Wire Wire Line
	9400 3400 9600 3400
Wire Wire Line
	9600 3400 9600 3650
Wire Wire Line
	9600 3650 9150 3650
Wire Wire Line
	8900 3400 8700 3400
Wire Wire Line
	8700 3400 8700 3650
Wire Wire Line
	8700 3650 9150 3650
Wire Wire Line
	8600 3300 8900 3300
Wire Wire Line
	8400 3500 8900 3500
Connection ~ 9150 3650
$Comp
L Connector_Generic:Conn_01x04 J12
U 1 1 60B6051D
P 7800 4650
F 0 "J12" H 7718 4225 50  0000 C CNN
F 1 "Conn_01x04" H 7718 4316 50  0000 C CNN
F 2 "Connector_PinHeader_2.54mm:PinHeader_1x04_P2.54mm_Vertical" H 7800 4650 50  0001 C CNN
F 3 "~" H 7800 4650 50  0001 C CNN
	1    7800 4650
	-1   0    0    1   
$EndComp
$Comp
L Connector_Generic:Conn_02x03_Odd_Even J6
U 1 1 60B839C0
P 9100 3400
F 0 "J6" H 9150 3717 50  0000 C CNN
F 1 "Conn_02x03_Odd_Even" H 9150 3626 50  0000 C CNN
F 2 "Connector_PinHeader_2.54mm:PinHeader_2x03_P2.54mm_Vertical" H 9100 3400 50  0001 C CNN
F 3 "~" H 9100 3400 50  0001 C CNN
	1    9100 3400
	1    0    0    -1  
$EndComp
$Comp
L power:GND #PWR06
U 1 1 60BADC50
P 6800 2450
F 0 "#PWR06" H 6800 2200 50  0001 C CNN
F 1 "GND" H 6805 2277 50  0000 C CNN
F 2 "" H 6800 2450 50  0001 C CNN
F 3 "" H 6800 2450 50  0001 C CNN
	1    6800 2450
	1    0    0    -1  
$EndComp
Connection ~ 6800 2450
$Comp
L power:GND #PWR05
U 1 1 60BAE217
P 4600 2450
F 0 "#PWR05" H 4600 2200 50  0001 C CNN
F 1 "GND" H 4605 2277 50  0000 C CNN
F 2 "" H 4600 2450 50  0001 C CNN
F 3 "" H 4600 2450 50  0001 C CNN
	1    4600 2450
	1    0    0    -1  
$EndComp
Connection ~ 4600 2450
$Comp
L power:GND #PWR02
U 1 1 60BAE814
P 3200 1100
F 0 "#PWR02" H 3200 850 50  0001 C CNN
F 1 "GND" H 3205 927 50  0000 C CNN
F 2 "" H 3200 1100 50  0001 C CNN
F 3 "" H 3200 1100 50  0001 C CNN
	1    3200 1100
	1    0    0    -1  
$EndComp
$Comp
L power:GND #PWR01
U 1 1 60BAF0BA
P 1650 1100
F 0 "#PWR01" H 1650 850 50  0001 C CNN
F 1 "GND" H 1655 927 50  0000 C CNN
F 2 "" H 1650 1100 50  0001 C CNN
F 3 "" H 1650 1100 50  0001 C CNN
	1    1650 1100
	1    0    0    -1  
$EndComp
$Comp
L power:GND #PWR03
U 1 1 60BAF8B1
P 1650 2250
F 0 "#PWR03" H 1650 2000 50  0001 C CNN
F 1 "GND" H 1655 2077 50  0000 C CNN
F 2 "" H 1650 2250 50  0001 C CNN
F 3 "" H 1650 2250 50  0001 C CNN
	1    1650 2250
	1    0    0    -1  
$EndComp
$Comp
L power:GND #PWR04
U 1 1 60BB0059
P 3200 2250
F 0 "#PWR04" H 3200 2000 50  0001 C CNN
F 1 "GND" H 3205 2077 50  0000 C CNN
F 2 "" H 3200 2250 50  0001 C CNN
F 3 "" H 3200 2250 50  0001 C CNN
	1    3200 2250
	1    0    0    -1  
$EndComp
$Comp
L power:GND #PWR010
U 1 1 60BB04E8
P 3150 3350
F 0 "#PWR010" H 3150 3100 50  0001 C CNN
F 1 "GND" H 3155 3177 50  0000 C CNN
F 2 "" H 3150 3350 50  0001 C CNN
F 3 "" H 3150 3350 50  0001 C CNN
	1    3150 3350
	1    0    0    -1  
$EndComp
$Comp
L power:GND #PWR09
U 1 1 60BB30E9
P 1650 3350
F 0 "#PWR09" H 1650 3100 50  0001 C CNN
F 1 "GND" H 1655 3177 50  0000 C CNN
F 2 "" H 1650 3350 50  0001 C CNN
F 3 "" H 1650 3350 50  0001 C CNN
	1    1650 3350
	1    0    0    -1  
$EndComp
$Comp
L power:GND #PWR014
U 1 1 60BB363A
P 1650 4200
F 0 "#PWR014" H 1650 3950 50  0001 C CNN
F 1 "GND" H 1655 4027 50  0000 C CNN
F 2 "" H 1650 4200 50  0001 C CNN
F 3 "" H 1650 4200 50  0001 C CNN
	1    1650 4200
	1    0    0    -1  
$EndComp
$Comp
L power:GND #PWR015
U 1 1 60BB3B8A
P 3150 4200
F 0 "#PWR015" H 3150 3950 50  0001 C CNN
F 1 "GND" H 3155 4027 50  0000 C CNN
F 2 "" H 3150 4200 50  0001 C CNN
F 3 "" H 3150 4200 50  0001 C CNN
	1    3150 4200
	1    0    0    -1  
$EndComp
$Comp
L power:GND #PWR017
U 1 1 60BB415B
P 3150 5050
F 0 "#PWR017" H 3150 4800 50  0001 C CNN
F 1 "GND" H 3155 4877 50  0000 C CNN
F 2 "" H 3150 5050 50  0001 C CNN
F 3 "" H 3150 5050 50  0001 C CNN
	1    3150 5050
	1    0    0    -1  
$EndComp
$Comp
L power:GND #PWR016
U 1 1 60BB4674
P 1650 5050
F 0 "#PWR016" H 1650 4800 50  0001 C CNN
F 1 "GND" H 1655 4877 50  0000 C CNN
F 2 "" H 1650 5050 50  0001 C CNN
F 3 "" H 1650 5050 50  0001 C CNN
	1    1650 5050
	1    0    0    -1  
$EndComp
$Comp
L power:GND #PWR018
U 1 1 60BB4C89
P 1650 5950
F 0 "#PWR018" H 1650 5700 50  0001 C CNN
F 1 "GND" H 1655 5777 50  0000 C CNN
F 2 "" H 1650 5950 50  0001 C CNN
F 3 "" H 1650 5950 50  0001 C CNN
	1    1650 5950
	1    0    0    -1  
$EndComp
$Comp
L power:GND #PWR019
U 1 1 60BB7777
P 3150 5950
F 0 "#PWR019" H 3150 5700 50  0001 C CNN
F 1 "GND" H 3155 5777 50  0000 C CNN
F 2 "" H 3150 5950 50  0001 C CNN
F 3 "" H 3150 5950 50  0001 C CNN
	1    3150 5950
	1    0    0    -1  
$EndComp
$Comp
L Device:C C17
U 1 1 60C31040
P 8400 2150
F 0 "C17" H 8515 2196 50  0000 L CNN
F 1 "10uF" H 8515 2105 50  0000 L CNN
F 2 "Capacitor_THT:C_Disc_D6.0mm_W4.4mm_P5.00mm" H 8438 2000 50  0001 C CNN
F 3 "~" H 8400 2150 50  0001 C CNN
	1    8400 2150
	1    0    0    -1  
$EndComp
$Comp
L Device:C C18
U 1 1 60C31F5C
P 8800 2150
F 0 "C18" H 8915 2196 50  0000 L CNN
F 1 "10uF" H 8915 2105 50  0000 L CNN
F 2 "Capacitor_THT:C_Disc_D6.0mm_W4.4mm_P5.00mm" H 8838 2000 50  0001 C CNN
F 3 "~" H 8800 2150 50  0001 C CNN
	1    8800 2150
	1    0    0    -1  
$EndComp
$Comp
L Device:C C19
U 1 1 60C32671
P 9200 2150
F 0 "C19" H 9315 2196 50  0000 L CNN
F 1 "10uF" H 9315 2105 50  0000 L CNN
F 2 "Capacitor_THT:C_Disc_D6.0mm_W4.4mm_P5.00mm" H 9238 2000 50  0001 C CNN
F 3 "~" H 9200 2150 50  0001 C CNN
	1    9200 2150
	1    0    0    -1  
$EndComp
$Comp
L Device:C C20
U 1 1 60C32F78
P 9600 2150
F 0 "C20" H 9715 2196 50  0000 L CNN
F 1 "10uF" H 9715 2105 50  0000 L CNN
F 2 "Capacitor_THT:C_Disc_D6.0mm_W4.4mm_P5.00mm" H 9638 2000 50  0001 C CNN
F 3 "~" H 9600 2150 50  0001 C CNN
	1    9600 2150
	1    0    0    -1  
$EndComp
$Comp
L power:GND #PWR046
U 1 1 60C33CD7
P 8400 2300
F 0 "#PWR046" H 8400 2050 50  0001 C CNN
F 1 "GND" H 8405 2127 50  0000 C CNN
F 2 "" H 8400 2300 50  0001 C CNN
F 3 "" H 8400 2300 50  0001 C CNN
	1    8400 2300
	1    0    0    -1  
$EndComp
$Comp
L power:GND #PWR047
U 1 1 60C36CD2
P 8800 2300
F 0 "#PWR047" H 8800 2050 50  0001 C CNN
F 1 "GND" H 8805 2127 50  0000 C CNN
F 2 "" H 8800 2300 50  0001 C CNN
F 3 "" H 8800 2300 50  0001 C CNN
	1    8800 2300
	1    0    0    -1  
$EndComp
$Comp
L power:GND #PWR048
U 1 1 60C374A7
P 9200 2300
F 0 "#PWR048" H 9200 2050 50  0001 C CNN
F 1 "GND" H 9205 2127 50  0000 C CNN
F 2 "" H 9200 2300 50  0001 C CNN
F 3 "" H 9200 2300 50  0001 C CNN
	1    9200 2300
	1    0    0    -1  
$EndComp
$Comp
L power:GND #PWR049
U 1 1 60C37C9B
P 9600 2300
F 0 "#PWR049" H 9600 2050 50  0001 C CNN
F 1 "GND" H 9605 2127 50  0000 C CNN
F 2 "" H 9600 2300 50  0001 C CNN
F 3 "" H 9600 2300 50  0001 C CNN
	1    9600 2300
	1    0    0    -1  
$EndComp
$Comp
L power:+12V #PWR042
U 1 1 60C48A3D
P 8400 2000
F 0 "#PWR042" H 8400 1850 50  0001 C CNN
F 1 "+12V" H 8415 2173 50  0000 C CNN
F 2 "" H 8400 2000 50  0001 C CNN
F 3 "" H 8400 2000 50  0001 C CNN
	1    8400 2000
	1    0    0    -1  
$EndComp
$Comp
L power:-12V #PWR043
U 1 1 60C491A3
P 8800 2000
F 0 "#PWR043" H 8800 2100 50  0001 C CNN
F 1 "-12V" H 8815 2173 50  0000 C CNN
F 2 "" H 8800 2000 50  0001 C CNN
F 3 "" H 8800 2000 50  0001 C CNN
	1    8800 2000
	1    0    0    -1  
$EndComp
$Comp
L power:+5V #PWR044
U 1 1 60C4985F
P 9200 2000
F 0 "#PWR044" H 9200 1850 50  0001 C CNN
F 1 "+5V" H 9215 2173 50  0000 C CNN
F 2 "" H 9200 2000 50  0001 C CNN
F 3 "" H 9200 2000 50  0001 C CNN
	1    9200 2000
	1    0    0    -1  
$EndComp
$Comp
L power:+2V5 #PWR045
U 1 1 60C4A18D
P 9600 2000
F 0 "#PWR045" H 9600 1850 50  0001 C CNN
F 1 "+2V5" H 9615 2173 50  0000 C CNN
F 2 "" H 9600 2000 50  0001 C CNN
F 3 "" H 9600 2000 50  0001 C CNN
	1    9600 2000
	1    0    0    -1  
$EndComp
$EndSCHEMATC
