EESchema Schematic File Version 4
EELAYER 30 0
EELAYER END
$Descr A4 11693 8268
encoding utf-8
Sheet 8 8
Title ""
Date ""
Rev ""
Comp ""
Comment1 ""
Comment2 ""
Comment3 ""
Comment4 ""
$EndDescr
$Comp
L Diode:1N47xxA D?
U 1 1 609674E6
P 3250 4350
F 0 "D?" V 3204 4430 50  0000 L CNN
F 1 "1N4732A" V 3295 4430 50  0000 L CNN
F 2 "Diode_THT:D_DO-41_SOD81_P10.16mm_Horizontal" H 3250 4175 50  0001 C CNN
F 3 "https://www.vishay.com/docs/85816/1n4728a.pdf" H 3250 4350 50  0001 C CNN
	1    3250 4350
	0    1    1    0   
$EndComp
$Comp
L Amplifier_Operational:TL071 U?
U 1 1 60967CBE
P 4350 4200
F 0 "U?" H 4694 4246 50  0000 L CNN
F 1 "TL071" H 4694 4155 50  0000 L CNN
F 2 "" H 4400 4250 50  0001 C CNN
F 3 "http://www.ti.com/lit/ds/symlink/tl071.pdf" H 4500 4350 50  0001 C CNN
	1    4350 4200
	1    0    0    -1  
$EndComp
$Comp
L Device:R R?
U 1 1 60968ABC
P 3100 3500
F 0 "R?" V 2893 3500 50  0000 C CNN
F 1 "100" V 2984 3500 50  0000 C CNN
F 2 "" V 3030 3500 50  0001 C CNN
F 3 "~" H 3100 3500 50  0001 C CNN
	1    3100 3500
	0    1    1    0   
$EndComp
$Comp
L Device:R R?
U 1 1 60968D74
P 3250 3850
F 0 "R?" H 3320 3896 50  0000 L CNN
F 1 "10k" H 3320 3805 50  0000 L CNN
F 2 "" V 3180 3850 50  0001 C CNN
F 3 "~" H 3250 3850 50  0001 C CNN
	1    3250 3850
	1    0    0    -1  
$EndComp
Wire Wire Line
	3250 3500 3250 3700
$Comp
L power:GND #PWR?
U 1 1 6096BF73
P 3250 5000
F 0 "#PWR?" H 3250 4750 50  0001 C CNN
F 1 "GND" H 3255 4827 50  0000 C CNN
F 2 "" H 3250 5000 50  0001 C CNN
F 3 "" H 3250 5000 50  0001 C CNN
	1    3250 5000
	1    0    0    -1  
$EndComp
Wire Wire Line
	3250 4500 3250 4950
Wire Wire Line
	3250 4000 3250 4100
Wire Wire Line
	4050 4100 3250 4100
Connection ~ 3250 4100
Wire Wire Line
	3250 4100 3250 4200
$Comp
L power:+5V #PWR?
U 1 1 6096E837
P 2700 3500
F 0 "#PWR?" H 2700 3350 50  0001 C CNN
F 1 "+5V" V 2715 3628 50  0000 L CNN
F 2 "" H 2700 3500 50  0001 C CNN
F 3 "" H 2700 3500 50  0001 C CNN
	1    2700 3500
	0    -1   -1   0   
$EndComp
Wire Wire Line
	2700 3500 2950 3500
$Comp
L Device:Q_NPN_BCE Q?
U 1 1 60970EC5
P 4850 3600
F 0 "Q?" V 5178 3600 50  0000 C CNN
F 1 "Q_NPN_BCE" V 5087 3600 50  0000 C CNN
F 2 "" H 5050 3700 50  0001 C CNN
F 3 "~" H 4850 3600 50  0001 C CNN
	1    4850 3600
	0    -1   -1   0   
$EndComp
Wire Wire Line
	3250 3500 4650 3500
Connection ~ 3250 3500
Wire Wire Line
	4850 3800 4850 4200
Wire Wire Line
	4850 4200 4650 4200
$Comp
L Device:R R?
U 1 1 60974141
P 5500 4800
F 0 "R?" H 5570 4846 50  0000 L CNN
F 1 "5k" H 5570 4755 50  0000 L CNN
F 2 "" V 5430 4800 50  0001 C CNN
F 3 "~" H 5500 4800 50  0001 C CNN
	1    5500 4800
	1    0    0    -1  
$EndComp
$Comp
L Device:R R?
U 1 1 6097493D
P 5500 3900
F 0 "R?" H 5570 3946 50  0000 L CNN
F 1 "470" H 5570 3855 50  0000 L CNN
F 2 "" V 5430 3900 50  0001 C CNN
F 3 "~" H 5500 3900 50  0001 C CNN
	1    5500 3900
	1    0    0    -1  
$EndComp
Wire Wire Line
	5500 4950 3250 4950
Connection ~ 3250 4950
Wire Wire Line
	3250 4950 3250 5000
Wire Wire Line
	5500 4050 5500 4600
Wire Wire Line
	4050 4300 4050 4600
Wire Wire Line
	4050 4600 5500 4600
Connection ~ 5500 4600
Wire Wire Line
	5500 4600 5500 4650
Wire Wire Line
	5500 3750 5500 3500
Wire Wire Line
	5500 3500 5050 3500
Text HLabel 6100 3500 2    50   Input ~ 0
5V_Ref
Wire Wire Line
	5500 3500 6100 3500
Connection ~ 5500 3500
$EndSCHEMATC
