EESchema Schematic File Version 4
EELAYER 30 0
EELAYER END
$Descr A4 11693 8268
encoding utf-8
Sheet 9 12
Title ""
Date ""
Rev "0.2"
Comp ""
Comment1 ""
Comment2 ""
Comment3 ""
Comment4 ""
$EndDescr
$Comp
L teensy:Teensy4_AudioBoard U?
U 1 1 60DE17B8
P 4950 2600
AR Path="/60DE17B8" Ref="U?"  Part="1" 
AR Path="/60DD7607/60DE17B8" Ref="U15"  Part="1" 
F 0 "U15" H 4975 2625 50  0000 C CNN
F 1 "Teensy4_AudioBoard" H 4975 2534 50  0000 C CNN
F 2 "" H 4950 2600 50  0001 C CNN
F 3 "" H 4950 2600 50  0001 C CNN
	1    4950 2600
	1    0    0    -1  
$EndComp
$Comp
L Connector:Conn_01x14_Male J21
U 1 1 60DE8C9B
P 3450 3400
F 0 "J21" H 3558 4181 50  0000 C CNN
F 1 "Conn_01x14_Male" H 3558 4090 50  0000 C CNN
F 2 "" H 3450 3400 50  0001 C CNN
F 3 "~" H 3450 3400 50  0001 C CNN
	1    3450 3400
	1    0    0    -1  
$EndComp
$Comp
L Connector:Conn_01x14_Male J20
U 1 1 60DF0D26
P 6100 3300
F 0 "J20" H 6072 3274 50  0000 R CNN
F 1 "Conn_01x14_Male" H 6072 3183 50  0000 R CNN
F 2 "" H 6100 3300 50  0001 C CNN
F 3 "~" H 6100 3300 50  0001 C CNN
	1    6100 3300
	-1   0    0    -1  
$EndComp
Wire Wire Line
	3650 2800 4600 2800
Wire Wire Line
	3650 4100 4500 4100
Wire Wire Line
	4500 4100 4500 3700
Wire Wire Line
	4500 3700 4600 3700
Wire Wire Line
	4600 3550 4450 3550
Wire Wire Line
	4450 3550 4450 4000
Wire Wire Line
	4450 4000 3650 4000
Wire Wire Line
	3650 3900 4400 3900
Wire Wire Line
	4400 3900 4400 3400
Wire Wire Line
	4400 3400 4600 3400
Wire Wire Line
	4600 3250 4350 3250
Wire Wire Line
	4350 3250 4350 3700
Wire Wire Line
	4350 3700 3650 3700
Wire Wire Line
	3650 3600 4300 3600
Wire Wire Line
	4300 3600 4300 3100
Wire Wire Line
	4300 3100 4600 3100
Wire Wire Line
	4600 2950 4200 2950
Wire Wire Line
	4200 2950 4200 3500
Wire Wire Line
	4200 3500 3650 3500
Wire Wire Line
	5350 4000 5900 4000
Wire Wire Line
	5350 3850 5700 3850
Wire Wire Line
	5350 2800 5900 2800
Wire Wire Line
	5350 2950 5450 2950
Wire Wire Line
	5450 2950 5450 2900
Wire Wire Line
	5450 2900 5900 2900
Wire Wire Line
	5350 3100 5450 3100
Wire Wire Line
	5450 3100 5450 3000
Wire Wire Line
	5450 3000 5900 3000
Wire Wire Line
	5350 3250 5450 3250
Wire Wire Line
	5450 3250 5450 3200
Wire Wire Line
	5450 3200 5900 3200
Wire Wire Line
	5350 3400 5450 3400
Wire Wire Line
	5450 3400 5450 3300
Wire Wire Line
	5450 3300 5900 3300
Wire Wire Line
	5350 3550 5550 3550
Wire Wire Line
	5550 3550 5550 3400
Wire Wire Line
	5550 3400 5900 3400
Wire Wire Line
	5350 3700 5650 3700
Wire Wire Line
	5650 3700 5650 3500
Wire Wire Line
	5650 3500 5900 3500
NoConn ~ 3650 2900
NoConn ~ 3650 3000
NoConn ~ 3650 3100
NoConn ~ 3650 3200
NoConn ~ 3650 3300
NoConn ~ 3650 3400
NoConn ~ 3650 3800
NoConn ~ 5900 2700
NoConn ~ 5900 3100
NoConn ~ 5900 3600
NoConn ~ 5900 3700
NoConn ~ 5900 3900
Wire Wire Line
	5700 3850 5700 3800
Wire Wire Line
	5700 3800 5900 3800
Text GLabel 4600 4350 0    50   Input ~ 0
Line_Out_L
Text GLabel 4600 4550 0    50   Input ~ 0
Line_Out_R
$Comp
L power:GND #PWR090
U 1 1 61037A78
P 3950 4450
F 0 "#PWR090" H 3950 4200 50  0001 C CNN
F 1 "GND" H 3955 4277 50  0000 C CNN
F 2 "" H 3950 4450 50  0001 C CNN
F 3 "" H 3950 4450 50  0001 C CNN
	1    3950 4450
	1    0    0    -1  
$EndComp
Wire Wire Line
	3950 4450 4600 4450
Text GLabel 4600 4150 0    50   Output ~ 0
Line_In_L
Text GLabel 4600 4250 0    50   Output ~ 0
Line_In_R
NoConn ~ 5350 4300
NoConn ~ 5350 4450
$EndSCHEMATC
