EESchema Schematic File Version 4
EELAYER 30 0
EELAYER END
$Descr A4 11693 8268
encoding utf-8
Sheet 2 9
Title "Teen Kosmology"
Date ""
Rev "0.2"
Comp "HB"
Comment1 "UNTESTED UNTESTED UNTESTED UNTESTED"
Comment2 ""
Comment3 ""
Comment4 ""
$EndDescr
$Comp
L 74xx:74HC4051 U?
U 1 1 60714871
P 5550 3750
AR Path="/60714871" Ref="U?"  Part="1" 
AR Path="/606FF3B6/60714871" Ref="U3"  Part="1" 
AR Path="/60E332D6/60E90275/60714871" Ref="U?"  Part="1" 
F 0 "U3" H 5600 4431 50  0000 C CNN
F 1 "74HC4051" H 5600 4340 50  0000 C CNN
F 2 "Package_DIP:DIP-16_W7.62mm_Socket" H 5550 3350 50  0001 C CNN
F 3 "http://www.ti.com/lit/ds/symlink/cd74hc4051.pdf" H 5550 3350 50  0001 C CNN
	1    5550 3750
	1    0    0    -1  
$EndComp
Wire Wire Line
	5950 3450 6150 3450
$Comp
L power:+3.3V #PWR022
U 1 1 60715BC9
P 6000 2950
AR Path="/606FF3B6/60715BC9" Ref="#PWR022"  Part="1" 
AR Path="/60E332D6/60E90275/60715BC9" Ref="#PWR?"  Part="1" 
F 0 "#PWR022" H 6000 2800 50  0001 C CNN
F 1 "+3.3V" H 6015 3123 50  0000 C CNN
F 2 "" H 6000 2950 50  0001 C CNN
F 3 "" H 6000 2950 50  0001 C CNN
	1    6000 2950
	1    0    0    -1  
$EndComp
$Comp
L power:GND #PWR023
U 1 1 60716630
P 7550 3050
AR Path="/606FF3B6/60716630" Ref="#PWR023"  Part="1" 
AR Path="/60E332D6/60E90275/60716630" Ref="#PWR?"  Part="1" 
F 0 "#PWR023" H 7550 2800 50  0001 C CNN
F 1 "GND" H 7555 2877 50  0000 C CNN
F 2 "" H 7550 3050 50  0001 C CNN
F 3 "" H 7550 3050 50  0001 C CNN
	1    7550 3050
	-1   0    0    1   
$EndComp
$Comp
L power:GND #PWR025
U 1 1 607314F3
P 5550 4500
AR Path="/606FF3B6/607314F3" Ref="#PWR025"  Part="1" 
AR Path="/60E332D6/60E90275/607314F3" Ref="#PWR?"  Part="1" 
F 0 "#PWR025" H 5550 4250 50  0001 C CNN
F 1 "GND" H 5555 4327 50  0000 C CNN
F 2 "" H 5550 4500 50  0001 C CNN
F 3 "" H 5550 4500 50  0001 C CNN
	1    5550 4500
	1    0    0    -1  
$EndComp
Wire Wire Line
	5550 4350 5550 4400
$Comp
L Device:C_Small C7
U 1 1 60733A52
P 4900 3050
AR Path="/606FF3B6/60733A52" Ref="C7"  Part="1" 
AR Path="/60E332D6/60E90275/60733A52" Ref="C?"  Part="1" 
F 0 "C7" H 4992 3096 50  0000 L CNN
F 1 "0.1uF" H 4992 3005 50  0000 L CNN
F 2 "Capacitor_THT:C_Disc_D4.3mm_W1.9mm_P5.00mm" H 4900 3050 50  0001 C CNN
F 3 "~" H 4900 3050 50  0001 C CNN
	1    4900 3050
	1    0    0    -1  
$EndComp
$Comp
L power:+3.3V #PWR021
U 1 1 60734512
P 5550 2800
AR Path="/606FF3B6/60734512" Ref="#PWR021"  Part="1" 
AR Path="/60E332D6/60E90275/60734512" Ref="#PWR?"  Part="1" 
F 0 "#PWR021" H 5550 2650 50  0001 C CNN
F 1 "+3.3V" H 5565 2973 50  0000 C CNN
F 2 "" H 5550 2800 50  0001 C CNN
F 3 "" H 5550 2800 50  0001 C CNN
	1    5550 2800
	1    0    0    -1  
$EndComp
$Comp
L power:GND #PWR024
U 1 1 6073504B
P 4900 3150
AR Path="/606FF3B6/6073504B" Ref="#PWR024"  Part="1" 
AR Path="/60E332D6/60E90275/6073504B" Ref="#PWR?"  Part="1" 
F 0 "#PWR024" H 4900 2900 50  0001 C CNN
F 1 "GND" H 4905 2977 50  0000 C CNN
F 2 "" H 4900 3150 50  0001 C CNN
F 3 "" H 4900 3150 50  0001 C CNN
	1    4900 3150
	1    0    0    -1  
$EndComp
Wire Wire Line
	5550 2800 5550 2950
Wire Wire Line
	4900 2950 5550 2950
Connection ~ 5550 2950
Wire Wire Line
	5550 2950 5550 3250
Wire Wire Line
	5250 4050 5150 4050
Wire Wire Line
	5150 4050 5150 4400
Wire Wire Line
	5150 4400 5550 4400
Connection ~ 5550 4400
Wire Wire Line
	5550 4400 5550 4500
Text HLabel 4500 3450 0    50   Input ~ 0
A
Text HLabel 4500 3600 0    50   Input ~ 0
S0
Text HLabel 4500 3750 0    50   Input ~ 0
S1
Text HLabel 4500 3900 0    50   Input ~ 0
S2
Wire Wire Line
	4500 3450 5250 3450
Wire Wire Line
	4500 3600 5050 3600
Wire Wire Line
	5050 3600 5050 3650
Wire Wire Line
	5050 3650 5250 3650
Wire Wire Line
	4500 3750 5250 3750
Wire Wire Line
	4500 3900 5050 3900
Wire Wire Line
	5050 3900 5050 3850
Wire Wire Line
	5050 3850 5250 3850
Wire Wire Line
	5650 4350 5650 4400
Wire Wire Line
	5650 4400 5550 4400
$Comp
L Device:R_POT RV1
U 1 1 6021AB17
P 6150 3300
AR Path="/606FF3B6/6021AB17" Ref="RV1"  Part="1" 
AR Path="/60E332D6/60E90275/6021AB17" Ref="RV?"  Part="1" 
F 0 "RV1" V 5943 3300 50  0000 C CNN
F 1 "100k" V 6034 3300 50  0000 C CNN
F 2 "Kosmo_panel:Potentiometer_Alpha_RD901F-40-00D_Single_Vertical_3D" H 6150 3300 50  0001 C CNN
F 3 "~" H 6150 3300 50  0001 C CNN
	1    6150 3300
	0    1    1    0   
$EndComp
$Comp
L Device:R_POT RV2
U 1 1 60223C18
P 6600 3400
AR Path="/606FF3B6/60223C18" Ref="RV2"  Part="1" 
AR Path="/60E332D6/60E90275/60223C18" Ref="RV?"  Part="1" 
F 0 "RV2" V 6393 3400 50  0000 C CNN
F 1 "100k" V 6484 3400 50  0000 C CNN
F 2 "Kosmo_panel:Potentiometer_Alpha_RD901F-40-00D_Single_Vertical_3D" H 6600 3400 50  0001 C CNN
F 3 "~" H 6600 3400 50  0001 C CNN
	1    6600 3400
	0    1    1    0   
$EndComp
$Comp
L Device:R_POT RV3
U 1 1 60224388
P 7000 3500
AR Path="/606FF3B6/60224388" Ref="RV3"  Part="1" 
AR Path="/60E332D6/60E90275/60224388" Ref="RV?"  Part="1" 
F 0 "RV3" V 6793 3500 50  0000 C CNN
F 1 "100k" V 6884 3500 50  0000 C CNN
F 2 "Kosmo_panel:Potentiometer_Alpha_RD901F-40-00D_Single_Vertical_3D" H 7000 3500 50  0001 C CNN
F 3 "~" H 7000 3500 50  0001 C CNN
	1    7000 3500
	0    1    1    0   
$EndComp
$Comp
L Device:R_POT RV4
U 1 1 602249E1
P 7400 3600
AR Path="/606FF3B6/602249E1" Ref="RV4"  Part="1" 
AR Path="/60E332D6/60E90275/602249E1" Ref="RV?"  Part="1" 
F 0 "RV4" V 7193 3600 50  0000 C CNN
F 1 "100k" V 7284 3600 50  0000 C CNN
F 2 "Kosmo_panel:Potentiometer_Alpha_RD901F-40-00D_Single_Vertical_3D" H 7400 3600 50  0001 C CNN
F 3 "~" H 7400 3600 50  0001 C CNN
	1    7400 3600
	0    1    1    0   
$EndComp
Wire Wire Line
	5950 3750 7400 3750
Wire Wire Line
	7000 3650 5950 3650
Wire Wire Line
	5950 3550 6600 3550
Wire Wire Line
	6000 3300 6000 2950
Wire Wire Line
	6000 2950 6450 2950
Wire Wire Line
	6450 2950 6450 3400
Connection ~ 6000 2950
Wire Wire Line
	6850 3500 6850 2950
Wire Wire Line
	6850 2950 6450 2950
Connection ~ 6450 2950
Wire Wire Line
	6850 2950 7250 2950
Wire Wire Line
	7250 2950 7250 3600
Connection ~ 6850 2950
Wire Wire Line
	6300 3300 6300 3050
Wire Wire Line
	6300 3050 6750 3050
Wire Wire Line
	6750 3400 6750 3050
Connection ~ 6750 3050
Wire Wire Line
	6750 3050 7150 3050
Wire Wire Line
	7150 3500 7150 3050
Connection ~ 7150 3050
Wire Wire Line
	7150 3050 7550 3050
Wire Wire Line
	7550 3600 7550 3050
Connection ~ 7550 3050
$Comp
L Device:R_POT RV5
U 1 1 60236CD3
P 7400 4000
AR Path="/606FF3B6/60236CD3" Ref="RV5"  Part="1" 
AR Path="/60E332D6/60E90275/60236CD3" Ref="RV?"  Part="1" 
F 0 "RV5" V 7285 4000 50  0000 C CNN
F 1 "100k" V 7194 4000 50  0000 C CNN
F 2 "Kosmo_panel:Potentiometer_Alpha_RD901F-40-00D_Single_Vertical_3D" H 7400 4000 50  0001 C CNN
F 3 "~" H 7400 4000 50  0001 C CNN
	1    7400 4000
	0    -1   -1   0   
$EndComp
Wire Wire Line
	5950 3850 7400 3850
$Comp
L Device:R_POT RV6
U 1 1 6023BA72
P 7000 4100
AR Path="/606FF3B6/6023BA72" Ref="RV6"  Part="1" 
AR Path="/60E332D6/60E90275/6023BA72" Ref="RV?"  Part="1" 
F 0 "RV6" V 6885 4100 50  0000 C CNN
F 1 "100k" V 6794 4100 50  0000 C CNN
F 2 "Kosmo_panel:Potentiometer_Alpha_RD901F-40-00D_Single_Vertical_3D" H 7000 4100 50  0001 C CNN
F 3 "~" H 7000 4100 50  0001 C CNN
	1    7000 4100
	0    -1   -1   0   
$EndComp
$Comp
L Device:R_POT RV7
U 1 1 6023C349
P 6600 4200
AR Path="/606FF3B6/6023C349" Ref="RV7"  Part="1" 
AR Path="/60E332D6/60E90275/6023C349" Ref="RV?"  Part="1" 
F 0 "RV7" V 6485 4200 50  0000 C CNN
F 1 "100k" V 6394 4200 50  0000 C CNN
F 2 "Kosmo_panel:Potentiometer_Alpha_RD901F-40-00D_Single_Vertical_3D" H 6600 4200 50  0001 C CNN
F 3 "~" H 6600 4200 50  0001 C CNN
	1    6600 4200
	0    -1   -1   0   
$EndComp
$Comp
L Device:R_POT RV8
U 1 1 6023CB9F
P 6150 4300
AR Path="/606FF3B6/6023CB9F" Ref="RV8"  Part="1" 
AR Path="/60E332D6/60E90275/6023CB9F" Ref="RV?"  Part="1" 
F 0 "RV8" V 6035 4300 50  0000 C CNN
F 1 "100k" V 5944 4300 50  0000 C CNN
F 2 "Kosmo_panel:Potentiometer_Alpha_RD901F-40-00D_Single_Vertical_3D" H 6150 4300 50  0001 C CNN
F 3 "~" H 6150 4300 50  0001 C CNN
	1    6150 4300
	0    -1   -1   0   
$EndComp
Wire Wire Line
	5950 4150 6150 4150
Wire Wire Line
	5950 4050 6600 4050
Wire Wire Line
	5950 3950 7000 3950
$Comp
L power:+3.3V #PWR027
U 1 1 6023F074
P 6000 4850
AR Path="/606FF3B6/6023F074" Ref="#PWR027"  Part="1" 
AR Path="/60E332D6/60E90275/6023F074" Ref="#PWR?"  Part="1" 
F 0 "#PWR027" H 6000 4700 50  0001 C CNN
F 1 "+3.3V" H 6015 5023 50  0000 C CNN
F 2 "" H 6000 4850 50  0001 C CNN
F 3 "" H 6000 4850 50  0001 C CNN
	1    6000 4850
	-1   0    0    1   
$EndComp
$Comp
L power:GND #PWR026
U 1 1 602426A2
P 7550 4700
AR Path="/606FF3B6/602426A2" Ref="#PWR026"  Part="1" 
AR Path="/60E332D6/60E90275/602426A2" Ref="#PWR?"  Part="1" 
F 0 "#PWR026" H 7550 4450 50  0001 C CNN
F 1 "GND" H 7555 4527 50  0000 C CNN
F 2 "" H 7550 4700 50  0001 C CNN
F 3 "" H 7550 4700 50  0001 C CNN
	1    7550 4700
	1    0    0    -1  
$EndComp
Wire Wire Line
	6300 4300 6300 4700
Wire Wire Line
	6300 4700 6750 4700
Wire Wire Line
	6750 4200 6750 4700
Connection ~ 6750 4700
Wire Wire Line
	6750 4700 7150 4700
Wire Wire Line
	7150 4100 7150 4700
Connection ~ 7150 4700
Wire Wire Line
	7150 4700 7550 4700
Wire Wire Line
	7550 4000 7550 4700
Connection ~ 7550 4700
Wire Wire Line
	6000 4850 6000 4800
Wire Wire Line
	6450 4200 6450 4800
Wire Wire Line
	6450 4800 6000 4800
Connection ~ 6000 4800
Wire Wire Line
	6000 4800 6000 4300
Wire Wire Line
	6450 4800 6850 4800
Wire Wire Line
	6850 4800 6850 4100
Connection ~ 6450 4800
Wire Wire Line
	7250 4000 7250 4800
Wire Wire Line
	7250 4800 6850 4800
Connection ~ 6850 4800
Text Notes 4750 2150 2    50   ~ 0
8 pots coming in through a multiplexer\nThis can be daisy-chained for more pots
$EndSCHEMATC
