EESchema Schematic File Version 4
EELAYER 30 0
EELAYER END
$Descr A4 11693 8268
encoding utf-8
Sheet 9 12
Title "Teen Kosmology"
Date ""
Rev "0.2"
Comp "HB"
Comment1 "UNTESTED UNTESTED UNTESTED UNTESTED"
Comment2 ""
Comment3 ""
Comment4 ""
$EndDescr
$EndSCHEMATC
