EESchema Schematic File Version 4
EELAYER 30 0
EELAYER END
$Descr A4 11693 8268
encoding utf-8
Sheet 12 12
Title "Teen Kosmology"
Date ""
Rev "0.1"
Comp "HB"
Comment1 "UNTESTED UNTESTED UNTESTED UNTESTED"
Comment2 ""
Comment3 ""
Comment4 ""
$EndDescr
$Comp
L Device:R R?
U 1 1 6012A6C5
P 5100 1850
AR Path="/60656E29/603DB7F3/6012A6C5" Ref="R?"  Part="1" 
AR Path="/604AF975/6012A6C5" Ref="R80"  Part="1" 
F 0 "R80" H 5170 1896 50  0000 L CNN
F 1 "10k" H 5170 1805 50  0000 L CNN
F 2 "" V 5030 1850 50  0001 C CNN
F 3 "~" H 5100 1850 50  0001 C CNN
	1    5100 1850
	1    0    0    -1  
$EndComp
Text HLabel 4700 3250 0    50   Input ~ 0
Teensy_SCL
Text HLabel 4700 2450 0    50   Input ~ 0
Teensy_SDA
Text HLabel 7050 2450 2    50   Input ~ 0
Nano_SDA
Text HLabel 7050 3250 2    50   Input ~ 0
Nano_SCL
$Comp
L Transistor_FET:2N7000 Q?
U 1 1 6012BFE3
P 6100 3150
AR Path="/60656E29/603DB7F3/6012BFE3" Ref="Q?"  Part="1" 
AR Path="/604AF975/6012BFE3" Ref="Q2"  Part="1" 
F 0 "Q2" V 6349 3150 50  0000 C CNN
F 1 "2N7000" V 6440 3150 50  0000 C CNN
F 2 "Package_TO_SOT_THT:TO-92_Inline" H 6300 3075 50  0001 L CIN
F 3 "https://www.onsemi.com/pub/Collateral/NDS7002A-D.PDF" H 6100 3150 50  0001 L CNN
	1    6100 3150
	0    1    1    0   
$EndComp
$Comp
L power:+3.3V #PWR?
U 1 1 6012DCC9
P 5100 1550
AR Path="/60656E29/603DB7F3/6012DCC9" Ref="#PWR?"  Part="1" 
AR Path="/604AF975/6012DCC9" Ref="#PWR072"  Part="1" 
F 0 "#PWR072" H 5100 1400 50  0001 C CNN
F 1 "+3.3V" H 5115 1723 50  0000 C CNN
F 2 "" H 5100 1550 50  0001 C CNN
F 3 "" H 5100 1550 50  0001 C CNN
	1    5100 1550
	1    0    0    -1  
$EndComp
$Comp
L power:+5V #PWR?
U 1 1 6012E1A1
P 6800 1550
AR Path="/60656E29/603DB7F3/6012E1A1" Ref="#PWR?"  Part="1" 
AR Path="/604AF975/6012E1A1" Ref="#PWR073"  Part="1" 
F 0 "#PWR073" H 6800 1400 50  0001 C CNN
F 1 "+5V" H 6815 1723 50  0000 C CNN
F 2 "" H 6800 1550 50  0001 C CNN
F 3 "" H 6800 1550 50  0001 C CNN
	1    6800 1550
	1    0    0    -1  
$EndComp
$Comp
L Device:R R?
U 1 1 6012EB3A
P 6500 1850
AR Path="/60656E29/603DB7F3/6012EB3A" Ref="R?"  Part="1" 
AR Path="/604AF975/6012EB3A" Ref="R82"  Part="1" 
F 0 "R82" H 6570 1896 50  0000 L CNN
F 1 "10k" H 6570 1805 50  0000 L CNN
F 2 "" V 6430 1850 50  0001 C CNN
F 3 "~" H 6500 1850 50  0001 C CNN
	1    6500 1850
	1    0    0    -1  
$EndComp
$Comp
L Device:R R?
U 1 1 6012F0EF
P 5400 1850
AR Path="/60656E29/603DB7F3/6012F0EF" Ref="R?"  Part="1" 
AR Path="/604AF975/6012F0EF" Ref="R81"  Part="1" 
F 0 "R81" H 5470 1896 50  0000 L CNN
F 1 "10k" H 5470 1805 50  0000 L CNN
F 2 "" V 5330 1850 50  0001 C CNN
F 3 "~" H 5400 1850 50  0001 C CNN
	1    5400 1850
	1    0    0    -1  
$EndComp
$Comp
L Device:R R?
U 1 1 6012F447
P 6800 1850
AR Path="/60656E29/603DB7F3/6012F447" Ref="R?"  Part="1" 
AR Path="/604AF975/6012F447" Ref="R83"  Part="1" 
F 0 "R83" H 6870 1896 50  0000 L CNN
F 1 "10k" H 6870 1805 50  0000 L CNN
F 2 "" V 6730 1850 50  0001 C CNN
F 3 "~" H 6800 1850 50  0001 C CNN
	1    6800 1850
	1    0    0    -1  
$EndComp
Wire Wire Line
	6800 1550 6800 1700
Wire Wire Line
	6800 1700 6500 1700
Connection ~ 6800 1700
Wire Wire Line
	5100 1550 5100 1700
Connection ~ 5100 1700
Wire Wire Line
	5100 1700 5400 1700
Connection ~ 5400 1700
Wire Wire Line
	5400 1700 5800 1700
$Comp
L Transistor_FET:2N7000 Q?
U 1 1 6012CBE5
P 6100 2350
AR Path="/60656E29/603DB7F3/6012CBE5" Ref="Q?"  Part="1" 
AR Path="/604AF975/6012CBE5" Ref="Q1"  Part="1" 
F 0 "Q1" V 6349 2350 50  0000 C CNN
F 1 "2N7000" V 6440 2350 50  0000 C CNN
F 2 "Package_TO_SOT_THT:TO-92_Inline" H 6300 2275 50  0001 L CIN
F 3 "https://www.onsemi.com/pub/Collateral/NDS7002A-D.PDF" H 6100 2350 50  0001 L CNN
	1    6100 2350
	0    1    1    0   
$EndComp
Wire Wire Line
	5800 1700 5800 2150
Wire Wire Line
	5800 2950 6100 2950
Wire Wire Line
	5800 2150 6100 2150
Connection ~ 5800 2150
Wire Wire Line
	5800 2150 5800 2950
Wire Wire Line
	6300 2450 6500 2450
Wire Wire Line
	6300 3250 6800 3250
Wire Wire Line
	6500 2000 6500 2450
Connection ~ 6500 2450
Wire Wire Line
	6500 2450 7050 2450
Wire Wire Line
	6800 2000 6800 3250
Connection ~ 6800 3250
Wire Wire Line
	6800 3250 7050 3250
Wire Wire Line
	4700 3250 5100 3250
Wire Wire Line
	4700 2450 5400 2450
Wire Wire Line
	5400 2000 5400 2450
Connection ~ 5400 2450
Wire Wire Line
	5400 2450 5900 2450
Wire Wire Line
	5100 2000 5100 3250
Connection ~ 5100 3250
Wire Wire Line
	5100 3250 5900 3250
Text Notes 4550 2900 2    50   ~ 0
3.3V I2C
Text Notes 7350 2900 2    50   ~ 0
5V I2C
Text Notes 4650 1100 2    50   ~ 0
Adjust the logic levels between 3.3V for the Teensy and 5V for the Arduino Nano
$EndSCHEMATC
