EESchema Schematic File Version 4
EELAYER 30 0
EELAYER END
$Descr A4 11693 8268
encoding utf-8
Sheet 10 12
Title ""
Date ""
Rev "0.2"
Comp ""
Comment1 ""
Comment2 ""
Comment3 ""
Comment4 ""
$EndDescr
Wire Wire Line
	5050 1700 5150 1700
Wire Wire Line
	8050 1700 8400 1700
Wire Wire Line
	8050 1900 9750 1900
Wire Wire Line
	9850 2000 8050 2000
Wire Wire Line
	9850 2800 8050 2800
Wire Wire Line
	5050 2400 5850 2400
Wire Wire Line
	5050 2500 5850 2500
Wire Wire Line
	5050 2600 5850 2600
Wire Wire Line
	5050 2800 5850 2800
Wire Wire Line
	5050 2900 5850 2900
Wire Wire Line
	5050 3000 5850 3000
$Comp
L power:GND #PWR?
U 1 1 60E90250
P 3300 4700
AR Path="/60E90250" Ref="#PWR?"  Part="1" 
AR Path="/60E332D6/60E90250" Ref="#PWR0105"  Part="1" 
F 0 "#PWR0105" H 3300 4450 50  0001 C CNN
F 1 "GND" H 3305 4527 50  0000 C CNN
F 2 "" H 3300 4700 50  0001 C CNN
F 3 "" H 3300 4700 50  0001 C CNN
	1    3300 4700
	1    0    0    -1  
$EndComp
Wire Wire Line
	5550 4650 5850 4650
Wire Wire Line
	5550 4550 5850 4550
Wire Wire Line
	5550 4450 5850 4450
Wire Wire Line
	5550 4750 5850 4750
Wire Wire Line
	4300 5050 4300 5100
NoConn ~ 3700 4000
$Comp
L Device:C_Small C?
U 1 1 60E9026B
P 8400 1600
AR Path="/60E9026B" Ref="C?"  Part="1" 
AR Path="/60E332D6/60E9026B" Ref="C36"  Part="1" 
F 0 "C36" H 8492 1646 50  0000 L CNN
F 1 "0.1uF" H 8492 1555 50  0000 L CNN
F 2 "Capacitor_THT:C_Disc_D4.3mm_W1.9mm_P5.00mm" H 8400 1600 50  0001 C CNN
F 3 "~" H 8400 1600 50  0001 C CNN
	1    8400 1600
	1    0    0    -1  
$EndComp
Connection ~ 8400 1700
Wire Wire Line
	8400 1700 9550 1700
Wire Wire Line
	8400 1500 8400 1400
Wire Wire Line
	8400 1400 8150 1400
$Comp
L teensy:Teensy4.1 U?
U 1 1 60E9027B
P 6950 3850
AR Path="/60E9027B" Ref="U?"  Part="1" 
AR Path="/60E332D6/60E9027B" Ref="U16"  Part="1" 
F 0 "U16" H 6950 6415 50  0000 C CNN
F 1 "Teensy4.1" H 6950 6324 50  0000 C CNN
F 2 "" H 6550 4250 50  0001 C CNN
F 3 "" H 6550 4250 50  0001 C CNN
	1    6950 3850
	1    0    0    -1  
$EndComp
Wire Wire Line
	8050 1800 8150 1800
Wire Wire Line
	8150 1800 8150 1400
NoConn ~ 8050 1550
NoConn ~ 8050 4250
NoConn ~ 8050 4350
NoConn ~ 8050 4450
NoConn ~ 8050 4550
NoConn ~ 8050 4650
NoConn ~ 8050 4750
Text GLabel 8050 3900 2    50   Input ~ 0
MidiIn
Text GLabel 8900 3100 2    50   Input ~ 0
OLED_SDA
Text GLabel 8800 3200 2    50   Input ~ 0
OLED_SCL
Text GLabel 5850 2200 0    50   Input ~ 0
Rotary1_A
Text GLabel 5850 2300 0    50   Input ~ 0
Rotary1_B
Text GLabel 5850 2100 0    50   Input ~ 0
Rotary1_S
Connection ~ 8900 2500
Wire Wire Line
	8900 2500 8050 2500
Wire Wire Line
	8800 3200 8800 2400
Connection ~ 8800 2400
Wire Wire Line
	8800 2400 8050 2400
$Comp
L Connector:USB_A J?
U 1 1 60E902CB
P 4400 4650
AR Path="/60E902CB" Ref="J?"  Part="1" 
AR Path="/60E332D6/60E902CB" Ref="J27"  Part="1" 
F 0 "J27" H 4457 5117 50  0000 C CNN
F 1 "USB_A" H 4457 5026 50  0000 C CNN
F 2 "" H 4550 4600 50  0001 C CNN
F 3 " ~" H 4550 4600 50  0001 C CNN
	1    4400 4650
	1    0    0    -1  
$EndComp
$Comp
L Connector:Conn_01x14_Female J23
U 1 1 60E9710D
P 10050 2300
F 0 "J23" H 10078 2276 50  0000 L CNN
F 1 "Conn_01x14_Female" H 10078 2185 50  0000 L CNN
F 2 "" H 10050 2300 50  0001 C CNN
F 3 "~" H 10050 2300 50  0001 C CNN
	1    10050 2300
	1    0    0    -1  
$EndComp
Text GLabel 8050 3300 2    50   Input ~ 0
Pot_A
Text GLabel 8050 3600 2    50   Input ~ 0
Pot_S0
Text GLabel 8050 3700 2    50   Input ~ 0
Pot_S1
Text GLabel 8050 3800 2    50   Input ~ 0
Pot_S2
$Comp
L power:+5V #PWR096
U 1 1 60F1BCA1
P 9550 1700
F 0 "#PWR096" H 9550 1550 50  0001 C CNN
F 1 "+5V" H 9565 1873 50  0000 C CNN
F 2 "" H 9550 1700 50  0001 C CNN
F 3 "" H 9550 1700 50  0001 C CNN
	1    9550 1700
	1    0    0    -1  
$EndComp
Wire Wire Line
	9550 1700 9850 1700
Connection ~ 9550 1700
$Comp
L power:GND #PWR0103
U 1 1 60F2644D
P 9550 3150
F 0 "#PWR0103" H 9550 2900 50  0001 C CNN
F 1 "GND" H 9555 2977 50  0000 C CNN
F 2 "" H 9550 3150 50  0001 C CNN
F 3 "" H 9550 3150 50  0001 C CNN
	1    9550 3150
	1    0    0    -1  
$EndComp
Wire Wire Line
	8150 1800 9550 1800
Connection ~ 8150 1800
Connection ~ 9550 1800
Wire Wire Line
	9550 1800 9850 1800
$Comp
L power:+3.3V #PWR095
U 1 1 60F2F2D3
P 9750 1600
F 0 "#PWR095" H 9750 1450 50  0001 C CNN
F 1 "+3.3V" H 9765 1773 50  0000 C CNN
F 2 "" H 9750 1600 50  0001 C CNN
F 3 "" H 9750 1600 50  0001 C CNN
	1    9750 1600
	1    0    0    -1  
$EndComp
Wire Wire Line
	9850 1900 9750 1900
Wire Wire Line
	9750 1900 9750 1600
Connection ~ 9750 1900
Wire Wire Line
	8050 2200 9850 2200
Wire Wire Line
	8050 2300 9850 2300
Wire Wire Line
	8800 2400 9850 2400
Wire Wire Line
	8900 2500 9850 2500
Wire Wire Line
	8900 2500 8900 3100
Wire Wire Line
	8050 3000 9850 3000
$Comp
L Connector:Conn_01x14_Female J22
U 1 1 60F812C8
P 4850 2300
F 0 "J22" H 4742 3085 50  0000 C CNN
F 1 "Conn_01x14_Female" H 4742 2994 50  0000 C CNN
F 2 "" H 4850 2300 50  0001 C CNN
F 3 "~" H 4850 2300 50  0001 C CNN
	1    4850 2300
	-1   0    0    -1  
$EndComp
NoConn ~ 5050 1800
NoConn ~ 5050 1900
NoConn ~ 5050 2000
NoConn ~ 5050 2100
NoConn ~ 5050 2200
NoConn ~ 5050 2300
NoConn ~ 5050 2700
NoConn ~ 9850 2100
NoConn ~ 9850 2600
NoConn ~ 9850 2700
NoConn ~ 9850 2900
Text GLabel 5850 3800 0    50   Input ~ 0
Rotary2_A
Text GLabel 5850 3900 0    50   Input ~ 0
Rotary2_B
Text GLabel 5850 3700 0    50   Input ~ 0
Rotary2_S
$Comp
L power:+3.3V #PWR0101
U 1 1 611B5410
P 4700 3100
F 0 "#PWR0101" H 4700 2950 50  0001 C CNN
F 1 "+3.3V" H 4715 3273 50  0000 C CNN
F 2 "" H 4700 3100 50  0001 C CNN
F 3 "" H 4700 3100 50  0001 C CNN
	1    4700 3100
	1    0    0    -1  
$EndComp
Wire Wire Line
	4700 3100 5850 3100
NoConn ~ 8050 2100
NoConn ~ 8050 2600
NoConn ~ 8050 2700
NoConn ~ 8050 2900
NoConn ~ 8050 3200
NoConn ~ 5850 3300
NoConn ~ 8050 4000
NoConn ~ 5850 4000
NoConn ~ 5850 3600
NoConn ~ 5850 3200
NoConn ~ 5850 2700
NoConn ~ 5850 2000
NoConn ~ 8050 3500
$Comp
L power:GND #PWR0104
U 1 1 611C6250
P 5150 3250
F 0 "#PWR0104" H 5150 3000 50  0001 C CNN
F 1 "GND" H 5155 3077 50  0000 C CNN
F 2 "" H 5150 3250 50  0001 C CNN
F 3 "" H 5150 3250 50  0001 C CNN
	1    5150 3250
	1    0    0    -1  
$EndComp
Wire Wire Line
	5150 3250 5150 1700
Connection ~ 5150 1700
Wire Wire Line
	5150 1700 5850 1700
Wire Wire Line
	9550 1800 9550 3150
$Comp
L power:GND #PWR0102
U 1 1 611D2F15
P 8550 3100
F 0 "#PWR0102" H 8550 2850 50  0001 C CNN
F 1 "GND" H 8555 2927 50  0000 C CNN
F 2 "" H 8550 3100 50  0001 C CNN
F 3 "" H 8550 3100 50  0001 C CNN
	1    8550 3100
	1    0    0    -1  
$EndComp
Wire Wire Line
	8050 3100 8550 3100
$Comp
L Connector_Generic:Conn_01x02 J26
U 1 1 611DDDF2
P 5350 4300
F 0 "J26" H 5400 4000 50  0000 C CNN
F 1 "Conn_01x02" H 5268 4066 50  0000 C CNN
F 2 "" H 5350 4300 50  0001 C CNN
F 3 "~" H 5350 4300 50  0001 C CNN
	1    5350 4300
	-1   0    0    1   
$EndComp
$Comp
L Connector_Generic:Conn_01x02 J25
U 1 1 611E9C97
P 4050 4200
F 0 "J25" H 4050 4450 50  0000 L CNN
F 1 "Conn_01x02" H 3900 4350 50  0000 L CNN
F 2 "" H 4050 4200 50  0001 C CNN
F 3 "~" H 4050 4200 50  0001 C CNN
	1    4050 4200
	1    0    0    -1  
$EndComp
Wire Wire Line
	5550 4200 5850 4200
Wire Wire Line
	5550 4300 5850 4300
Wire Wire Line
	3700 4200 3850 4200
Wire Wire Line
	3700 4300 3850 4300
Wire Wire Line
	3300 4600 3300 4700
$Comp
L Connector:USB_B J?
U 1 1 60E901F8
P 3400 4200
AR Path="/60E901F8" Ref="J?"  Part="1" 
AR Path="/60E332D6/60E901F8" Ref="J24"  Part="1" 
F 0 "J24" H 3457 4667 50  0000 C CNN
F 1 "USB_B" H 3457 4576 50  0000 C CNN
F 2 "" H 3550 4150 50  0001 C CNN
F 3 " ~" H 3550 4150 50  0001 C CNN
	1    3400 4200
	1    0    0    -1  
$EndComp
Wire Wire Line
	3400 4600 3300 4600
Connection ~ 3300 4600
$Comp
L Connector_Generic:Conn_01x05 J28
U 1 1 6122EFBB
P 5100 4650
F 0 "J28" H 5000 5100 50  0000 L CNN
F 1 "Conn_01x05" H 4700 5000 50  0000 L CNN
F 2 "" H 5100 4650 50  0001 C CNN
F 3 "~" H 5100 4650 50  0001 C CNN
	1    5100 4650
	1    0    0    -1  
$EndComp
Wire Wire Line
	4700 4450 4900 4450
$Comp
L Connector_Generic:Conn_01x05 J29
U 1 1 6123449E
P 5350 4650
F 0 "J29" H 5300 4250 50  0000 C CNN
F 1 "Conn_01x05" H 5200 4350 50  0000 C CNN
F 2 "" H 5350 4650 50  0001 C CNN
F 3 "~" H 5350 4650 50  0001 C CNN
	1    5350 4650
	-1   0    0    -1  
$EndComp
Wire Wire Line
	5550 4850 5850 4850
Wire Wire Line
	4700 4750 4750 4750
Wire Wire Line
	4750 4750 4750 4550
Wire Wire Line
	4750 4550 4900 4550
Wire Wire Line
	4700 4650 4900 4650
Wire Wire Line
	4400 5050 4800 5050
Wire Wire Line
	4800 5050 4800 4750
Wire Wire Line
	4800 4750 4900 4750
Wire Wire Line
	4300 5100 4900 5100
Wire Wire Line
	4900 5100 4900 4850
$Comp
L Connector_Generic:Conn_01x05 J30
U 1 1 6125BCD8
P 6850 5500
F 0 "J30" V 6722 5780 50  0000 L CNN
F 1 "Conn_01x05" V 6813 5780 50  0000 L CNN
F 2 "" H 6850 5500 50  0001 C CNN
F 3 "~" H 6850 5500 50  0001 C CNN
	1    6850 5500
	0    1    1    0   
$EndComp
Wire Wire Line
	6650 5300 6650 5150
Wire Wire Line
	6750 5300 6750 5150
Wire Wire Line
	6750 5150 6800 5150
Wire Wire Line
	6850 5300 6850 5150
Wire Wire Line
	6850 5150 6950 5150
Wire Wire Line
	6950 5300 7000 5300
Wire Wire Line
	7000 5300 7000 5150
Wire Wire Line
	7000 5150 7100 5150
Wire Wire Line
	7050 5300 7250 5300
Wire Wire Line
	7250 5300 7250 5150
$Comp
L Connector_Generic:Conn_01x05 J31
U 1 1 61271E77
P 6850 5750
F 0 "J31" V 6814 6030 50  0000 L CNN
F 1 "Conn_01x05" V 6723 6030 50  0000 L CNN
F 2 "" H 6850 5750 50  0001 C CNN
F 3 "~" H 6850 5750 50  0001 C CNN
	1    6850 5750
	0    1    -1   0   
$EndComp
$Comp
L Switch:SW_Push SW?
U 1 1 60E902D1
P 6950 6150
AR Path="/60E902D1" Ref="SW?"  Part="1" 
AR Path="/60E332D6/60E902D1" Ref="SW3"  Part="1" 
F 0 "SW3" V 6904 6298 50  0000 L CNN
F 1 "SW_Push" V 6995 6298 50  0000 L CNN
F 2 "" H 6950 6350 50  0001 C CNN
F 3 "~" H 6950 6350 50  0001 C CNN
	1    6950 6150
	0    1    1    0   
$EndComp
Wire Wire Line
	6850 5950 6850 6350
Wire Wire Line
	6850 6350 6950 6350
NoConn ~ 6650 5950
NoConn ~ 6750 5950
NoConn ~ 7050 5950
NoConn ~ 8050 3400
$Comp
L power:+3.3V #PWR092
U 1 1 6082CA8D
P 1600 1050
F 0 "#PWR092" H 1600 900 50  0001 C CNN
F 1 "+3.3V" H 1615 1223 50  0000 C CNN
F 2 "" H 1600 1050 50  0001 C CNN
F 3 "" H 1600 1050 50  0001 C CNN
	1    1600 1050
	1    0    0    -1  
$EndComp
$Comp
L Device:R R82
U 1 1 60835289
P 1600 1300
F 0 "R82" H 1670 1346 50  0000 L CNN
F 1 "10k" H 1670 1255 50  0000 L CNN
F 2 "" V 1530 1300 50  0001 C CNN
F 3 "~" H 1600 1300 50  0001 C CNN
	1    1600 1300
	1    0    0    -1  
$EndComp
$Comp
L power:+5V #PWR091
U 1 1 6083991B
P 1100 1050
F 0 "#PWR091" H 1100 900 50  0001 C CNN
F 1 "+5V" H 1115 1223 50  0000 C CNN
F 2 "" H 1100 1050 50  0001 C CNN
F 3 "" H 1100 1050 50  0001 C CNN
	1    1100 1050
	1    0    0    -1  
$EndComp
$Comp
L Device:R R80
U 1 1 6083C88F
P 1100 1200
F 0 "R80" H 900 1250 50  0000 L CNN
F 1 "10k" H 900 1150 50  0000 L CNN
F 2 "" V 1030 1200 50  0001 C CNN
F 3 "~" H 1100 1200 50  0001 C CNN
	1    1100 1200
	1    0    0    -1  
$EndComp
Wire Wire Line
	1100 1350 1100 1450
Wire Wire Line
	1300 1150 1600 1150
Wire Wire Line
	1600 1150 1600 1050
Connection ~ 1600 1150
Wire Wire Line
	1600 1450 1500 1450
Text GLabel 1000 1450 0    50   Input ~ 0
ADC_CS
Wire Wire Line
	1000 1450 1100 1450
$Comp
L power:+3.3V #PWR094
U 1 1 60871766
P 3300 1050
F 0 "#PWR094" H 3300 900 50  0001 C CNN
F 1 "+3.3V" H 3315 1223 50  0000 C CNN
F 2 "" H 3300 1050 50  0001 C CNN
F 3 "" H 3300 1050 50  0001 C CNN
	1    3300 1050
	1    0    0    -1  
$EndComp
$Comp
L Device:R R83
U 1 1 6087176C
P 3300 1300
F 0 "R83" H 3370 1346 50  0000 L CNN
F 1 "10k" H 3370 1255 50  0000 L CNN
F 2 "" V 3230 1300 50  0001 C CNN
F 3 "~" H 3300 1300 50  0001 C CNN
	1    3300 1300
	1    0    0    -1  
$EndComp
$Comp
L power:+5V #PWR093
U 1 1 60871772
P 2800 1050
F 0 "#PWR093" H 2800 900 50  0001 C CNN
F 1 "+5V" H 2815 1223 50  0000 C CNN
F 2 "" H 2800 1050 50  0001 C CNN
F 3 "" H 2800 1050 50  0001 C CNN
	1    2800 1050
	1    0    0    -1  
$EndComp
$Comp
L Device:R R81
U 1 1 60871778
P 2800 1200
F 0 "R81" H 2600 1250 50  0000 L CNN
F 1 "10k" H 2600 1150 50  0000 L CNN
F 2 "" V 2730 1200 50  0001 C CNN
F 3 "~" H 2800 1200 50  0001 C CNN
	1    2800 1200
	1    0    0    -1  
$EndComp
Wire Wire Line
	2800 1350 2800 1450
Wire Wire Line
	3000 1150 3300 1150
Wire Wire Line
	3300 1150 3300 1050
Connection ~ 3300 1150
Wire Wire Line
	3300 1450 3200 1450
Wire Wire Line
	2700 1450 2800 1450
$Comp
L power:+3.3V #PWR098
U 1 1 60876802
P 1600 2000
F 0 "#PWR098" H 1600 1850 50  0001 C CNN
F 1 "+3.3V" H 1615 2173 50  0000 C CNN
F 2 "" H 1600 2000 50  0001 C CNN
F 3 "" H 1600 2000 50  0001 C CNN
	1    1600 2000
	1    0    0    -1  
$EndComp
$Comp
L Device:R R86
U 1 1 60876808
P 1600 2250
F 0 "R86" H 1670 2296 50  0000 L CNN
F 1 "10k" H 1670 2205 50  0000 L CNN
F 2 "" V 1530 2250 50  0001 C CNN
F 3 "~" H 1600 2250 50  0001 C CNN
	1    1600 2250
	1    0    0    -1  
$EndComp
$Comp
L power:+5V #PWR097
U 1 1 6087680E
P 1100 2000
F 0 "#PWR097" H 1100 1850 50  0001 C CNN
F 1 "+5V" H 1115 2173 50  0000 C CNN
F 2 "" H 1100 2000 50  0001 C CNN
F 3 "" H 1100 2000 50  0001 C CNN
	1    1100 2000
	1    0    0    -1  
$EndComp
$Comp
L Device:R R84
U 1 1 60876814
P 1100 2150
F 0 "R84" H 900 2200 50  0000 L CNN
F 1 "10k" H 900 2100 50  0000 L CNN
F 2 "" V 1030 2150 50  0001 C CNN
F 3 "~" H 1100 2150 50  0001 C CNN
	1    1100 2150
	1    0    0    -1  
$EndComp
Wire Wire Line
	1100 2300 1100 2400
Wire Wire Line
	1300 2100 1600 2100
Wire Wire Line
	1600 2100 1600 2000
Connection ~ 1600 2100
Wire Wire Line
	1600 2400 1500 2400
Wire Wire Line
	1000 2400 1100 2400
$Comp
L power:+3.3V #PWR0100
U 1 1 6087D5B2
P 3300 2000
F 0 "#PWR0100" H 3300 1850 50  0001 C CNN
F 1 "+3.3V" H 3315 2173 50  0000 C CNN
F 2 "" H 3300 2000 50  0001 C CNN
F 3 "" H 3300 2000 50  0001 C CNN
	1    3300 2000
	1    0    0    -1  
$EndComp
$Comp
L Device:R R87
U 1 1 6087D5B8
P 3300 2250
F 0 "R87" H 3370 2296 50  0000 L CNN
F 1 "10k" H 3370 2205 50  0000 L CNN
F 2 "" V 3230 2250 50  0001 C CNN
F 3 "~" H 3300 2250 50  0001 C CNN
	1    3300 2250
	1    0    0    -1  
$EndComp
$Comp
L power:+5V #PWR099
U 1 1 6087D5BE
P 2800 2000
F 0 "#PWR099" H 2800 1850 50  0001 C CNN
F 1 "+5V" H 2815 2173 50  0000 C CNN
F 2 "" H 2800 2000 50  0001 C CNN
F 3 "" H 2800 2000 50  0001 C CNN
	1    2800 2000
	1    0    0    -1  
$EndComp
$Comp
L Device:R R85
U 1 1 6087D5C4
P 2800 2150
F 0 "R85" H 2600 2200 50  0000 L CNN
F 1 "10k" H 2600 2100 50  0000 L CNN
F 2 "" V 2730 2150 50  0001 C CNN
F 3 "~" H 2800 2150 50  0001 C CNN
	1    2800 2150
	1    0    0    -1  
$EndComp
Wire Wire Line
	2800 2300 2800 2400
Wire Wire Line
	3000 2100 3300 2100
Wire Wire Line
	3300 2100 3300 2000
Connection ~ 3300 2100
Wire Wire Line
	3300 2400 3200 2400
Wire Wire Line
	2700 2400 2800 2400
Text GLabel 2700 1450 0    50   Input ~ 0
ADC_DOut
Text GLabel 1000 2400 0    50   Input ~ 0
ADC_DIn
Text GLabel 2700 2400 0    50   Input ~ 0
ADC_CLK
Text GLabel 1700 1450 2    50   Input ~ 0
ADC3V3_CS
Wire Wire Line
	1600 1450 1700 1450
Connection ~ 1600 1450
Text GLabel 1700 2400 2    50   Input ~ 0
ADC3V3_SDI
Wire Wire Line
	1600 2400 1700 2400
Connection ~ 1600 2400
Text GLabel 5850 1800 0    50   Input ~ 0
ADC3V3_CS
Text GLabel 3400 1450 2    50   Input ~ 0
ADC3V3_SDO
Wire Wire Line
	3300 1450 3400 1450
Connection ~ 3300 1450
Text GLabel 3400 2400 2    50   Input ~ 0
ADC3V3_CLK
Wire Wire Line
	3400 2400 3300 2400
Connection ~ 3300 2400
Text GLabel 5850 1900 0    50   Input ~ 0
ADC3V3_SDO
Text GLabel 5850 3400 0    50   Input ~ 0
ADC3V3_SDI
Text GLabel 5850 3500 0    50   Input ~ 0
ADC3V3_CLK
Text Notes 1850 700  2    50   ~ 0
Logic level conversion for ADC
Wire Notes Line
	500  2750 4100 2750
Wire Notes Line
	4100 2750 4100 500 
$Comp
L Transistor_FET:2N7002 Q5
U 1 1 60AB098A
P 1300 2300
F 0 "Q5" V 1549 2300 50  0000 C CNN
F 1 "2N7002" V 1640 2300 50  0000 C CNN
F 2 "Package_TO_SOT_SMD:SOT-23" H 1500 2225 50  0001 L CIN
F 3 "https://www.onsemi.com/pub/Collateral/NDS7002A-D.PDF" H 1300 2300 50  0001 L CNN
	1    1300 2300
	0    -1   1    0   
$EndComp
Connection ~ 1100 2400
$Comp
L Transistor_FET:2N7002 Q3
U 1 1 60ABAA62
P 1300 1350
F 0 "Q3" V 1549 1350 50  0000 C CNN
F 1 "2N7002" V 1640 1350 50  0000 C CNN
F 2 "Package_TO_SOT_SMD:SOT-23" H 1500 1275 50  0001 L CIN
F 3 "https://www.onsemi.com/pub/Collateral/NDS7002A-D.PDF" H 1300 1350 50  0001 L CNN
	1    1300 1350
	0    -1   1    0   
$EndComp
Connection ~ 1100 1450
$Comp
L Transistor_FET:2N7002 Q4
U 1 1 60ABBA79
P 3000 1350
F 0 "Q4" V 3249 1350 50  0000 C CNN
F 1 "2N7002" V 3340 1350 50  0000 C CNN
F 2 "Package_TO_SOT_SMD:SOT-23" H 3200 1275 50  0001 L CIN
F 3 "https://www.onsemi.com/pub/Collateral/NDS7002A-D.PDF" H 3000 1350 50  0001 L CNN
	1    3000 1350
	0    -1   1    0   
$EndComp
Connection ~ 2800 1450
$Comp
L Transistor_FET:2N7002 Q6
U 1 1 60ABDB42
P 3000 2300
F 0 "Q6" V 3249 2300 50  0000 C CNN
F 1 "2N7002" V 3340 2300 50  0000 C CNN
F 2 "Package_TO_SOT_SMD:SOT-23" H 3200 2225 50  0001 L CIN
F 3 "https://www.onsemi.com/pub/Collateral/NDS7002A-D.PDF" H 3000 2300 50  0001 L CNN
	1    3000 2300
	0    -1   1    0   
$EndComp
Connection ~ 2800 2400
$EndSCHEMATC
