M48
; DRILL file {KiCad 5.1.9+dfsg1-1} date Fri Jun 11 14:25:48 2021
; FORMAT={-:-/ absolute / inch / decimal}
; #@! TF.CreationDate,2021-06-11T14:25:48+02:00
; #@! TF.GenerationSoftware,Kicad,Pcbnew,5.1.9+dfsg1-1
; #@! TF.FileFunction,Plated,1,4,PTH
FMAT,2
INCH
T1C0.0157
T2C0.0280
T3C0.0315
T4C0.0354
T5C0.0362
T6C0.0394
T7C0.0400
T8C0.0433
T9C0.0469
T10C0.0591
T11C0.0906
%
G90
G05
T1
X2.8083Y-2.8299
X2.8803Y-2.5921
X2.8969Y-4.0945
X3.0783Y-2.7469
X3.1Y-2.6031
X3.1803Y-2.9185
X3.2346Y-2.7579
X3.3063Y-2.9177
X3.3146Y-4.0736
X3.3343Y-4.2067
X3.3661Y-2.5142
X3.3929Y-2.7035
X3.4091Y-2.7409
X3.4201Y-2.674
X3.4528Y-2.9193
X3.5642Y-3.1744
X3.5642Y-3.2236
X3.6059Y-2.6961
X3.6063Y-3.1217
X3.6067Y-3.1756
X3.6067Y-3.2252
X3.6508Y-3.1209
X3.6512Y-3.1752
X3.6512Y-3.2236
X3.6575Y-2.865
X3.6657Y-2.9161
X3.6925Y-3.1217
X3.6929Y-3.072
X3.6933Y-2.887
X3.6957Y-3.176
X3.6957Y-3.2236
X3.6961Y-2.95
X3.737Y-6.6016
X3.8394Y-2.0803
X3.8394Y-2.1173
X3.8394Y-2.1551
X3.8394Y-2.1929
X3.8394Y-2.2354
X3.8646Y-2.9913
X3.865Y-2.9524
X3.8657Y-3.037
X3.8823Y-2.2441
X3.8858Y-2.6748
X3.8858Y-2.8945
X3.8933Y-5.9551
X3.8933Y-6.2669
X3.9031Y-2.2835
X3.9043Y-3.0862
X3.9154Y-3.0374
X3.9156Y-2.9913
X3.9159Y-2.9524
X3.9201Y-2.2425
X3.9496Y-2.0276
X3.952Y-3.0846
X3.9661Y-3.0402
X3.9665Y-2.9913
X3.9669Y-2.9524
X3.9764Y-2.1366
X3.9776Y-2.2453
X3.9843Y-6.5906
X3.9882Y-2.2878
X3.9917Y-2.3276
X4.0Y-5.9803
X4.0Y-6.1693
X4.0169Y-2.252
X4.0175Y-2.9913
X4.0179Y-2.9524
X4.0185Y-3.0335
X4.0484Y-2.3713
X4.0685Y-2.9913
X4.0689Y-2.9524
X4.1114Y-3.5366
X4.1299Y-6.4961
X4.1654Y-6.5906
X4.2091Y-2.3622
X4.2098Y-2.2811
X4.2098Y-2.3185
X4.2528Y-2.1374
X4.2528Y-2.1886
X4.2531Y-2.0276
X4.2531Y-2.0839
X4.3795Y-2.3799
X4.3949Y-3.5366
X4.4035Y-1.8126
X4.4161Y-2.1772
X4.4169Y-2.2276
X4.4201Y-2.0665
X4.4205Y-2.0185
X4.4213Y-2.1236
X4.4268Y-2.287
X4.4268Y-2.326
X4.4268Y-2.3732
X4.5098Y-3.7091
X4.5657Y-3.0835
X4.5835Y-2.498
X4.6083Y-4.6122
X4.6583Y-3.7039
X4.6996Y-4.5909
X4.7228Y-3.85
X4.7291Y-3.4177
X4.7622Y-4.7185
X4.765Y-3.0831
X4.9169Y-3.4303
X5.0713Y-5.3815
X5.1059Y-3.0917
X5.1059Y-5.2681
X5.165Y-2.6484
X5.1811Y-6.3193
X5.2122Y-1.7398
X5.2122Y-1.7809
X5.2122Y-1.822
X5.2122Y-1.8632
X5.2122Y-1.9043
X5.213Y-2.0039
X5.2142Y-1.9543
X5.3524Y-3.4264
X5.3819Y-4.6449
X5.3819Y-4.7193
X5.3969Y-4.5906
X5.4146Y-3.8496
X5.4232Y-3.7752
X5.4295Y-3.4264
X5.5331Y-3.9685
X5.5543Y-1.7394
X5.5543Y-1.7937
X5.5543Y-1.8547
X5.6075Y-1.739
X5.6075Y-1.8547
X5.6087Y-1.7937
X5.6543Y-1.7382
X5.6555Y-1.7949
X5.6555Y-1.8547
X5.6638Y-3.3024
X5.7146Y-3.2583
X5.8283Y-5.2736
X5.8327Y-5.2201
X5.8402Y-5.1087
X5.8402Y-5.1626
X5.8827Y-5.2161
X5.8894Y-5.2744
X5.8898Y-5.1126
X5.8965Y-5.163
X5.937Y-5.2193
X5.9378Y-3.3508
X5.9378Y-3.7209
X5.9378Y-5.1661
X5.9394Y-5.1106
X5.9409Y-5.2744
X5.9685Y-6.0669
X6.0776Y-5.9693
X6.0776Y-6.0854
X6.1142Y-1.7008
X6.1295Y-4.0071
X6.1492Y-3.8756
X6.1913Y-3.9165
X6.1913Y-4.0937
X6.3567Y-3.0933
X6.4004Y-3.1488
X6.5213Y-3.1488
X6.5701Y-3.0925
X6.9843Y-3.0512
T2
X6.2776Y-3.9449
X6.3406Y-3.7441
X7.2929Y-3.9457
X7.3559Y-3.7449
T3
X2.3366Y-1.7937
X2.3366Y-2.1937
X2.7874Y-3.689
X2.7957Y-2.998
X2.7957Y-3.1949
X2.8091Y-4.15
X2.8091Y-4.55
X2.8189Y-4.6433
X2.8189Y-4.9433
X2.8307Y-5.0417
X2.8307Y-5.4417
X2.91Y-2.998
X2.91Y-3.298
X2.9213Y-4.6433
X2.9213Y-4.9433
X2.9449Y-5.1425
X2.9449Y-5.4425
X3.01Y-2.998
X3.01Y-3.298
X3.0177Y-4.0091
X3.0177Y-4.2059
X3.0366Y-4.6433
X3.0366Y-5.0433
X3.0378Y-1.8287
X3.0378Y-2.2287
X3.0472Y-5.1417
X3.0472Y-5.4417
X3.11Y-2.998
X3.11Y-3.298
X3.1732Y-3.9252
X3.1732Y-4.0252
X3.1732Y-4.1252
X3.1732Y-4.2252
X3.1732Y-4.3252
X3.1732Y-4.4252
X3.1732Y-4.5252
X3.1874Y-3.689
X3.21Y-2.998
X3.21Y-3.298
X3.2205Y-5.2559
X3.2205Y-5.6559
X3.31Y-2.998
X3.31Y-3.298
X3.4094Y-5.2535
X3.4094Y-5.6535
X3.41Y-2.998
X3.41Y-3.298
X3.4732Y-3.9252
X3.4732Y-4.0252
X3.4732Y-4.1252
X3.4732Y-4.2252
X3.4732Y-4.3252
X3.4732Y-4.4252
X3.4732Y-4.5252
X3.51Y-2.998
X3.51Y-3.298
X3.6063Y-3.9724
X3.61Y-2.998
X3.61Y-3.298
X3.8031Y-3.9724
X4.1094Y-3.8201
X4.1098Y-3.9803
X4.1386Y-4.8587
X4.1433Y-4.6831
X4.1878Y-4.1106
X4.1878Y-4.5106
X4.2146Y-4.9902
X4.2146Y-5.3902
X4.3067Y-3.9803
X4.3098Y-4.1106
X4.3098Y-4.5106
X4.3354Y-4.8587
X4.3386Y-4.9902
X4.3386Y-5.3902
X4.3969Y-3.9709
X4.4327Y-4.1106
X4.4327Y-4.5106
X4.4335Y-4.8484
X4.4606Y-4.9898
X4.4606Y-5.3898
X4.5094Y-3.8201
X4.5157Y-1.9453
X4.5157Y-2.3453
X4.5433Y-4.6831
X4.5472Y-4.3654
X4.5472Y-4.5622
X4.5476Y-4.0799
X4.5476Y-4.2768
X4.5846Y-4.9547
X4.5846Y-5.1516
X4.5846Y-5.2382
X4.5846Y-5.435
X4.6402Y-2.3685
X4.6417Y-1.9547
X4.6417Y-2.0547
X4.6417Y-2.1547
X4.6417Y-2.2547
X4.663Y-4.1134
X4.663Y-4.5134
X4.7087Y-4.9917
X4.7087Y-5.3917
X4.7449Y-1.8394
X4.7854Y-4.1134
X4.7854Y-4.5134
X4.7969Y-3.9709
X4.7984Y-3.7933
X4.8071Y-4.6701
X4.8335Y-4.8484
X4.8346Y-4.9917
X4.8346Y-5.3917
X4.837Y-2.3685
X4.9205Y-3.9138
X4.9205Y-4.0138
X4.9205Y-4.1138
X4.9205Y-4.2138
X4.9205Y-4.3138
X4.9205Y-4.4138
X4.9205Y-4.5138
X4.9417Y-1.8394
X4.9417Y-1.9547
X4.9417Y-2.0547
X4.9417Y-2.1547
X4.9417Y-2.2547
X4.9681Y-4.7913
X4.9681Y-4.8913
X4.9681Y-4.9913
X4.9681Y-5.0913
X4.9681Y-5.1913
X4.9681Y-5.2913
X4.9681Y-5.3913
X4.9953Y-3.7933
X5.0039Y-4.6701
X5.0874Y-3.7933
X5.0906Y-4.6701
X5.1161Y-1.8193
X5.1161Y-1.9193
X5.1161Y-2.0193
X5.2205Y-3.9138
X5.2205Y-4.0138
X5.2205Y-4.1138
X5.2205Y-4.2138
X5.2205Y-4.3138
X5.2205Y-4.4138
X5.2205Y-4.5138
X5.2681Y-4.7913
X5.2681Y-4.8913
X5.2681Y-4.9913
X5.2681Y-5.0913
X5.2681Y-5.1913
X5.2681Y-5.2913
X5.2681Y-5.3913
X5.2843Y-3.7933
X5.2874Y-4.6701
X5.3543Y-4.1138
X5.3543Y-4.5138
X5.3547Y-3.9654
X5.4031Y-4.8484
X5.4606Y-4.9917
X5.4606Y-5.3917
X5.4807Y-4.1138
X5.4807Y-4.5138
X5.5256Y-2.9146
X5.5256Y-2.9934
X5.5256Y-3.0721
X5.5886Y-4.9921
X5.5886Y-5.3921
X5.5965Y-4.6811
X5.5992Y-4.0732
X5.5992Y-4.2701
X5.5992Y-4.3587
X5.5992Y-4.5555
X5.6043Y-2.9146
X5.6043Y-2.9934
X5.6043Y-3.0721
X5.6457Y-3.8307
X5.7047Y-4.9567
X5.7047Y-5.1535
X5.7047Y-5.2402
X5.7047Y-5.437
X5.7173Y-4.1142
X5.7173Y-4.5142
X5.7547Y-3.9654
X5.8031Y-4.8484
X5.8189Y-4.9917
X5.8189Y-5.3917
X5.8433Y-4.1142
X5.8433Y-4.5142
X5.8484Y-3.9831
X5.9016Y-4.872
X5.9181Y-3.2713
X5.9449Y-4.9921
X5.9449Y-5.3921
X5.9685Y-4.1142
X5.9685Y-4.5142
X5.9965Y-4.6811
X6.0453Y-3.9831
X6.0457Y-3.8307
X6.0709Y-4.9921
X6.0709Y-5.3921
X6.0862Y-2.8181
X6.0862Y-2.9181
X6.0984Y-4.872
X6.115Y-3.2713
X6.2795Y-1.7874
X6.2795Y-2.1874
X6.2937Y-2.8047
X6.2937Y-3.0016
X6.3386Y-4.1772
X6.3386Y-4.374
X6.4122Y-2.302
X6.4122Y-2.402
X6.4122Y-2.502
X6.4122Y-2.602
X6.4122Y-2.702
X6.4122Y-2.802
X6.4122Y-2.902
X6.4122Y-3.002
X6.4394Y-3.2713
X6.524Y-4.1142
X6.5299Y-4.241
X6.5299Y-4.4379
X6.6449Y-4.2406
X6.6449Y-4.5406
X6.7122Y-2.302
X6.7122Y-2.402
X6.7122Y-2.502
X6.7122Y-2.602
X6.7122Y-2.702
X6.7122Y-2.802
X6.7122Y-2.902
X6.7122Y-3.002
X6.7449Y-4.2406
X6.7449Y-4.5406
X6.8394Y-3.2713
X6.8449Y-4.2406
X6.8449Y-4.5406
X6.924Y-4.1142
X6.9327Y-3.2398
X6.9449Y-4.2406
X6.9449Y-4.5406
X7.0735Y-4.1407
X7.0735Y-4.5407
X7.0787Y-6.5512
X7.1935Y-4.2407
X7.1935Y-4.5407
X7.2756Y-6.5512
X7.3327Y-3.2398
T4
X2.6063Y-2.752
X2.7063Y-2.752
X2.7465Y-2.4016
X2.8465Y-2.4016
X5.7898Y-1.7874
X5.8898Y-1.7874
T5
X6.4646Y-1.752
X6.4646Y-1.8504
X6.4646Y-1.9291
X6.4646Y-2.0276
X7.0157Y-1.8346
X7.0157Y-1.9331
X7.1417Y-1.8346
X7.1417Y-1.9331
T6
X1.7402Y-1.8071
X1.7402Y-1.9055
X1.7402Y-2.0039
X1.8976Y-2.4173
X1.8976Y-2.5157
X1.8976Y-2.6142
X2.4685Y-1.7677
X2.4685Y-1.8661
X2.4685Y-1.9646
X2.8555Y-3.8339
X2.8555Y-4.0307
X2.8764Y-5.8031
X2.8764Y-5.9031
X2.8764Y-6.0031
X2.8764Y-6.1031
X2.8764Y-6.2031
X2.8764Y-6.3031
X2.8764Y-6.4031
X2.8764Y-6.5031
X2.9764Y-5.8031
X2.9764Y-5.9031
X2.9764Y-6.0031
X2.9764Y-6.1031
X2.9764Y-6.2031
X2.9764Y-6.3031
X2.9764Y-6.4031
X2.9764Y-6.5031
X2.985Y-4.3209
X2.985Y-4.5177
X3.1772Y-2.1024
X3.1772Y-2.2008
X3.1772Y-2.2992
X3.2165Y-4.7795
X3.2165Y-4.878
X3.2165Y-4.9764
X3.2165Y-5.9606
X3.2165Y-6.0591
X3.2165Y-6.1575
X3.6102Y-4.189
X3.6102Y-4.2874
X3.6102Y-4.3858
X3.6102Y-5.3701
X3.6102Y-5.4685
X3.6102Y-5.5669
X3.748Y-2.1024
X3.748Y-2.2992
X3.8819Y-4.763
X3.8819Y-4.863
X3.8819Y-4.963
X3.8819Y-5.063
X3.965Y-3.3858
X3.965Y-3.4843
X3.965Y-3.5827
X4.0Y-6.2362
X4.0Y-6.3346
X4.0Y-6.4331
X4.3811Y-1.7087
X4.3937Y-5.6457
X4.3937Y-5.7441
X4.3937Y-5.8425
X4.4811Y-1.7087
X4.5811Y-1.7087
X4.6811Y-1.7087
X4.7874Y-6.2362
X4.7874Y-6.3346
X4.7874Y-6.4331
X4.8185Y-3.3858
X4.8185Y-3.4843
X4.8185Y-3.5827
X5.1811Y-5.6457
X5.1811Y-5.7441
X5.1811Y-5.8425
X5.3031Y-2.1024
X5.3031Y-2.2008
X5.3031Y-2.2992
X5.5748Y-6.2402
X5.5748Y-6.3386
X5.5748Y-6.437
X5.874Y-2.1024
X5.874Y-2.2992
X5.9685Y-5.6496
X5.9685Y-5.748
X5.9685Y-5.8465
X6.0689Y-2.037
X6.0689Y-2.137
X6.0689Y-2.237
X6.0689Y-2.337
X6.2008Y-4.7598
X6.2008Y-4.8583
X6.2008Y-4.9567
X6.2047Y-6.1969
X6.2047Y-6.2969
X6.2047Y-6.3969
X6.2047Y-6.4969
X6.3228Y-5.2094
X6.3228Y-5.3094
X6.3228Y-5.4094
X6.3622Y-6.2402
X6.3622Y-6.3386
X6.3622Y-6.437
X6.4228Y-5.2094
X6.4228Y-5.3094
X6.4228Y-5.4094
X6.7559Y-5.6457
X6.7559Y-5.7441
X6.7559Y-5.8425
X6.8535Y-2.2512
X6.8535Y-2.4283
X6.8701Y-4.7598
X6.8701Y-4.8583
X6.8701Y-4.9567
X6.8898Y-2.7126
X6.8898Y-2.811
X6.8898Y-2.9094
X7.1094Y-2.2512
X7.1094Y-2.4283
T7
X6.6126Y-3.8067
X6.6126Y-3.9067
X6.7126Y-3.8067
X6.7126Y-3.9067
X6.8126Y-3.8067
X6.8126Y-3.9067
X6.9126Y-3.8067
X6.9126Y-3.9067
X7.0126Y-3.8067
X7.0126Y-3.9067
T8
X3.7031Y-1.7378
X3.8031Y-1.7378
X3.815Y-2.5681
X3.815Y-3.1681
X3.9031Y-1.7378
X3.915Y-2.5681
X3.915Y-3.1681
X4.015Y-2.5681
X4.015Y-3.1681
X4.115Y-2.5681
X4.115Y-3.1681
X4.215Y-2.5681
X4.215Y-3.1681
X4.315Y-2.5681
X4.315Y-2.6681
X4.315Y-2.7681
X4.315Y-2.8681
X4.315Y-2.9681
X4.315Y-3.0681
X4.315Y-3.1681
X4.415Y-2.5681
X4.415Y-3.1681
X4.515Y-2.5681
X4.515Y-3.1681
X4.615Y-2.5681
X4.615Y-3.1681
X4.715Y-2.5681
X4.715Y-3.1681
X4.815Y-2.5681
X4.815Y-3.1681
X4.915Y-2.5681
X4.915Y-3.1681
X5.015Y-2.5681
X5.015Y-3.1681
X5.115Y-2.5681
X5.115Y-3.1681
X5.215Y-2.5681
X5.215Y-3.1681
X5.315Y-2.5681
X5.315Y-3.1681
X5.415Y-2.5681
X5.415Y-3.1681
X5.467Y-2.6882
X5.515Y-2.5681
X5.515Y-3.1681
X5.567Y-2.6882
X5.615Y-2.5681
X5.615Y-3.1681
X5.667Y-2.6882
X5.715Y-2.5681
X5.715Y-3.1681
X5.767Y-2.6882
X5.815Y-2.5681
X5.815Y-3.1681
X5.867Y-2.6882
X5.915Y-2.5681
X5.915Y-3.1681
X6.015Y-2.5681
X6.015Y-3.0681
X6.015Y-3.1681
X6.115Y-2.5681
X6.115Y-3.1681
X6.4276Y-3.6012
X6.574Y-3.4693
X6.674Y-3.4693
X6.774Y-3.4693
X6.8276Y-3.6012
X6.9445Y-3.6012
X6.998Y-3.4378
X7.098Y-3.4378
X7.198Y-3.4378
X7.3445Y-3.6012
T9
X3.315Y-3.7047
X3.3972Y-1.7677
X3.415Y-3.7047
X3.4972Y-1.7677
X3.515Y-3.7047
X3.615Y-3.7047
X3.715Y-3.7047
X7.0748Y-6.3598
X7.1748Y-6.3598
X7.2323Y-2.3346
X7.2748Y-6.3598
X7.3323Y-2.3346
T11
X6.5713Y-1.6311
X6.5713Y-2.1484
X7.035Y-1.6469
X7.035Y-2.1209
T8
G00X2.0492Y-1.7165
M15
G01X2.0217Y-1.7165
M16
G05
G00X2.0492Y-2.0945
M15
G01X2.0217Y-2.0945
M16
G05
G00X2.2067Y-2.3268
M15
G01X2.1791Y-2.3268
M16
G05
G00X2.2067Y-2.7047
M15
G01X2.1791Y-2.7047
M16
G05
G00X2.7776Y-1.6772
M15
G01X2.75Y-1.6772
M16
G05
G00X2.7776Y-2.0551
M15
G01X2.75Y-2.0551
M16
G05
G00X3.5256Y-4.689
M15
G01X3.498Y-4.689
M16
G05
G00X3.5256Y-5.0669
M15
G01X3.498Y-5.0669
M16
G05
G00X3.5256Y-5.8701
M15
G01X3.498Y-5.8701
M16
G05
G00X3.5256Y-6.248
M15
G01X3.498Y-6.248
M16
G05
G00X3.9193Y-4.0984
M15
G01X3.8917Y-4.0984
M16
G05
G00X3.9193Y-4.4764
M15
G01X3.8917Y-4.4764
M16
G05
G00X3.9193Y-5.2795
M15
G01X3.8917Y-5.2795
M16
G05
G00X3.9193Y-5.6575
M15
G01X3.8917Y-5.6575
M16
G05
G00X4.274Y-3.2953
M15
G01X4.2465Y-3.2953
M16
G05
G00X4.274Y-3.6732
M15
G01X4.2465Y-3.6732
M16
G05
G00X4.3091Y-6.1457
M15
G01X4.2815Y-6.1457
M16
G05
G00X4.3091Y-6.5236
M15
G01X4.2815Y-6.5236
M16
G05
G00X4.7028Y-5.5551
M15
G01X4.6752Y-5.5551
M16
G05
G00X4.7028Y-5.9331
M15
G01X4.6752Y-5.9331
M16
G05
G00X5.0965Y-6.1457
M15
G01X5.0689Y-6.1457
M16
G05
G00X5.0965Y-6.5236
M15
G01X5.0689Y-6.5236
M16
G05
G00X5.1276Y-3.2953
M15
G01X5.1Y-3.2953
M16
G05
G00X5.1276Y-3.6732
M15
G01X5.1Y-3.6732
M16
G05
G00X5.4902Y-5.5551
M15
G01X5.4626Y-5.5551
M16
G05
G00X5.4902Y-5.9331
M15
G01X5.4626Y-5.9331
M16
G05
G00X5.8839Y-6.1496
M15
G01X5.8563Y-6.1496
M16
G05
G00X5.8839Y-6.5276
M15
G01X5.8563Y-6.5276
M16
G05
G00X6.2776Y-5.5591
M15
G01X6.25Y-5.5591
M16
G05
G00X6.2776Y-5.937
M15
G01X6.25Y-5.937
M16
G05
G00X6.5098Y-4.6693
M15
G01X6.4823Y-4.6693
M16
G05
G00X6.5098Y-5.0472
M15
G01X6.4823Y-5.0472
M16
G05
G00X6.6713Y-6.1496
M15
G01X6.6437Y-6.1496
M16
G05
G00X6.6713Y-6.5276
M15
G01X6.6437Y-6.5276
M16
G05
G00X7.065Y-5.5551
M15
G01X7.0374Y-5.5551
M16
G05
G00X7.065Y-5.9331
M15
G01X7.0374Y-5.9331
M16
G05
G00X7.1791Y-4.6693
M15
G01X7.1516Y-4.6693
M16
G05
G00X7.1791Y-5.0472
M15
G01X7.1516Y-5.0472
M16
G05
G00X7.1988Y-2.622
M15
G01X7.1713Y-2.622
M16
G05
G00X7.1988Y-3.0
M15
G01X7.1713Y-3.0
M16
G05
T10
G00X3.4469Y-1.9803
M15
G01X3.498Y-1.9803
M16
G05
G00X3.4469Y-2.4213
M15
G01X3.498Y-2.4213
M16
G05
G00X5.5728Y-1.9803
M15
G01X5.624Y-1.9803
M16
G05
G00X5.5728Y-2.4213
M15
G01X5.624Y-2.4213
M16
G05
T0
M30
