EESchema Schematic File Version 4
EELAYER 30 0
EELAYER END
$Descr A4 11693 8268
encoding utf-8
Sheet 3 11
Title "Teen Kosmology"
Date ""
Rev "0.2"
Comp "HB"
Comment1 "UNTESTED UNTESTED UNTESTED UNTESTED"
Comment2 ""
Comment3 ""
Comment4 ""
$EndDescr
Wire Wire Line
	5800 3150 5800 3100
Wire Wire Line
	5800 3450 5800 3400
$Comp
L Device:C_Small C?
U 1 1 6017337E
P 5800 3250
AR Path="/6017337E" Ref="C?"  Part="1" 
AR Path="/6015C780/6017337E" Ref="C8"  Part="1" 
F 0 "C8" H 5708 3204 50  0000 R CNN
F 1 "0.1uF" H 5708 3295 50  0000 R CNN
F 2 "Capacitor_THT:C_Disc_D4.3mm_W1.9mm_P5.00mm" H 5800 3250 50  0001 C CNN
F 3 "~" H 5800 3250 50  0001 C CNN
	1    5800 3250
	-1   0    0    1   
$EndComp
Wire Wire Line
	4950 2600 4950 3650
Wire Wire Line
	4700 2800 4700 3750
Wire Wire Line
	4150 3250 4550 3250
Wire Wire Line
	4450 3450 4150 3450
Wire Wire Line
	4300 3950 4300 4050
Wire Wire Line
	4550 4250 4550 4650
Wire Wire Line
	5500 4550 5800 4550
$Comp
L power:GND #PWR?
U 1 1 6017338B
P 5800 4550
AR Path="/6017338B" Ref="#PWR?"  Part="1" 
AR Path="/6015C780/6017338B" Ref="#PWR031"  Part="1" 
F 0 "#PWR031" H 5800 4300 50  0001 C CNN
F 1 "GND" H 5805 4377 50  0000 C CNN
F 2 "" H 5800 4550 50  0001 C CNN
F 3 "" H 5800 4550 50  0001 C CNN
	1    5800 4550
	1    0    0    -1  
$EndComp
Wire Wire Line
	4800 4350 5000 4350
Wire Wire Line
	4800 4850 4800 4350
Wire Wire Line
	4550 4250 5000 4250
Wire Wire Line
	4150 4650 4550 4650
Wire Wire Line
	4150 4150 5000 4150
Wire Wire Line
	4300 4050 5000 4050
Wire Wire Line
	4150 3950 4300 3950
Wire Wire Line
	4450 3950 5000 3950
Wire Wire Line
	4450 3450 4450 3950
Wire Wire Line
	4550 3850 5000 3850
Wire Wire Line
	4550 3250 4550 3850
Wire Wire Line
	4700 3750 5000 3750
Wire Wire Line
	4150 2800 4700 2800
$Sheet
S 3600 2500 550  400 
U 6017339C
F0 "sheet6017334C" 50
F1 "CV-input.sch" 50
F2 "ADC1" O R 4150 2600 50 
F3 "ADC2" O R 4150 2800 50 
F4 "CV1" I L 3600 2600 50 
F5 "CV2" I L 3600 2800 50 
$EndSheet
Wire Wire Line
	4950 3650 5000 3650
Wire Wire Line
	4150 2600 4950 2600
$Sheet
S 3600 4550 550  400 
U 601733A2
F0 "sheet6017334D" 50
F1 "CV-input.sch" 50
F2 "ADC1" O R 4150 4650 50 
F3 "ADC2" O R 4150 4850 50 
F4 "CV1" I L 3600 4650 50 
F5 "CV2" I L 3600 4850 50 
$EndSheet
$Sheet
S 3600 3850 550  400 
U 601733A6
F0 "sheet6017334E" 50
F1 "CV-input.sch" 50
F2 "ADC1" O R 4150 3950 50 
F3 "ADC2" O R 4150 4150 50 
F4 "CV1" I L 3600 3950 50 
F5 "CV2" I L 3600 4150 50 
$EndSheet
$Sheet
S 3600 3150 550  400 
U 601733AA
F0 "sheet6017334F" 50
F1 "CV-input.sch" 50
F2 "ADC1" O R 4150 3250 50 
F3 "ADC2" O R 4150 3450 50 
F4 "CV1" I L 3600 3250 50 
F5 "CV2" I L 3600 3450 50 
$EndSheet
Connection ~ 5800 4550
$Comp
L Analog_ADC:MCP3208 U?
U 1 1 601733B1
P 5600 3950
AR Path="/601733B1" Ref="U?"  Part="1" 
AR Path="/6015C780/601733B1" Ref="U4"  Part="1" 
F 0 "U4" H 5600 4631 50  0000 C CNN
F 1 "MCP3208" H 5600 4540 50  0000 C CNN
F 2 "Package_DIP:DIP-16_W7.62mm_Socket" H 5700 4050 50  0001 C CNN
F 3 "http://ww1.microchip.com/downloads/en/DeviceDoc/21298c.pdf" H 5700 4050 50  0001 C CNN
	1    5600 3950
	1    0    0    -1  
$EndComp
Wire Wire Line
	4150 4850 4800 4850
$Comp
L power:+5V #PWR030
U 1 1 6017F161
P 6350 3150
F 0 "#PWR030" H 6350 3000 50  0001 C CNN
F 1 "+5V" H 6365 3323 50  0000 C CNN
F 2 "" H 6350 3150 50  0001 C CNN
F 3 "" H 6350 3150 50  0001 C CNN
	1    6350 3150
	1    0    0    -1  
$EndComp
$Comp
L power:GND #PWR028
U 1 1 601814B7
P 5800 3100
F 0 "#PWR028" H 5800 2850 50  0001 C CNN
F 1 "GND" H 5805 2927 50  0000 C CNN
F 2 "" H 5800 3100 50  0001 C CNN
F 3 "" H 5800 3100 50  0001 C CNN
	1    5800 3100
	-1   0    0    1   
$EndComp
Wire Wire Line
	6350 3150 6350 3400
Wire Wire Line
	6350 3400 5800 3400
Connection ~ 5800 3400
Wire Wire Line
	5800 3400 5800 3350
Text HLabel 6600 3850 2    50   Input ~ 0
CLK
Text HLabel 6600 3950 2    50   Input ~ 0
DOut
Text HLabel 6600 4050 2    50   Input ~ 0
DIn
Text HLabel 6600 4150 2    50   Input ~ 0
NegCS
Wire Wire Line
	6200 3850 6600 3850
Wire Wire Line
	6200 3950 6600 3950
Wire Wire Line
	6200 4050 6600 4050
Wire Wire Line
	6200 4150 6600 4150
Text HLabel 3400 2600 0    50   Output ~ 0
CV1
Text HLabel 3400 2800 0    50   Output ~ 0
CV2
Wire Wire Line
	3400 2800 3600 2800
Wire Wire Line
	3400 2600 3600 2600
Text HLabel 3400 3250 0    50   Output ~ 0
CV3
Text HLabel 3400 3450 0    50   Output ~ 0
CV4
Wire Wire Line
	3400 3450 3600 3450
Wire Wire Line
	3400 3250 3600 3250
Text HLabel 3400 3950 0    50   Output ~ 0
CV5
Text HLabel 3400 4150 0    50   Output ~ 0
CV6
Wire Wire Line
	3400 4150 3600 4150
Wire Wire Line
	3400 3950 3600 3950
Text HLabel 3400 4650 0    50   Output ~ 0
CV7
Text HLabel 3400 4850 0    50   Output ~ 0
CV8
Wire Wire Line
	3400 4850 3600 4850
Wire Wire Line
	3400 4650 3600 4650
$Comp
L power:+5VA #PWR029
U 1 1 61150349
P 5500 3150
F 0 "#PWR029" H 5500 3000 50  0001 C CNN
F 1 "+5VA" H 5515 3323 50  0000 C CNN
F 2 "" H 5500 3150 50  0001 C CNN
F 3 "" H 5500 3150 50  0001 C CNN
	1    5500 3150
	1    0    0    -1  
$EndComp
Wire Wire Line
	5500 3150 5500 3450
$EndSCHEMATC
