EESchema Schematic File Version 4
EELAYER 30 0
EELAYER END
$Descr A4 11693 8268
encoding utf-8
Sheet 8 9
Title ""
Date ""
Rev "0.2"
Comp ""
Comment1 ""
Comment2 ""
Comment3 ""
Comment4 ""
$EndDescr
Wire Wire Line
	8050 1900 8600 1900
$Comp
L power:GND #PWR?
U 1 1 60E90250
P 3400 4600
AR Path="/60E90250" Ref="#PWR?"  Part="1" 
AR Path="/60E332D6/60E90250" Ref="#PWR0108"  Part="1" 
F 0 "#PWR0108" H 3400 4350 50  0001 C CNN
F 1 "GND" H 3405 4427 50  0000 C CNN
F 2 "" H 3400 4600 50  0001 C CNN
F 3 "" H 3400 4600 50  0001 C CNN
	1    3400 4600
	1    0    0    -1  
$EndComp
NoConn ~ 3700 4000
$Comp
L Device:C_Small C?
U 1 1 60E9026B
P 8550 950
AR Path="/60E9026B" Ref="C?"  Part="1" 
AR Path="/60E332D6/60E9026B" Ref="C47"  Part="1" 
F 0 "C47" H 8642 996 50  0000 L CNN
F 1 "0.1uF" H 8642 905 50  0000 L CNN
F 2 "Capacitor_THT:C_Disc_D4.3mm_W1.9mm_P5.00mm" H 8550 950 50  0001 C CNN
F 3 "~" H 8550 950 50  0001 C CNN
	1    8550 950 
	1    0    0    -1  
$EndComp
NoConn ~ 8050 1550
NoConn ~ 8050 4250
NoConn ~ 8050 4350
NoConn ~ 8050 4450
NoConn ~ 8050 4550
NoConn ~ 8050 4650
NoConn ~ 8050 4750
Text GLabel 8050 3900 2    50   Input ~ 0
MidiIn
Text GLabel 9450 3200 2    50   Input ~ 0
OLED_SCL
Text GLabel 5850 2200 0    50   Input ~ 0
Rotary1_A
Text GLabel 5850 2300 0    50   Input ~ 0
Rotary1_B
Text GLabel 5850 2100 0    50   Input ~ 0
Rotary1_S
Text GLabel 8050 2100 2    50   Input ~ 0
Pot_A
Text GLabel 8050 3600 2    50   Input ~ 0
Pot_S0
Text GLabel 8050 3700 2    50   Input ~ 0
Pot_S1
Text GLabel 8050 3800 2    50   Input ~ 0
Pot_S2
$Comp
L power:+5V #PWR098
U 1 1 60F1BCA1
P 8250 1700
F 0 "#PWR098" H 8250 1550 50  0001 C CNN
F 1 "+5V" H 8265 1873 50  0000 C CNN
F 2 "" H 8250 1700 50  0001 C CNN
F 3 "" H 8250 1700 50  0001 C CNN
	1    8250 1700
	1    0    0    -1  
$EndComp
$Comp
L power:GND #PWR0101
U 1 1 60F2644D
P 8050 1800
F 0 "#PWR0101" H 8050 1550 50  0001 C CNN
F 1 "GND" H 8055 1627 50  0000 C CNN
F 2 "" H 8050 1800 50  0001 C CNN
F 3 "" H 8050 1800 50  0001 C CNN
	1    8050 1800
	0    -1   -1   0   
$EndComp
Wire Wire Line
	8600 1900 8600 1750
Text GLabel 5850 3800 0    50   Input ~ 0
Rotary2_A
Text GLabel 5850 3900 0    50   Input ~ 0
Rotary2_B
Text GLabel 5850 3700 0    50   Input ~ 0
Rotary2_S
$Comp
L power:+3.3V #PWR0106
U 1 1 611B5410
P 4300 3100
F 0 "#PWR0106" H 4300 2950 50  0001 C CNN
F 1 "+3.3V" H 4315 3273 50  0000 C CNN
F 2 "" H 4300 3100 50  0001 C CNN
F 3 "" H 4300 3100 50  0001 C CNN
	1    4300 3100
	1    0    0    -1  
$EndComp
Wire Wire Line
	4300 3100 5850 3100
NoConn ~ 8050 3300
NoConn ~ 8050 2900
NoConn ~ 8050 3200
NoConn ~ 5850 3300
NoConn ~ 8050 4000
NoConn ~ 5850 3200
NoConn ~ 5850 2700
NoConn ~ 8050 3500
$Comp
L power:GND #PWR099
U 1 1 611C6250
P 5150 1750
F 0 "#PWR099" H 5150 1500 50  0001 C CNN
F 1 "GND" H 5155 1577 50  0000 C CNN
F 2 "" H 5150 1750 50  0001 C CNN
F 3 "" H 5150 1750 50  0001 C CNN
	1    5150 1750
	1    0    0    -1  
$EndComp
Wire Wire Line
	5150 1750 5150 1700
Wire Wire Line
	5150 1700 5850 1700
$Comp
L power:GND #PWR0107
U 1 1 611D2F15
P 8550 3100
F 0 "#PWR0107" H 8550 2850 50  0001 C CNN
F 1 "GND" H 8555 2927 50  0000 C CNN
F 2 "" H 8550 3100 50  0001 C CNN
F 3 "" H 8550 3100 50  0001 C CNN
	1    8550 3100
	1    0    0    -1  
$EndComp
Wire Wire Line
	8050 3100 8550 3100
$Comp
L Connector_Generic:Conn_01x02 J7
U 1 1 611E9C97
P 4300 4200
F 0 "J7" H 4300 4450 50  0000 L CNN
F 1 "Conn_01x02" H 4150 4350 50  0000 L CNN
F 2 "Connector_Molex:Molex_KK-254_AE-6410-02A_1x02_P2.54mm_Vertical" H 4300 4200 50  0001 C CNN
F 3 "~" H 4300 4200 50  0001 C CNN
	1    4300 4200
	1    0    0    -1  
$EndComp
Wire Wire Line
	3700 4200 4100 4200
Wire Wire Line
	3700 4300 4100 4300
$Comp
L Connector:USB_B J?
U 1 1 60E901F8
P 3400 4200
AR Path="/60E901F8" Ref="J?"  Part="1" 
AR Path="/60E332D6/60E901F8" Ref="J6"  Part="1" 
F 0 "J6" H 3457 4667 50  0000 C CNN
F 1 "USB_B" H 3457 4576 50  0000 C CNN
F 2 "UJ2-BV-1-TH:CUI_UJ2-BV-1-TH" H 3550 4150 50  0001 C CNN
F 3 " ~" H 3550 4150 50  0001 C CNN
	1    3400 4200
	1    0    0    -1  
$EndComp
$Comp
L Switch:SW_Push SW?
U 1 1 60E902D1
P 7100 5350
AR Path="/60E902D1" Ref="SW?"  Part="1" 
AR Path="/60E332D6/60E902D1" Ref="SW3"  Part="1" 
F 0 "SW3" V 7054 5498 50  0000 L CNN
F 1 "SW_Push" V 7145 5498 50  0000 L CNN
F 2 "Button_Switch_THT:SW_TH_Tactile_Omron_B3F-10xx" H 7100 5550 50  0001 C CNN
F 3 "~" H 7100 5550 50  0001 C CNN
F 4 "7mm or 7.5mm shaft" H 7100 5350 50  0001 C CNN "Characteristics"
	1    7100 5350
	0    1    1    0   
$EndComp
NoConn ~ 8050 3400
$Comp
L power:+3.3V #PWR094
U 1 1 6082CA8D
P 1600 1050
F 0 "#PWR094" H 1600 900 50  0001 C CNN
F 1 "+3.3V" H 1615 1223 50  0000 C CNN
F 2 "" H 1600 1050 50  0001 C CNN
F 3 "" H 1600 1050 50  0001 C CNN
	1    1600 1050
	1    0    0    -1  
$EndComp
$Comp
L Device:R R70
U 1 1 60835289
P 1600 1300
F 0 "R70" H 1670 1346 50  0000 L CNN
F 1 "10k" H 1670 1255 50  0000 L CNN
F 2 "Resistor_SMD:R_1206_3216Metric_Pad1.30x1.75mm_HandSolder" V 1530 1300 50  0001 C CNN
F 3 "~" H 1600 1300 50  0001 C CNN
	1    1600 1300
	1    0    0    -1  
$EndComp
$Comp
L power:+5V #PWR093
U 1 1 6083991B
P 1100 1050
F 0 "#PWR093" H 1100 900 50  0001 C CNN
F 1 "+5V" H 1115 1223 50  0000 C CNN
F 2 "" H 1100 1050 50  0001 C CNN
F 3 "" H 1100 1050 50  0001 C CNN
	1    1100 1050
	1    0    0    -1  
$EndComp
$Comp
L Device:R R68
U 1 1 6083C88F
P 1100 1200
F 0 "R68" H 900 1250 50  0000 L CNN
F 1 "10k" H 900 1150 50  0000 L CNN
F 2 "Resistor_SMD:R_1206_3216Metric_Pad1.30x1.75mm_HandSolder" V 1030 1200 50  0001 C CNN
F 3 "~" H 1100 1200 50  0001 C CNN
	1    1100 1200
	1    0    0    -1  
$EndComp
Wire Wire Line
	1100 1350 1100 1450
Wire Wire Line
	1300 1150 1600 1150
Wire Wire Line
	1600 1150 1600 1050
Connection ~ 1600 1150
Wire Wire Line
	1600 1450 1500 1450
Text GLabel 1000 1450 0    50   Input ~ 0
ADC_CS
Wire Wire Line
	1000 1450 1100 1450
$Comp
L power:+3.3V #PWR096
U 1 1 60871766
P 3300 1050
F 0 "#PWR096" H 3300 900 50  0001 C CNN
F 1 "+3.3V" H 3315 1223 50  0000 C CNN
F 2 "" H 3300 1050 50  0001 C CNN
F 3 "" H 3300 1050 50  0001 C CNN
	1    3300 1050
	1    0    0    -1  
$EndComp
$Comp
L Device:R R71
U 1 1 6087176C
P 3300 1300
F 0 "R71" H 3370 1346 50  0000 L CNN
F 1 "10k" H 3370 1255 50  0000 L CNN
F 2 "Resistor_SMD:R_1206_3216Metric_Pad1.30x1.75mm_HandSolder" V 3230 1300 50  0001 C CNN
F 3 "~" H 3300 1300 50  0001 C CNN
	1    3300 1300
	1    0    0    -1  
$EndComp
$Comp
L power:+5V #PWR095
U 1 1 60871772
P 2800 1050
F 0 "#PWR095" H 2800 900 50  0001 C CNN
F 1 "+5V" H 2815 1223 50  0000 C CNN
F 2 "" H 2800 1050 50  0001 C CNN
F 3 "" H 2800 1050 50  0001 C CNN
	1    2800 1050
	1    0    0    -1  
$EndComp
$Comp
L Device:R R69
U 1 1 60871778
P 2800 1200
F 0 "R69" H 2600 1250 50  0000 L CNN
F 1 "10k" H 2600 1150 50  0000 L CNN
F 2 "Resistor_SMD:R_1206_3216Metric_Pad1.30x1.75mm_HandSolder" V 2730 1200 50  0001 C CNN
F 3 "~" H 2800 1200 50  0001 C CNN
	1    2800 1200
	1    0    0    -1  
$EndComp
Wire Wire Line
	2800 1350 2800 1450
Wire Wire Line
	3000 1150 3300 1150
Wire Wire Line
	3300 1150 3300 1050
Connection ~ 3300 1150
Wire Wire Line
	3300 1450 3200 1450
Wire Wire Line
	2700 1450 2800 1450
$Comp
L power:+3.3V #PWR0103
U 1 1 60876802
P 1600 2000
F 0 "#PWR0103" H 1600 1850 50  0001 C CNN
F 1 "+3.3V" H 1615 2173 50  0000 C CNN
F 2 "" H 1600 2000 50  0001 C CNN
F 3 "" H 1600 2000 50  0001 C CNN
	1    1600 2000
	1    0    0    -1  
$EndComp
$Comp
L Device:R R74
U 1 1 60876808
P 1600 2250
F 0 "R74" H 1670 2296 50  0000 L CNN
F 1 "10k" H 1670 2205 50  0000 L CNN
F 2 "Resistor_SMD:R_1206_3216Metric_Pad1.30x1.75mm_HandSolder" V 1530 2250 50  0001 C CNN
F 3 "~" H 1600 2250 50  0001 C CNN
	1    1600 2250
	1    0    0    -1  
$EndComp
$Comp
L power:+5V #PWR0102
U 1 1 6087680E
P 1100 2000
F 0 "#PWR0102" H 1100 1850 50  0001 C CNN
F 1 "+5V" H 1115 2173 50  0000 C CNN
F 2 "" H 1100 2000 50  0001 C CNN
F 3 "" H 1100 2000 50  0001 C CNN
	1    1100 2000
	1    0    0    -1  
$EndComp
$Comp
L Device:R R72
U 1 1 60876814
P 1100 2150
F 0 "R72" H 900 2200 50  0000 L CNN
F 1 "10k" H 900 2100 50  0000 L CNN
F 2 "Resistor_SMD:R_1206_3216Metric_Pad1.30x1.75mm_HandSolder" V 1030 2150 50  0001 C CNN
F 3 "~" H 1100 2150 50  0001 C CNN
	1    1100 2150
	1    0    0    -1  
$EndComp
Wire Wire Line
	1100 2300 1100 2400
Wire Wire Line
	1300 2100 1600 2100
Wire Wire Line
	1600 2100 1600 2000
Connection ~ 1600 2100
Wire Wire Line
	1600 2400 1500 2400
Wire Wire Line
	1000 2400 1100 2400
$Comp
L power:+3.3V #PWR0105
U 1 1 6087D5B2
P 3300 2000
F 0 "#PWR0105" H 3300 1850 50  0001 C CNN
F 1 "+3.3V" H 3315 2173 50  0000 C CNN
F 2 "" H 3300 2000 50  0001 C CNN
F 3 "" H 3300 2000 50  0001 C CNN
	1    3300 2000
	1    0    0    -1  
$EndComp
$Comp
L Device:R R75
U 1 1 6087D5B8
P 3300 2250
F 0 "R75" H 3370 2296 50  0000 L CNN
F 1 "10k" H 3370 2205 50  0000 L CNN
F 2 "Resistor_SMD:R_1206_3216Metric_Pad1.30x1.75mm_HandSolder" V 3230 2250 50  0001 C CNN
F 3 "~" H 3300 2250 50  0001 C CNN
	1    3300 2250
	1    0    0    -1  
$EndComp
$Comp
L power:+5V #PWR0104
U 1 1 6087D5BE
P 2800 2000
F 0 "#PWR0104" H 2800 1850 50  0001 C CNN
F 1 "+5V" H 2815 2173 50  0000 C CNN
F 2 "" H 2800 2000 50  0001 C CNN
F 3 "" H 2800 2000 50  0001 C CNN
	1    2800 2000
	1    0    0    -1  
$EndComp
$Comp
L Device:R R73
U 1 1 6087D5C4
P 2800 2150
F 0 "R73" H 2600 2200 50  0000 L CNN
F 1 "10k" H 2600 2100 50  0000 L CNN
F 2 "Resistor_SMD:R_1206_3216Metric_Pad1.30x1.75mm_HandSolder" V 2730 2150 50  0001 C CNN
F 3 "~" H 2800 2150 50  0001 C CNN
	1    2800 2150
	1    0    0    -1  
$EndComp
Wire Wire Line
	2800 2300 2800 2400
Wire Wire Line
	3000 2100 3300 2100
Wire Wire Line
	3300 2100 3300 2000
Connection ~ 3300 2100
Wire Wire Line
	3300 2400 3200 2400
Wire Wire Line
	2700 2400 2800 2400
Text GLabel 2700 1450 0    50   Input ~ 0
ADC_DOut
Text GLabel 1000 2400 0    50   Input ~ 0
ADC_DIn
Text GLabel 2700 2400 0    50   Input ~ 0
ADC_CLK
Text GLabel 1700 1450 2    50   Input ~ 0
ADC3V3_CS
Wire Wire Line
	1600 1450 1700 1450
Connection ~ 1600 1450
Text GLabel 1700 2400 2    50   Input ~ 0
ADC3V3_SDI
Wire Wire Line
	1600 2400 1700 2400
Connection ~ 1600 2400
Text GLabel 5850 1800 0    50   Input ~ 0
ADC3V3_CS
Text GLabel 3400 1450 2    50   Input ~ 0
ADC3V3_SDO
Wire Wire Line
	3300 1450 3400 1450
Connection ~ 3300 1450
Text GLabel 3400 2400 2    50   Input ~ 0
ADC3V3_CLK
Wire Wire Line
	3400 2400 3300 2400
Connection ~ 3300 2400
Text GLabel 5850 1900 0    50   Input ~ 0
ADC3V3_SDO
Text GLabel 5850 3400 0    50   Input ~ 0
ADC3V3_SDI
Text GLabel 5850 3500 0    50   Input ~ 0
ADC3V3_CLK
Text Notes 1850 700  2    50   ~ 0
Logic level conversion for ADC
Wire Notes Line
	500  2750 4100 2750
Wire Notes Line
	4100 2750 4100 500 
$Comp
L Transistor_FET:2N7002 Q6
U 1 1 60AB098A
P 1300 2300
F 0 "Q6" V 1549 2300 50  0000 C CNN
F 1 "2N7002" V 1640 2300 50  0000 C CNN
F 2 "Package_TO_SOT_SMD:SOT-23" H 1500 2225 50  0001 L CIN
F 3 "https://www.onsemi.com/pub/Collateral/NDS7002A-D.PDF" H 1300 2300 50  0001 L CNN
	1    1300 2300
	0    -1   1    0   
$EndComp
Connection ~ 1100 2400
$Comp
L Transistor_FET:2N7002 Q4
U 1 1 60ABAA62
P 1300 1350
F 0 "Q4" V 1549 1350 50  0000 C CNN
F 1 "2N7002" V 1640 1350 50  0000 C CNN
F 2 "Package_TO_SOT_SMD:SOT-23" H 1500 1275 50  0001 L CIN
F 3 "https://www.onsemi.com/pub/Collateral/NDS7002A-D.PDF" H 1300 1350 50  0001 L CNN
	1    1300 1350
	0    -1   1    0   
$EndComp
Connection ~ 1100 1450
$Comp
L Transistor_FET:2N7002 Q5
U 1 1 60ABBA79
P 3000 1350
F 0 "Q5" V 3249 1350 50  0000 C CNN
F 1 "2N7002" V 3340 1350 50  0000 C CNN
F 2 "Package_TO_SOT_SMD:SOT-23" H 3200 1275 50  0001 L CIN
F 3 "https://www.onsemi.com/pub/Collateral/NDS7002A-D.PDF" H 3000 1350 50  0001 L CNN
	1    3000 1350
	0    -1   1    0   
$EndComp
Connection ~ 2800 1450
$Comp
L Transistor_FET:2N7002 Q7
U 1 1 60ABDB42
P 3000 2300
F 0 "Q7" V 3249 2300 50  0000 C CNN
F 1 "2N7002" V 3340 2300 50  0000 C CNN
F 2 "Package_TO_SOT_SMD:SOT-23" H 3200 2225 50  0001 L CIN
F 3 "https://www.onsemi.com/pub/Collateral/NDS7002A-D.PDF" H 3000 2300 50  0001 L CNN
	1    3000 2300
	0    -1   1    0   
$EndComp
Connection ~ 2800 2400
$Comp
L power:+3.3V #PWR0100
U 1 1 60F2F2D3
P 8600 1750
F 0 "#PWR0100" H 8600 1600 50  0001 C CNN
F 1 "+3.3V" H 8615 1923 50  0000 C CNN
F 2 "" H 8600 1750 50  0001 C CNN
F 3 "" H 8600 1750 50  0001 C CNN
	1    8600 1750
	1    0    0    -1  
$EndComp
$Comp
L Connector:USB_A J?
U 1 1 60E902CB
P 4700 4850
AR Path="/60E902CB" Ref="J?"  Part="1" 
AR Path="/60E332D6/60E902CB" Ref="J9"  Part="1" 
F 0 "J9" H 4757 5317 50  0000 C CNN
F 1 "USB_A" H 4757 5226 50  0000 C CNN
F 2 "1734366-1:TE_1734366-1" H 4850 4800 50  0001 C CNN
F 3 " ~" H 4850 4800 50  0001 C CNN
	1    4700 4850
	1    0    0    -1  
$EndComp
Wire Wire Line
	5000 4950 5050 4950
Wire Wire Line
	5050 4950 5050 4750
$Comp
L power:GND #PWR0109
U 1 1 60977DAB
P 4700 5250
F 0 "#PWR0109" H 4700 5000 50  0001 C CNN
F 1 "GND" H 4705 5077 50  0000 C CNN
F 2 "" H 4700 5250 50  0001 C CNN
F 3 "" H 4700 5250 50  0001 C CNN
	1    4700 5250
	1    0    0    -1  
$EndComp
$Comp
L power:GND #PWR0110
U 1 1 6097F47B
P 7100 5550
F 0 "#PWR0110" H 7100 5300 50  0001 C CNN
F 1 "GND" H 7105 5377 50  0000 C CNN
F 2 "" H 7100 5550 50  0001 C CNN
F 3 "" H 7100 5550 50  0001 C CNN
	1    7100 5550
	1    0    0    -1  
$EndComp
NoConn ~ 4600 5250
NoConn ~ 3300 4600
Entry Wire Line
	4900 2300 5000 2400
Entry Wire Line
	4800 2300 4900 2400
Entry Wire Line
	4700 2300 4800 2400
Wire Wire Line
	5000 2400 5850 2400
Wire Wire Line
	4900 2400 4900 2500
Wire Wire Line
	4900 2500 5850 2500
Wire Wire Line
	4800 2400 4800 2600
Wire Wire Line
	4800 2600 5850 2600
Entry Wire Line
	4600 2300 4700 2400
Wire Wire Line
	5850 2800 4700 2800
Wire Wire Line
	4700 2800 4700 2400
Entry Wire Line
	4500 2300 4600 2400
Entry Wire Line
	4400 2300 4500 2400
Wire Wire Line
	4600 2400 4600 2900
Wire Wire Line
	4600 2900 5850 2900
Wire Wire Line
	4500 2400 4500 3000
Wire Wire Line
	4500 3000 5850 3000
Text Label 4400 2300 0    50   ~ 0
AudioBoard
Entry Wire Line
	9100 1900 9000 2000
Entry Wire Line
	9250 1900 9150 2000
Entry Wire Line
	9400 1900 9300 2000
Entry Wire Line
	9550 1900 9450 2000
Entry Wire Line
	9700 1900 9600 2000
Entry Wire Line
	9850 1900 9750 2000
Entry Wire Line
	10000 1900 9900 2000
Wire Wire Line
	8050 2000 9000 2000
Wire Wire Line
	8050 2200 9150 2200
Wire Wire Line
	9150 2200 9150 2000
Wire Wire Line
	8050 2300 9300 2300
Wire Wire Line
	9300 2300 9300 2000
Wire Wire Line
	8050 2400 9450 2400
Wire Wire Line
	9450 2400 9450 2000
Wire Wire Line
	8050 2500 9350 2500
Wire Wire Line
	9600 2500 9600 2000
Wire Wire Line
	9450 3200 9450 2400
Wire Wire Line
	8050 3000 9900 3000
Wire Wire Line
	9900 3000 9900 2000
Wire Wire Line
	8050 2800 9750 2800
Wire Wire Line
	9750 2800 9750 2000
Text Label 9350 1900 0    50   ~ 0
AudioBoard
Entry Wire Line
	5150 4100 5250 4200
Entry Wire Line
	5050 4100 5150 4200
Wire Wire Line
	5250 4200 5850 4200
Wire Wire Line
	5150 4200 5150 4300
Wire Wire Line
	5150 4300 5850 4300
Text Label 5000 4100 0    50   ~ 0
USB_Device
Wire Wire Line
	5550 4650 5850 4650
Wire Wire Line
	5450 4550 5850 4550
Wire Wire Line
	5350 4650 5350 4450
Wire Wire Line
	5350 4450 5850 4450
NoConn ~ 6650 5150
NoConn ~ 7250 5150
Wire Wire Line
	8050 1700 8250 1700
$Comp
L power:+5V #PWR092
U 1 1 60A82D41
P 8550 850
F 0 "#PWR092" H 8550 700 50  0001 C CNN
F 1 "+5V" H 8565 1023 50  0000 C CNN
F 2 "" H 8550 850 50  0001 C CNN
F 3 "" H 8550 850 50  0001 C CNN
	1    8550 850 
	1    0    0    -1  
$EndComp
$Comp
L power:GND #PWR097
U 1 1 60A85577
P 8550 1050
F 0 "#PWR097" H 8550 800 50  0001 C CNN
F 1 "GND" H 8555 877 50  0000 C CNN
F 2 "" H 8550 1050 50  0001 C CNN
F 3 "" H 8550 1050 50  0001 C CNN
	1    8550 1050
	1    0    0    -1  
$EndComp
Connection ~ 9450 2400
Text GLabel 9350 3300 2    50   Input ~ 0
OLED_SDA
Wire Wire Line
	9350 3300 9350 2500
Connection ~ 9350 2500
Wire Wire Line
	9350 2500 9600 2500
Wire Wire Line
	5000 4650 5350 4650
Wire Wire Line
	5050 4750 5450 4750
Wire Wire Line
	5450 4550 5450 4750
Wire Wire Line
	5550 4850 5550 4650
Wire Wire Line
	5000 4850 5550 4850
Text Label 5550 4550 0    50   ~ 0
Host_D-
Text Label 5550 4650 0    50   ~ 0
Host_D+
$Comp
L power:GND #PWR0112
U 1 1 60B270CF
P 6950 5150
F 0 "#PWR0112" H 6950 4900 50  0001 C CNN
F 1 "GND" H 6955 4977 50  0000 C CNN
F 2 "" H 6950 5150 50  0001 C CNN
F 3 "" H 6950 5150 50  0001 C CNN
	1    6950 5150
	1    0    0    -1  
$EndComp
$Comp
L power:+3.3V #PWR0113
U 1 1 60B27BA5
P 6350 5250
F 0 "#PWR0113" H 6350 5100 50  0001 C CNN
F 1 "+3.3V" H 6365 5423 50  0000 C CNN
F 2 "" H 6350 5250 50  0001 C CNN
F 3 "" H 6350 5250 50  0001 C CNN
	1    6350 5250
	1    0    0    -1  
$EndComp
Wire Wire Line
	6350 5250 6800 5250
Wire Wire Line
	6800 5250 6800 5150
Text Label 3750 4200 0    50   ~ 0
Device_D+
Text Label 3750 4300 0    50   ~ 0
Device_D-
$Comp
L teensy:Teensy4.1 U?
U 1 1 60E9027B
P 6950 3850
AR Path="/60E9027B" Ref="U?"  Part="1" 
AR Path="/60E332D6/60E9027B" Ref="U12"  Part="1" 
F 0 "U12" H 6950 6415 50  0000 C CNN
F 1 "Teensy4.1" H 6950 6324 50  0000 C CNN
F 2 "teensy:Teensy41" H 6550 4250 50  0001 C CNN
F 3 "" H 6550 4250 50  0001 C CNN
	1    6950 3850
	1    0    0    -1  
$EndComp
$Comp
L power:GND #PWR032
U 1 1 60B7120D
P 5750 4850
F 0 "#PWR032" H 5750 4600 50  0001 C CNN
F 1 "GND" H 5755 4677 50  0000 C CNN
F 2 "" H 5750 4850 50  0001 C CNN
F 3 "" H 5750 4850 50  0001 C CNN
	1    5750 4850
	1    0    0    -1  
$EndComp
Wire Wire Line
	5750 4850 5850 4850
Wire Wire Line
	5850 4750 5850 4850
Connection ~ 5850 4850
$Comp
L Connector_Generic:Conn_01x04 J13
U 1 1 60B8E8AA
P 10600 2500
F 0 "J13" H 10680 2492 50  0000 L CNN
F 1 "Conn_01x04" H 10680 2401 50  0000 L CNN
F 2 "Connector_PinHeader_2.54mm:PinHeader_1x04_P2.54mm_Vertical" H 10600 2500 50  0001 C CNN
F 3 "~" H 10600 2500 50  0001 C CNN
	1    10600 2500
	1    0    0    -1  
$EndComp
Wire Wire Line
	10400 2600 8050 2600
Wire Wire Line
	8050 2700 10400 2700
$Comp
L power:GND #PWR0114
U 1 1 60B9EFCE
P 10300 2750
F 0 "#PWR0114" H 10300 2500 50  0001 C CNN
F 1 "GND" H 10305 2577 50  0000 C CNN
F 2 "" H 10300 2750 50  0001 C CNN
F 3 "" H 10300 2750 50  0001 C CNN
	1    10300 2750
	1    0    0    -1  
$EndComp
$Comp
L power:+3.3V #PWR0115
U 1 1 60BA4D1D
P 10350 2350
F 0 "#PWR0115" H 10350 2200 50  0001 C CNN
F 1 "+3.3V" H 10365 2523 50  0000 C CNN
F 2 "" H 10350 2350 50  0001 C CNN
F 3 "" H 10350 2350 50  0001 C CNN
	1    10350 2350
	1    0    0    -1  
$EndComp
Wire Wire Line
	10300 2400 10400 2400
Wire Wire Line
	10300 2400 10300 2750
Wire Wire Line
	10350 2350 10350 2500
Wire Wire Line
	10350 2500 10400 2500
$Comp
L Device:LED D4
U 1 1 60BBD97B
P 1500 3200
F 0 "D4" H 1493 3417 50  0000 C CNN
F 1 "LED" H 1493 3326 50  0000 C CNN
F 2 "LED_THT:LED_D5.0mm" H 1500 3200 50  0001 C CNN
F 3 "~" H 1500 3200 50  0001 C CNN
	1    1500 3200
	1    0    0    -1  
$EndComp
$Comp
L Device:LED D5
U 1 1 60BBF1B8
P 1500 3550
F 0 "D5" H 1493 3767 50  0000 C CNN
F 1 "LED" H 1493 3676 50  0000 C CNN
F 2 "LED_THT:LED_D5.0mm" H 1500 3550 50  0001 C CNN
F 3 "~" H 1500 3550 50  0001 C CNN
	1    1500 3550
	1    0    0    -1  
$EndComp
$Comp
L Device:R R5
U 1 1 60BCFA89
P 1200 3200
F 0 "R5" V 993 3200 50  0000 C CNN
F 1 "220" V 1084 3200 50  0000 C CNN
F 2 "Resistor_THT:R_Axial_DIN0207_L6.3mm_D2.5mm_P10.16mm_Horizontal" V 1130 3200 50  0001 C CNN
F 3 "~" H 1200 3200 50  0001 C CNN
	1    1200 3200
	0    1    1    0   
$EndComp
$Comp
L Device:R R6
U 1 1 60BDC356
P 1200 3550
F 0 "R6" V 993 3550 50  0000 C CNN
F 1 "220" V 1084 3550 50  0000 C CNN
F 2 "Resistor_THT:R_Axial_DIN0207_L6.3mm_D2.5mm_P10.16mm_Horizontal" V 1130 3550 50  0001 C CNN
F 3 "~" H 1200 3550 50  0001 C CNN
	1    1200 3550
	0    1    1    0   
$EndComp
$Comp
L power:GND #PWR033
U 1 1 60BDD5FB
P 850 4000
F 0 "#PWR033" H 850 3750 50  0001 C CNN
F 1 "GND" H 855 3827 50  0000 C CNN
F 2 "" H 850 4000 50  0001 C CNN
F 3 "" H 850 4000 50  0001 C CNN
	1    850  4000
	1    0    0    -1  
$EndComp
Wire Wire Line
	850  4000 850  3950
Wire Wire Line
	850  3200 1050 3200
Text GLabel 1650 3200 2    50   Input ~ 0
LED1
Text GLabel 1650 3550 2    50   Input ~ 0
LED2
Text GLabel 5850 4000 0    50   Input ~ 0
LED1
Text GLabel 5850 3600 0    50   Input ~ 0
LED2
$Comp
L Device:LED D10
U 1 1 60C3D4A9
P 1500 3950
F 0 "D10" H 1493 4167 50  0000 C CNN
F 1 "LED" H 1493 4076 50  0000 C CNN
F 2 "LED_THT:LED_D5.0mm" H 1500 3950 50  0001 C CNN
F 3 "~" H 1500 3950 50  0001 C CNN
	1    1500 3950
	1    0    0    -1  
$EndComp
$Comp
L Device:R R7
U 1 1 60C3D4AF
P 1200 3950
F 0 "R7" V 993 3950 50  0000 C CNN
F 1 "220" V 1084 3950 50  0000 C CNN
F 2 "Resistor_THT:R_Axial_DIN0207_L6.3mm_D2.5mm_P10.16mm_Horizontal" V 1130 3950 50  0001 C CNN
F 3 "~" H 1200 3950 50  0001 C CNN
	1    1200 3950
	0    1    1    0   
$EndComp
Text GLabel 1650 3950 2    50   Input ~ 0
LED3
Wire Wire Line
	1050 3550 850  3550
Connection ~ 850  3550
Wire Wire Line
	850  3550 850  3200
Wire Wire Line
	1050 3950 850  3950
Connection ~ 850  3950
Wire Wire Line
	850  3950 850  3550
Text GLabel 5850 2000 0    50   Input ~ 0
LED3
Wire Bus Line
	5000 4100 5200 4100
Wire Bus Line
	4350 2300 4950 2300
Wire Bus Line
	9000 1900 10050 1900
$EndSCHEMATC
