EESchema Schematic File Version 4
EELAYER 30 0
EELAYER END
$Descr A4 11693 8268
encoding utf-8
Sheet 1 1
Title ""
Date ""
Rev ""
Comp ""
Comment1 ""
Comment2 ""
Comment3 ""
Comment4 ""
$EndDescr
$Comp
L Kosmo:Mounting_Holes H1
U 1 1 5F0B50B1
P 10400 850
F 0 "H1" H 10350 900 50  0000 L CNN
F 1 "Panel" H 10300 800 50  0000 L CNN
F 2 "Kosmo_panel:Kosmo_Panel_Dual_Mounting_Holes" H 10400 850 50  0001 C CNN
F 3 "" H 10400 850 50  0001 C CNN
	1    10400 850 
	1    0    0    -1  
$EndComp
$Comp
L power:GND #PWR01
U 1 1 5F0B59C1
P 10400 1200
F 0 "#PWR01" H 10400 950 50  0001 C CNN
F 1 "GND" H 10405 1027 50  0000 C CNN
F 2 "" H 10400 1200 50  0001 C CNN
F 3 "" H 10400 1200 50  0001 C CNN
	1    10400 1200
	1    0    0    -1  
$EndComp
$Comp
L Kosmo:Mounting_Holes H2
U 1 1 5F0B8330
P 10650 850
F 0 "H2" H 10600 900 50  0000 L CNN
F 1 "Panel" H 10550 800 50  0000 L CNN
F 2 "Kosmo_panel:Kosmo_Panel_Dual_Mounting_Holes" H 10650 850 50  0001 C CNN
F 3 "" H 10650 850 50  0001 C CNN
	1    10650 850 
	1    0    0    -1  
$EndComp
$Comp
L power:GND #PWR02
U 1 1 5F0B8336
P 10650 1200
F 0 "#PWR02" H 10650 950 50  0001 C CNN
F 1 "GND" H 10655 1027 50  0000 C CNN
F 2 "" H 10650 1200 50  0001 C CNN
F 3 "" H 10650 1200 50  0001 C CNN
	1    10650 1200
	1    0    0    -1  
$EndComp
$Comp
L Kosmo:Jack_Hole H13
U 1 1 5F0BCD70
P 10050 3900
F 0 "H13" H 10185 3892 50  0000 L CNN
F 1 "Jack_Hole" H 10185 3801 50  0000 L CNN
F 2 "Kosmo_panel:Kosmo_Jack_Hole" H 10050 4050 50  0001 C CNN
F 3 "" H 10050 3900 50  0001 C CNN
	1    10050 3900
	1    0    0    -1  
$EndComp
$Comp
L Kosmo:Pot_Hole H9
U 1 1 5F0BE8D9
P 8350 2050
F 0 "H9" H 8535 2042 50  0000 L CNN
F 1 "Pot_Hole" H 8535 1951 50  0000 L CNN
F 2 "Kosmo_panel:Kosmo_Pot_Hole" H 8350 2050 50  0001 C CNN
F 3 "" H 8350 2050 50  0001 C CNN
	1    8350 2050
	1    0    0    -1  
$EndComp
$Comp
L power:GND #PWR09
U 1 1 5F0C0DAB
P 10050 4100
F 0 "#PWR09" H 10050 3850 50  0001 C CNN
F 1 "GND" H 10055 3927 50  0000 C CNN
F 2 "" H 10050 4100 50  0001 C CNN
F 3 "" H 10050 4100 50  0001 C CNN
	1    10050 4100
	1    0    0    -1  
$EndComp
$Comp
L power:GND #PWR05
U 1 1 5F0C12BE
P 8350 2300
F 0 "#PWR05" H 8350 2050 50  0001 C CNN
F 1 "GND" H 8355 2127 50  0000 C CNN
F 2 "" H 8350 2300 50  0001 C CNN
F 3 "" H 8350 2300 50  0001 C CNN
	1    8350 2300
	1    0    0    -1  
$EndComp
$Comp
L Kosmo:Pot_Hole H11
U 1 1 5F0C7411
P 8350 2700
F 0 "H11" H 8535 2692 50  0000 L CNN
F 1 "Pot_Hole" H 8535 2601 50  0000 L CNN
F 2 "Kosmo_panel:Kosmo_Pot_Hole" H 8350 2700 50  0001 C CNN
F 3 "" H 8350 2700 50  0001 C CNN
	1    8350 2700
	1    0    0    -1  
$EndComp
$Comp
L power:GND #PWR07
U 1 1 5F0C7417
P 8350 2950
F 0 "#PWR07" H 8350 2700 50  0001 C CNN
F 1 "GND" H 8355 2777 50  0000 C CNN
F 2 "" H 8350 2950 50  0001 C CNN
F 3 "" H 8350 2950 50  0001 C CNN
	1    8350 2950
	1    0    0    -1  
$EndComp
$Comp
L Kosmo:Pot_Hole H10
U 1 1 5F0C9197
P 9100 2050
F 0 "H10" H 9285 2042 50  0000 L CNN
F 1 "Pot_Hole" H 9285 1951 50  0000 L CNN
F 2 "Kosmo_panel:Kosmo_Pot_Hole" H 9100 2050 50  0001 C CNN
F 3 "" H 9100 2050 50  0001 C CNN
	1    9100 2050
	1    0    0    -1  
$EndComp
$Comp
L power:GND #PWR06
U 1 1 5F0C919D
P 9100 2300
F 0 "#PWR06" H 9100 2050 50  0001 C CNN
F 1 "GND" H 9105 2127 50  0000 C CNN
F 2 "" H 9100 2300 50  0001 C CNN
F 3 "" H 9100 2300 50  0001 C CNN
	1    9100 2300
	1    0    0    -1  
$EndComp
$Comp
L Kosmo:Pot_Hole H12
U 1 1 5F0C91A3
P 9100 2700
F 0 "H12" H 9285 2692 50  0000 L CNN
F 1 "Pot_Hole" H 9285 2601 50  0000 L CNN
F 2 "Kosmo_panel:Kosmo_Pot_Hole" H 9100 2700 50  0001 C CNN
F 3 "" H 9100 2700 50  0001 C CNN
	1    9100 2700
	1    0    0    -1  
$EndComp
$Comp
L power:GND #PWR08
U 1 1 5F0C91A9
P 9100 2950
F 0 "#PWR08" H 9100 2700 50  0001 C CNN
F 1 "GND" H 9105 2777 50  0000 C CNN
F 2 "" H 9100 2950 50  0001 C CNN
F 3 "" H 9100 2950 50  0001 C CNN
	1    9100 2950
	1    0    0    -1  
$EndComp
$Comp
L Kosmo:Jack_Hole H14
U 1 1 5F0CCB87
P 10650 3900
F 0 "H14" H 10785 3892 50  0000 L CNN
F 1 "Jack_Hole" H 10785 3801 50  0000 L CNN
F 2 "Kosmo_panel:Kosmo_Jack_Hole" H 10650 4050 50  0001 C CNN
F 3 "" H 10650 3900 50  0001 C CNN
	1    10650 3900
	1    0    0    -1  
$EndComp
$Comp
L power:GND #PWR010
U 1 1 5F0CCB8D
P 10650 4100
F 0 "#PWR010" H 10650 3850 50  0001 C CNN
F 1 "GND" H 10655 3927 50  0000 C CNN
F 2 "" H 10650 4100 50  0001 C CNN
F 3 "" H 10650 4100 50  0001 C CNN
	1    10650 4100
	1    0    0    -1  
$EndComp
Wire Notes Line
	11150 4400 11150 1600
Text Notes 10300 1500 0    50   ~ 0
Panel mount
$Comp
L Kosmo:Mounting_Holes H3
U 1 1 5F0B27C1
P 10900 850
F 0 "H3" H 10850 900 50  0000 L CNN
F 1 "Panel" H 10800 800 50  0000 L CNN
F 2 "Kosmo_panel:Kosmo_Panel_Dual_Mounting_Holes" H 10900 850 50  0001 C CNN
F 3 "" H 10900 850 50  0001 C CNN
	1    10900 850 
	1    0    0    -1  
$EndComp
$Comp
L power:GND #PWR03
U 1 1 5F0B27C7
P 10900 1200
F 0 "#PWR03" H 10900 950 50  0001 C CNN
F 1 "GND" H 10905 1027 50  0000 C CNN
F 2 "" H 10900 1200 50  0001 C CNN
F 3 "" H 10900 1200 50  0001 C CNN
	1    10900 1200
	1    0    0    -1  
$EndComp
$Comp
L Kosmo:Jack_Hole H24
U 1 1 607F1B62
P 9400 3900
F 0 "H24" H 9535 3892 50  0000 L CNN
F 1 "Jack_Hole" H 9535 3801 50  0000 L CNN
F 2 "Kosmo_panel:Kosmo_Jack_Hole" H 9400 4050 50  0001 C CNN
F 3 "" H 9400 3900 50  0001 C CNN
	1    9400 3900
	1    0    0    -1  
$EndComp
$Comp
L power:GND #PWR020
U 1 1 607F1B68
P 9400 4100
F 0 "#PWR020" H 9400 3850 50  0001 C CNN
F 1 "GND" H 9405 3927 50  0000 C CNN
F 2 "" H 9400 4100 50  0001 C CNN
F 3 "" H 9400 4100 50  0001 C CNN
	1    9400 4100
	1    0    0    -1  
$EndComp
$Comp
L Kosmo:Jack_Hole H23
U 1 1 607F230A
P 8750 3900
F 0 "H23" H 8885 3892 50  0000 L CNN
F 1 "Jack_Hole" H 8885 3801 50  0000 L CNN
F 2 "Kosmo_panel:Kosmo_Jack_Hole" H 8750 4050 50  0001 C CNN
F 3 "" H 8750 3900 50  0001 C CNN
	1    8750 3900
	1    0    0    -1  
$EndComp
$Comp
L power:GND #PWR019
U 1 1 607F2310
P 8750 4100
F 0 "#PWR019" H 8750 3850 50  0001 C CNN
F 1 "GND" H 8755 3927 50  0000 C CNN
F 2 "" H 8750 4100 50  0001 C CNN
F 3 "" H 8750 4100 50  0001 C CNN
	1    8750 4100
	1    0    0    -1  
$EndComp
$Comp
L Kosmo:Jack_Hole H21
U 1 1 607F2668
P 9100 3400
F 0 "H21" H 9235 3392 50  0000 L CNN
F 1 "Jack_Hole" H 9235 3301 50  0000 L CNN
F 2 "Kosmo_panel:Kosmo_Jack_Hole" H 9100 3550 50  0001 C CNN
F 3 "" H 9100 3400 50  0001 C CNN
	1    9100 3400
	1    0    0    -1  
$EndComp
$Comp
L power:GND #PWR017
U 1 1 607F266E
P 9100 3600
F 0 "#PWR017" H 9100 3350 50  0001 C CNN
F 1 "GND" H 9105 3427 50  0000 C CNN
F 2 "" H 9100 3600 50  0001 C CNN
F 3 "" H 9100 3600 50  0001 C CNN
	1    9100 3600
	1    0    0    -1  
$EndComp
$Comp
L Kosmo:Jack_Hole H20
U 1 1 607F82A0
P 8400 3400
F 0 "H20" H 8535 3392 50  0000 L CNN
F 1 "Jack_Hole" H 8535 3301 50  0000 L CNN
F 2 "Kosmo_panel:Kosmo_Jack_Hole" H 8400 3550 50  0001 C CNN
F 3 "" H 8400 3400 50  0001 C CNN
	1    8400 3400
	1    0    0    -1  
$EndComp
$Comp
L power:GND #PWR016
U 1 1 607F82A6
P 8400 3600
F 0 "#PWR016" H 8400 3350 50  0001 C CNN
F 1 "GND" H 8405 3427 50  0000 C CNN
F 2 "" H 8400 3600 50  0001 C CNN
F 3 "" H 8400 3600 50  0001 C CNN
	1    8400 3600
	1    0    0    -1  
$EndComp
$Comp
L Kosmo:Jack_Hole H22
U 1 1 607F89AE
P 9800 3400
F 0 "H22" H 9935 3392 50  0000 L CNN
F 1 "Jack_Hole" H 9935 3301 50  0000 L CNN
F 2 "Kosmo_panel:Kosmo_Jack_Hole" H 9800 3550 50  0001 C CNN
F 3 "" H 9800 3400 50  0001 C CNN
	1    9800 3400
	1    0    0    -1  
$EndComp
$Comp
L power:GND #PWR018
U 1 1 607F89B4
P 9800 3600
F 0 "#PWR018" H 9800 3350 50  0001 C CNN
F 1 "GND" H 9805 3427 50  0000 C CNN
F 2 "" H 9800 3600 50  0001 C CNN
F 3 "" H 9800 3600 50  0001 C CNN
	1    9800 3600
	1    0    0    -1  
$EndComp
$Comp
L Kosmo:Jack_Hole H19
U 1 1 607F8EF0
P 10400 3350
F 0 "H19" H 10535 3342 50  0000 L CNN
F 1 "Jack_Hole" H 10535 3251 50  0000 L CNN
F 2 "Kosmo_panel:Kosmo_Jack_Hole" H 10400 3500 50  0001 C CNN
F 3 "" H 10400 3350 50  0001 C CNN
	1    10400 3350
	1    0    0    -1  
$EndComp
$Comp
L power:GND #PWR015
U 1 1 607F8EF6
P 10400 3550
F 0 "#PWR015" H 10400 3300 50  0001 C CNN
F 1 "GND" H 10405 3377 50  0000 C CNN
F 2 "" H 10400 3550 50  0001 C CNN
F 3 "" H 10400 3550 50  0001 C CNN
	1    10400 3550
	1    0    0    -1  
$EndComp
$Comp
L Kosmo:Jack_Hole H17
U 1 1 607F9D2C
P 6650 3950
F 0 "H17" H 6785 3942 50  0000 L CNN
F 1 "Jack_Hole" H 6785 3851 50  0000 L CNN
F 2 "Kosmo_panel:Kosmo_Jack_Hole" H 6650 4100 50  0001 C CNN
F 3 "" H 6650 3950 50  0001 C CNN
	1    6650 3950
	1    0    0    -1  
$EndComp
$Comp
L power:GND #PWR013
U 1 1 607F9D32
P 6650 4150
F 0 "#PWR013" H 6650 3900 50  0001 C CNN
F 1 "GND" H 6655 3977 50  0000 C CNN
F 2 "" H 6650 4150 50  0001 C CNN
F 3 "" H 6650 4150 50  0001 C CNN
	1    6650 4150
	1    0    0    -1  
$EndComp
$Comp
L Kosmo:Jack_Hole H16
U 1 1 607FA29E
P 6650 3250
F 0 "H16" H 6785 3242 50  0000 L CNN
F 1 "Jack_Hole" H 6785 3151 50  0000 L CNN
F 2 "Kosmo_panel:Kosmo_Jack_Hole" H 6650 3400 50  0001 C CNN
F 3 "" H 6650 3250 50  0001 C CNN
	1    6650 3250
	1    0    0    -1  
$EndComp
$Comp
L power:GND #PWR012
U 1 1 607FA2A4
P 6650 3450
F 0 "#PWR012" H 6650 3200 50  0001 C CNN
F 1 "GND" H 6655 3277 50  0000 C CNN
F 2 "" H 6650 3450 50  0001 C CNN
F 3 "" H 6650 3450 50  0001 C CNN
	1    6650 3450
	1    0    0    -1  
$EndComp
$Comp
L Kosmo:Jack_Hole H18
U 1 1 60801E76
P 4450 3950
F 0 "H18" H 4585 3942 50  0000 L CNN
F 1 "Jack_Hole" H 4585 3851 50  0000 L CNN
F 2 "Kosmo_panel:Kosmo_Jack_Hole" H 4450 4100 50  0001 C CNN
F 3 "" H 4450 3950 50  0001 C CNN
	1    4450 3950
	1    0    0    -1  
$EndComp
$Comp
L power:GND #PWR014
U 1 1 60801E7C
P 4450 4150
F 0 "#PWR014" H 4450 3900 50  0001 C CNN
F 1 "GND" H 4455 3977 50  0000 C CNN
F 2 "" H 4450 4150 50  0001 C CNN
F 3 "" H 4450 4150 50  0001 C CNN
	1    4450 4150
	1    0    0    -1  
$EndComp
$Comp
L Kosmo:Jack_Hole H15
U 1 1 60807FC2
P 4450 3200
F 0 "H15" H 4585 3192 50  0000 L CNN
F 1 "Jack_Hole" H 4585 3101 50  0000 L CNN
F 2 "Kosmo_panel:Kosmo_Jack_Hole" H 4450 3350 50  0001 C CNN
F 3 "" H 4450 3200 50  0001 C CNN
	1    4450 3200
	1    0    0    -1  
$EndComp
$Comp
L power:GND #PWR011
U 1 1 60807FC8
P 4450 3400
F 0 "#PWR011" H 4450 3150 50  0001 C CNN
F 1 "GND" H 4455 3227 50  0000 C CNN
F 2 "" H 4450 3400 50  0001 C CNN
F 3 "" H 4450 3400 50  0001 C CNN
	1    4450 3400
	1    0    0    -1  
$EndComp
$Comp
L Kosmo:Pot_Hole H25
U 1 1 60802F64
P 9850 2100
F 0 "H25" H 10035 2092 50  0000 L CNN
F 1 "Pot_Hole" H 10035 2001 50  0000 L CNN
F 2 "Kosmo_panel:Kosmo_Pot_Hole" H 9850 2100 50  0001 C CNN
F 3 "" H 9850 2100 50  0001 C CNN
	1    9850 2100
	1    0    0    -1  
$EndComp
$Comp
L power:GND #PWR0101
U 1 1 60802F6A
P 9850 2350
F 0 "#PWR0101" H 9850 2100 50  0001 C CNN
F 1 "GND" H 9855 2177 50  0000 C CNN
F 2 "" H 9850 2350 50  0001 C CNN
F 3 "" H 9850 2350 50  0001 C CNN
	1    9850 2350
	1    0    0    -1  
$EndComp
$Comp
L Kosmo:Pot_Hole H29
U 1 1 60802F70
P 9850 2750
F 0 "H29" H 10035 2742 50  0000 L CNN
F 1 "Pot_Hole" H 10035 2651 50  0000 L CNN
F 2 "Kosmo_panel:Kosmo_Pot_Hole" H 9850 2750 50  0001 C CNN
F 3 "" H 9850 2750 50  0001 C CNN
	1    9850 2750
	1    0    0    -1  
$EndComp
$Comp
L power:GND #PWR0102
U 1 1 60802F76
P 9850 3000
F 0 "#PWR0102" H 9850 2750 50  0001 C CNN
F 1 "GND" H 9855 2827 50  0000 C CNN
F 2 "" H 9850 3000 50  0001 C CNN
F 3 "" H 9850 3000 50  0001 C CNN
	1    9850 3000
	1    0    0    -1  
$EndComp
$Comp
L Kosmo:Pot_Hole H26
U 1 1 60802F7C
P 10600 2100
F 0 "H26" H 10785 2092 50  0000 L CNN
F 1 "Pot_Hole" H 10785 2001 50  0000 L CNN
F 2 "Kosmo_panel:Kosmo_Pot_Hole" H 10600 2100 50  0001 C CNN
F 3 "" H 10600 2100 50  0001 C CNN
	1    10600 2100
	1    0    0    -1  
$EndComp
$Comp
L power:GND #PWR0103
U 1 1 60802F82
P 10600 2350
F 0 "#PWR0103" H 10600 2100 50  0001 C CNN
F 1 "GND" H 10605 2177 50  0000 C CNN
F 2 "" H 10600 2350 50  0001 C CNN
F 3 "" H 10600 2350 50  0001 C CNN
	1    10600 2350
	1    0    0    -1  
$EndComp
$Comp
L Kosmo:Pot_Hole H30
U 1 1 60802F88
P 10600 2750
F 0 "H30" H 10785 2742 50  0000 L CNN
F 1 "Pot_Hole" H 10785 2651 50  0000 L CNN
F 2 "Kosmo_panel:Kosmo_Pot_Hole" H 10600 2750 50  0001 C CNN
F 3 "" H 10600 2750 50  0001 C CNN
	1    10600 2750
	1    0    0    -1  
$EndComp
$Comp
L power:GND #PWR0104
U 1 1 60802F8E
P 10600 3000
F 0 "#PWR0104" H 10600 2750 50  0001 C CNN
F 1 "GND" H 10605 2827 50  0000 C CNN
F 2 "" H 10600 3000 50  0001 C CNN
F 3 "" H 10600 3000 50  0001 C CNN
	1    10600 3000
	1    0    0    -1  
$EndComp
$Comp
L Kosmo:Pot_Hole H33
U 1 1 60804030
P 5250 3250
F 0 "H33" H 5435 3242 50  0000 L CNN
F 1 "Pot_Hole" H 5435 3151 50  0000 L CNN
F 2 "Kosmo_panel:Kosmo_Pot_Hole" H 5250 3250 50  0001 C CNN
F 3 "" H 5250 3250 50  0001 C CNN
	1    5250 3250
	1    0    0    -1  
$EndComp
$Comp
L power:GND #PWR0105
U 1 1 60804036
P 5250 3500
F 0 "#PWR0105" H 5250 3250 50  0001 C CNN
F 1 "GND" H 5255 3327 50  0000 C CNN
F 2 "" H 5250 3500 50  0001 C CNN
F 3 "" H 5250 3500 50  0001 C CNN
	1    5250 3500
	1    0    0    -1  
$EndComp
$Comp
L Kosmo:Pot_Hole H39
U 1 1 6080403C
P 5250 3900
F 0 "H39" H 5435 3892 50  0000 L CNN
F 1 "Pot_Hole" H 5435 3801 50  0000 L CNN
F 2 "Kosmo_panel:Kosmo_Pot_Hole" H 5250 3900 50  0001 C CNN
F 3 "" H 5250 3900 50  0001 C CNN
	1    5250 3900
	1    0    0    -1  
$EndComp
$Comp
L power:GND #PWR0106
U 1 1 60804042
P 5250 4150
F 0 "#PWR0106" H 5250 3900 50  0001 C CNN
F 1 "GND" H 5255 3977 50  0000 C CNN
F 2 "" H 5250 4150 50  0001 C CNN
F 3 "" H 5250 4150 50  0001 C CNN
	1    5250 4150
	1    0    0    -1  
$EndComp
$Comp
L Kosmo:Pot_Hole H34
U 1 1 60804048
P 6000 3250
F 0 "H34" H 6185 3242 50  0000 L CNN
F 1 "Pot_Hole" H 6185 3151 50  0000 L CNN
F 2 "Kosmo_panel:Kosmo_Pot_Hole" H 6000 3250 50  0001 C CNN
F 3 "" H 6000 3250 50  0001 C CNN
	1    6000 3250
	1    0    0    -1  
$EndComp
$Comp
L power:GND #PWR0107
U 1 1 6080404E
P 6000 3500
F 0 "#PWR0107" H 6000 3250 50  0001 C CNN
F 1 "GND" H 6005 3327 50  0000 C CNN
F 2 "" H 6000 3500 50  0001 C CNN
F 3 "" H 6000 3500 50  0001 C CNN
	1    6000 3500
	1    0    0    -1  
$EndComp
$Comp
L Kosmo:Pot_Hole H40
U 1 1 60804054
P 6000 3900
F 0 "H40" H 6185 3892 50  0000 L CNN
F 1 "Pot_Hole" H 6185 3801 50  0000 L CNN
F 2 "Kosmo_panel:Kosmo_Pot_Hole" H 6000 3900 50  0001 C CNN
F 3 "" H 6000 3900 50  0001 C CNN
	1    6000 3900
	1    0    0    -1  
$EndComp
$Comp
L power:GND #PWR0108
U 1 1 6080405A
P 6000 4150
F 0 "#PWR0108" H 6000 3900 50  0001 C CNN
F 1 "GND" H 6005 3977 50  0000 C CNN
F 2 "" H 6000 4150 50  0001 C CNN
F 3 "" H 6000 4150 50  0001 C CNN
	1    6000 4150
	1    0    0    -1  
$EndComp
Text Notes 8200 1800 0    50   ~ 0
CV inputs with attenuation pots
Wire Notes Line
	11150 1600 8050 1600
Wire Notes Line
	8050 1600 8050 4400
Wire Notes Line
	8050 4400 11150 4400
Text Notes 4300 2900 0    50   ~ 0
Audio inputs and outputs with control pots
$Comp
L Kosmo:Pot_Hole H27
U 1 1 60863B40
P 1100 2750
F 0 "H27" H 1285 2742 50  0000 L CNN
F 1 "Pot_Hole" H 1285 2651 50  0000 L CNN
F 2 "Kosmo_panel:Kosmo_Pot_Hole" H 1100 2750 50  0001 C CNN
F 3 "" H 1100 2750 50  0001 C CNN
	1    1100 2750
	1    0    0    -1  
$EndComp
$Comp
L power:GND #PWR0109
U 1 1 60863B46
P 1100 3000
F 0 "#PWR0109" H 1100 2750 50  0001 C CNN
F 1 "GND" H 1105 2827 50  0000 C CNN
F 2 "" H 1100 3000 50  0001 C CNN
F 3 "" H 1100 3000 50  0001 C CNN
	1    1100 3000
	1    0    0    -1  
$EndComp
$Comp
L Kosmo:Pot_Hole H35
U 1 1 60863B4C
P 1100 3400
F 0 "H35" H 1285 3392 50  0000 L CNN
F 1 "Pot_Hole" H 1285 3301 50  0000 L CNN
F 2 "Kosmo_panel:Kosmo_Pot_Hole" H 1100 3400 50  0001 C CNN
F 3 "" H 1100 3400 50  0001 C CNN
	1    1100 3400
	1    0    0    -1  
$EndComp
$Comp
L power:GND #PWR0110
U 1 1 60863B52
P 1100 3650
F 0 "#PWR0110" H 1100 3400 50  0001 C CNN
F 1 "GND" H 1105 3477 50  0000 C CNN
F 2 "" H 1100 3650 50  0001 C CNN
F 3 "" H 1100 3650 50  0001 C CNN
	1    1100 3650
	1    0    0    -1  
$EndComp
$Comp
L Kosmo:Pot_Hole H28
U 1 1 60863B58
P 1850 2750
F 0 "H28" H 2035 2742 50  0000 L CNN
F 1 "Pot_Hole" H 2035 2651 50  0000 L CNN
F 2 "Kosmo_panel:Kosmo_Pot_Hole" H 1850 2750 50  0001 C CNN
F 3 "" H 1850 2750 50  0001 C CNN
	1    1850 2750
	1    0    0    -1  
$EndComp
$Comp
L power:GND #PWR0111
U 1 1 60863B5E
P 1850 3000
F 0 "#PWR0111" H 1850 2750 50  0001 C CNN
F 1 "GND" H 1855 2827 50  0000 C CNN
F 2 "" H 1850 3000 50  0001 C CNN
F 3 "" H 1850 3000 50  0001 C CNN
	1    1850 3000
	1    0    0    -1  
$EndComp
$Comp
L Kosmo:Pot_Hole H36
U 1 1 60863B64
P 1850 3400
F 0 "H36" H 2035 3392 50  0000 L CNN
F 1 "Pot_Hole" H 2035 3301 50  0000 L CNN
F 2 "Kosmo_panel:Kosmo_Pot_Hole" H 1850 3400 50  0001 C CNN
F 3 "" H 1850 3400 50  0001 C CNN
	1    1850 3400
	1    0    0    -1  
$EndComp
$Comp
L power:GND #PWR0112
U 1 1 60863B6A
P 1850 3650
F 0 "#PWR0112" H 1850 3400 50  0001 C CNN
F 1 "GND" H 1855 3477 50  0000 C CNN
F 2 "" H 1850 3650 50  0001 C CNN
F 3 "" H 1850 3650 50  0001 C CNN
	1    1850 3650
	1    0    0    -1  
$EndComp
$Comp
L Kosmo:Pot_Hole H31
U 1 1 60863B70
P 2600 2800
F 0 "H31" H 2785 2792 50  0000 L CNN
F 1 "Pot_Hole" H 2785 2701 50  0000 L CNN
F 2 "Kosmo_panel:Kosmo_Pot_Hole" H 2600 2800 50  0001 C CNN
F 3 "" H 2600 2800 50  0001 C CNN
	1    2600 2800
	1    0    0    -1  
$EndComp
$Comp
L power:GND #PWR0113
U 1 1 60863B76
P 2600 3050
F 0 "#PWR0113" H 2600 2800 50  0001 C CNN
F 1 "GND" H 2605 2877 50  0000 C CNN
F 2 "" H 2600 3050 50  0001 C CNN
F 3 "" H 2600 3050 50  0001 C CNN
	1    2600 3050
	1    0    0    -1  
$EndComp
$Comp
L Kosmo:Pot_Hole H37
U 1 1 60863B7C
P 2600 3450
F 0 "H37" H 2785 3442 50  0000 L CNN
F 1 "Pot_Hole" H 2785 3351 50  0000 L CNN
F 2 "Kosmo_panel:Kosmo_Pot_Hole" H 2600 3450 50  0001 C CNN
F 3 "" H 2600 3450 50  0001 C CNN
	1    2600 3450
	1    0    0    -1  
$EndComp
$Comp
L power:GND #PWR0114
U 1 1 60863B82
P 2600 3700
F 0 "#PWR0114" H 2600 3450 50  0001 C CNN
F 1 "GND" H 2605 3527 50  0000 C CNN
F 2 "" H 2600 3700 50  0001 C CNN
F 3 "" H 2600 3700 50  0001 C CNN
	1    2600 3700
	1    0    0    -1  
$EndComp
$Comp
L Kosmo:Pot_Hole H32
U 1 1 60863B88
P 3350 2800
F 0 "H32" H 3535 2792 50  0000 L CNN
F 1 "Pot_Hole" H 3535 2701 50  0000 L CNN
F 2 "Kosmo_panel:Kosmo_Pot_Hole" H 3350 2800 50  0001 C CNN
F 3 "" H 3350 2800 50  0001 C CNN
	1    3350 2800
	1    0    0    -1  
$EndComp
$Comp
L power:GND #PWR0115
U 1 1 60863B8E
P 3350 3050
F 0 "#PWR0115" H 3350 2800 50  0001 C CNN
F 1 "GND" H 3355 2877 50  0000 C CNN
F 2 "" H 3350 3050 50  0001 C CNN
F 3 "" H 3350 3050 50  0001 C CNN
	1    3350 3050
	1    0    0    -1  
$EndComp
$Comp
L Kosmo:Pot_Hole H38
U 1 1 60863B94
P 3350 3450
F 0 "H38" H 3535 3442 50  0000 L CNN
F 1 "Pot_Hole" H 3535 3351 50  0000 L CNN
F 2 "Kosmo_panel:Kosmo_Pot_Hole" H 3350 3450 50  0001 C CNN
F 3 "" H 3350 3450 50  0001 C CNN
	1    3350 3450
	1    0    0    -1  
$EndComp
$Comp
L power:GND #PWR0116
U 1 1 60863B9A
P 3350 3700
F 0 "#PWR0116" H 3350 3450 50  0001 C CNN
F 1 "GND" H 3355 3527 50  0000 C CNN
F 2 "" H 3350 3700 50  0001 C CNN
F 3 "" H 3350 3700 50  0001 C CNN
	1    3350 3700
	1    0    0    -1  
$EndComp
Text Notes 1000 2400 0    50   ~ 0
Control potentiometers
Text Notes 7900 900  0    50   ~ 0
Program button
$Comp
L Mechanical:MountingHole_Pad H42
U 1 1 6088F953
P 800 950
F 0 "H42" H 900 999 50  0000 L CNN
F 1 "MountingHole_Pad" H 900 908 50  0000 L CNN
F 2 "MountingHole:MountingHole_2.2mm_M2_Pad" H 800 950 50  0001 C CNN
F 3 "~" H 800 950 50  0001 C CNN
	1    800  950 
	1    0    0    -1  
$EndComp
$Comp
L Mechanical:MountingHole_Pad H43
U 1 1 60891A00
P 1000 1250
F 0 "H43" H 1100 1299 50  0000 L CNN
F 1 "MountingHole_Pad" H 1100 1208 50  0000 L CNN
F 2 "MountingHole:MountingHole_2.2mm_M2_Pad" H 1000 1250 50  0001 C CNN
F 3 "~" H 1000 1250 50  0001 C CNN
	1    1000 1250
	1    0    0    -1  
$EndComp
$Comp
L Mechanical:MountingHole_Pad H41
U 1 1 608923DC
P 1950 900
F 0 "H41" H 2050 949 50  0000 L CNN
F 1 "MountingHole_Pad" H 2050 858 50  0000 L CNN
F 2 "MountingHole:MountingHole_2.2mm_M2_Pad" H 1950 900 50  0001 C CNN
F 3 "~" H 1950 900 50  0001 C CNN
	1    1950 900 
	1    0    0    -1  
$EndComp
$Comp
L Mechanical:MountingHole_Pad H44
U 1 1 60892CC6
P 2150 1250
F 0 "H44" H 2250 1299 50  0000 L CNN
F 1 "MountingHole_Pad" H 2250 1208 50  0000 L CNN
F 2 "MountingHole:MountingHole_2.2mm_M2_Pad" H 2150 1250 50  0001 C CNN
F 3 "~" H 2150 1250 50  0001 C CNN
	1    2150 1250
	1    0    0    -1  
$EndComp
$Comp
L power:GND #PWR024
U 1 1 60893AEC
P 2150 1350
F 0 "#PWR024" H 2150 1100 50  0001 C CNN
F 1 "GND" H 2155 1177 50  0000 C CNN
F 2 "" H 2150 1350 50  0001 C CNN
F 3 "" H 2150 1350 50  0001 C CNN
	1    2150 1350
	1    0    0    -1  
$EndComp
$Comp
L power:GND #PWR021
U 1 1 60895D65
P 1950 1000
F 0 "#PWR021" H 1950 750 50  0001 C CNN
F 1 "GND" H 1955 827 50  0000 C CNN
F 2 "" H 1950 1000 50  0001 C CNN
F 3 "" H 1950 1000 50  0001 C CNN
	1    1950 1000
	1    0    0    -1  
$EndComp
$Comp
L power:GND #PWR023
U 1 1 60896311
P 1000 1350
F 0 "#PWR023" H 1000 1100 50  0001 C CNN
F 1 "GND" H 1005 1177 50  0000 C CNN
F 2 "" H 1000 1350 50  0001 C CNN
F 3 "" H 1000 1350 50  0001 C CNN
	1    1000 1350
	1    0    0    -1  
$EndComp
$Comp
L power:GND #PWR022
U 1 1 60898464
P 800 1050
F 0 "#PWR022" H 800 800 50  0001 C CNN
F 1 "GND" H 805 877 50  0000 C CNN
F 2 "" H 800 1050 50  0001 C CNN
F 3 "" H 800 1050 50  0001 C CNN
	1    800  1050
	1    0    0    -1  
$EndComp
Text Notes 700  700  0    50   ~ 0
Display
$Comp
L Kosmo:Pot_Hole H4
U 1 1 608D2FF9
P 5150 1050
F 0 "H4" H 5335 1042 50  0000 L CNN
F 1 "Pot_Hole" H 5335 951 50  0000 L CNN
F 2 "Kosmo_panel:Kosmo_Pot_Hole" H 5150 1050 50  0001 C CNN
F 3 "" H 5150 1050 50  0001 C CNN
	1    5150 1050
	1    0    0    -1  
$EndComp
$Comp
L power:GND #PWR04
U 1 1 608D2FFF
P 5150 1300
F 0 "#PWR04" H 5150 1050 50  0001 C CNN
F 1 "GND" H 5155 1127 50  0000 C CNN
F 2 "" H 5150 1300 50  0001 C CNN
F 3 "" H 5150 1300 50  0001 C CNN
	1    5150 1300
	1    0    0    -1  
$EndComp
$Comp
L Kosmo:Pot_Hole H6
U 1 1 608D3005
P 5950 1050
F 0 "H6" H 6135 1042 50  0000 L CNN
F 1 "Pot_Hole" H 6135 951 50  0000 L CNN
F 2 "Kosmo_panel:Kosmo_Pot_Hole" H 5950 1050 50  0001 C CNN
F 3 "" H 5950 1050 50  0001 C CNN
	1    5950 1050
	1    0    0    -1  
$EndComp
$Comp
L power:GND #PWR025
U 1 1 608D300B
P 5950 1300
F 0 "#PWR025" H 5950 1050 50  0001 C CNN
F 1 "GND" H 5955 1127 50  0000 C CNN
F 2 "" H 5950 1300 50  0001 C CNN
F 3 "" H 5950 1300 50  0001 C CNN
	1    5950 1300
	1    0    0    -1  
$EndComp
Text Notes 5000 800  0    50   ~ 0
Rotary encoders
$Comp
L Kosmo:Led_Hole H7
U 1 1 60B8C691
P 1600 4700
F 0 "H7" H 1699 4746 50  0000 L CNN
F 1 "Led_Hole" H 1699 4655 50  0000 L CNN
F 2 "Kosmo_panel:Kosmo_LED_Hole" H 1715 4845 50  0001 C CNN
F 3 "" H 1595 4705 50  0001 C CNN
	1    1600 4700
	1    0    0    -1  
$EndComp
$Comp
L Kosmo:Led_Hole H8
U 1 1 60B8CFD4
P 2250 4700
F 0 "H8" H 2349 4746 50  0000 L CNN
F 1 "Led_Hole" H 2349 4655 50  0000 L CNN
F 2 "Kosmo_panel:Kosmo_LED_Hole" H 2365 4845 50  0001 C CNN
F 3 "" H 2245 4705 50  0001 C CNN
	1    2250 4700
	1    0    0    -1  
$EndComp
$Comp
L Kosmo:Led_Hole H45
U 1 1 60B8D8FE
P 2850 4700
F 0 "H45" H 2949 4746 50  0000 L CNN
F 1 "Led_Hole" H 2949 4655 50  0000 L CNN
F 2 "Kosmo_panel:Kosmo_LED_Hole" H 2965 4845 50  0001 C CNN
F 3 "" H 2845 4705 50  0001 C CNN
	1    2850 4700
	1    0    0    -1  
$EndComp
$Comp
L Mechanical:MountingHole H5
U 1 1 60B9DBEE
P 7950 1050
F 0 "H5" H 8050 1096 50  0000 L CNN
F 1 "MountingHole" H 8050 1005 50  0000 L CNN
F 2 "MountingHole:MountingHole_3.5mm" H 7950 1050 50  0001 C CNN
F 3 "~" H 7950 1050 50  0001 C CNN
	1    7950 1050
	1    0    0    -1  
$EndComp
$Comp
L Graphic:SYM_LASER_Small #SYM1
U 1 1 60C552EF
P 1450 5700
F 0 "#SYM1" H 1450 5840 50  0001 C CNN
F 1 "SYM_LASER_Small" H 1450 5575 50  0001 C CNN
F 2 "Kosmo_panel:silkscreen_drawing" H 1450 5525 50  0001 C CNN
F 3 "~" H 1480 5500 50  0001 C CNN
	1    1450 5700
	1    0    0    -1  
$EndComp
Text Notes 1100 5500 0    50   ~ 0
Design
$EndSCHEMATC
